ARM GAS  C:\Users\Moi\AppData\Local\Temp\ccD2ByPF.s 			page 1


   1              		.cpu cortex-m4
   2              		.eabi_attribute 27, 1
   3              		.eabi_attribute 28, 1
   4              		.eabi_attribute 20, 1
   5              		.eabi_attribute 21, 1
   6              		.eabi_attribute 23, 3
   7              		.eabi_attribute 24, 1
   8              		.eabi_attribute 25, 1
   9              		.eabi_attribute 26, 1
  10              		.eabi_attribute 30, 2
  11              		.eabi_attribute 34, 1
  12              		.eabi_attribute 18, 4
  13              		.file	"vectors.c"
  14              		.text
  15              	.Ltext0:
  16              		.cfi_sections	.debug_frame
  17              		.section	.text._unhandled_exception,"ax",%progbits
  18              		.align	1
  19              		.p2align 4,,15
  20              		.global	_unhandled_exception
  21              		.syntax unified
  22              		.thumb
  23              		.thumb_func
  24              		.fpu fpv4-sp-d16
  25              		.type	_unhandled_exception, %function
  26              	_unhandled_exception:
  27              	.LFB112:
  28              		.file 1 ".//ChibiOS//os/common/ports/ARMCMx/compilers/GCC/vectors.c"
  29              		.loc 1 79 0
  30              		.cfi_startproc
  31              		@ Volatile: function does not return.
  32              		@ args = 0, pretend = 0, frame = 8
  33              		@ frame_needed = 0, uses_anonymous_args = 0
  34 0000 00B5     		push	{lr}
  35              		.cfi_def_cfa_offset 4
  36              		.cfi_offset 14, -4
  37 0002 044B     		ldr	r3, .L6
  38              		.loc 1 82 0
  39 0004 0448     		ldr	r0, .L6+4
  40              		.loc 1 79 0
  41 0006 1B68     		ldr	r3, [r3]
  42 0008 83B0     		sub	sp, sp, #12
  43              		.cfi_def_cfa_offset 16
  44              		.loc 1 79 0
  45 000a 0193     		str	r3, [sp, #4]
  46              		.loc 1 82 0
  47 000c FFF7FEFF 		bl	chSysHalt
  48              	.LVL0:
  49              	.L2:
  50 0010 FEE7     		b	.L2
  51              	.L7:
  52 0012 00BF     		.align	2
  53              	.L6:
  54 0014 00000000 		.word	__stack_chk_guard
  55 0018 00000000 		.word	.LC0
  56              		.cfi_endproc
  57              	.LFE112:
ARM GAS  C:\Users\Moi\AppData\Local\Temp\ccD2ByPF.s 			page 2


  58              		.size	_unhandled_exception, .-_unhandled_exception
  59              		.weak	Vector1BC
  60              		.thumb_set Vector1BC,_unhandled_exception
  61              		.weak	Vector1B8
  62              		.thumb_set Vector1B8,_unhandled_exception
  63              		.weak	Vector1B4
  64              		.thumb_set Vector1B4,_unhandled_exception
  65              		.weak	Vector1B0
  66              		.thumb_set Vector1B0,_unhandled_exception
  67              		.weak	Vector1AC
  68              		.thumb_set Vector1AC,_unhandled_exception
  69              		.weak	Vector1A8
  70              		.thumb_set Vector1A8,_unhandled_exception
  71              		.weak	Vector1A4
  72              		.thumb_set Vector1A4,_unhandled_exception
  73              		.weak	Vector1A0
  74              		.thumb_set Vector1A0,_unhandled_exception
  75              		.weak	Vector19C
  76              		.thumb_set Vector19C,_unhandled_exception
  77              		.weak	Vector198
  78              		.thumb_set Vector198,_unhandled_exception
  79              		.weak	Vector194
  80              		.thumb_set Vector194,_unhandled_exception
  81              		.weak	Vector190
  82              		.thumb_set Vector190,_unhandled_exception
  83              		.weak	Vector18C
  84              		.thumb_set Vector18C,_unhandled_exception
  85              		.weak	Vector188
  86              		.thumb_set Vector188,_unhandled_exception
  87              		.weak	Vector184
  88              		.thumb_set Vector184,_unhandled_exception
  89              		.weak	Vector180
  90              		.thumb_set Vector180,_unhandled_exception
  91              		.weak	Vector17C
  92              		.thumb_set Vector17C,_unhandled_exception
  93              		.weak	Vector178
  94              		.thumb_set Vector178,_unhandled_exception
  95              		.weak	Vector174
  96              		.thumb_set Vector174,_unhandled_exception
  97              		.weak	Vector170
  98              		.thumb_set Vector170,_unhandled_exception
  99              		.weak	Vector16C
 100              		.thumb_set Vector16C,_unhandled_exception
 101              		.weak	Vector168
 102              		.thumb_set Vector168,_unhandled_exception
 103              		.weak	Vector164
 104              		.thumb_set Vector164,_unhandled_exception
 105              		.weak	Vector160
 106              		.thumb_set Vector160,_unhandled_exception
 107              		.weak	Vector15C
 108              		.thumb_set Vector15C,_unhandled_exception
 109              		.weak	Vector158
 110              		.thumb_set Vector158,_unhandled_exception
 111              		.weak	Vector154
 112              		.thumb_set Vector154,_unhandled_exception
 113              		.weak	Vector150
 114              		.thumb_set Vector150,_unhandled_exception
ARM GAS  C:\Users\Moi\AppData\Local\Temp\ccD2ByPF.s 			page 3


 115              		.weak	Vector14C
 116              		.thumb_set Vector14C,_unhandled_exception
 117              		.weak	Vector148
 118              		.thumb_set Vector148,_unhandled_exception
 119              		.weak	Vector144
 120              		.thumb_set Vector144,_unhandled_exception
 121              		.weak	Vector140
 122              		.thumb_set Vector140,_unhandled_exception
 123              		.weak	Vector13C
 124              		.thumb_set Vector13C,_unhandled_exception
 125              		.weak	Vector138
 126              		.thumb_set Vector138,_unhandled_exception
 127              		.weak	Vector134
 128              		.thumb_set Vector134,_unhandled_exception
 129              		.weak	Vector130
 130              		.thumb_set Vector130,_unhandled_exception
 131              		.weak	Vector12C
 132              		.thumb_set Vector12C,_unhandled_exception
 133              		.weak	Vector128
 134              		.thumb_set Vector128,_unhandled_exception
 135              		.weak	Vector124
 136              		.thumb_set Vector124,_unhandled_exception
 137              		.weak	Vector120
 138              		.thumb_set Vector120,_unhandled_exception
 139              		.weak	Vector11C
 140              		.thumb_set Vector11C,_unhandled_exception
 141              		.weak	Vector118
 142              		.thumb_set Vector118,_unhandled_exception
 143              		.weak	Vector114
 144              		.thumb_set Vector114,_unhandled_exception
 145              		.weak	Vector110
 146              		.thumb_set Vector110,_unhandled_exception
 147              		.weak	Vector10C
 148              		.thumb_set Vector10C,_unhandled_exception
 149              		.weak	Vector108
 150              		.thumb_set Vector108,_unhandled_exception
 151              		.weak	Vector104
 152              		.thumb_set Vector104,_unhandled_exception
 153              		.weak	Vector100
 154              		.thumb_set Vector100,_unhandled_exception
 155              		.weak	VectorFC
 156              		.thumb_set VectorFC,_unhandled_exception
 157              		.weak	VectorF8
 158              		.thumb_set VectorF8,_unhandled_exception
 159              		.weak	VectorF4
 160              		.thumb_set VectorF4,_unhandled_exception
 161              		.weak	VectorF0
 162              		.thumb_set VectorF0,_unhandled_exception
 163              		.weak	VectorEC
 164              		.thumb_set VectorEC,_unhandled_exception
 165              		.weak	VectorE8
 166              		.thumb_set VectorE8,_unhandled_exception
 167              		.weak	VectorE4
 168              		.thumb_set VectorE4,_unhandled_exception
 169              		.weak	VectorE0
 170              		.thumb_set VectorE0,_unhandled_exception
 171              		.weak	VectorDC
ARM GAS  C:\Users\Moi\AppData\Local\Temp\ccD2ByPF.s 			page 4


 172              		.thumb_set VectorDC,_unhandled_exception
 173              		.weak	VectorD8
 174              		.thumb_set VectorD8,_unhandled_exception
 175              		.weak	VectorD4
 176              		.thumb_set VectorD4,_unhandled_exception
 177              		.weak	VectorD0
 178              		.thumb_set VectorD0,_unhandled_exception
 179              		.weak	VectorCC
 180              		.thumb_set VectorCC,_unhandled_exception
 181              		.weak	VectorC8
 182              		.thumb_set VectorC8,_unhandled_exception
 183              		.weak	VectorC4
 184              		.thumb_set VectorC4,_unhandled_exception
 185              		.weak	VectorC0
 186              		.thumb_set VectorC0,_unhandled_exception
 187              		.weak	VectorBC
 188              		.thumb_set VectorBC,_unhandled_exception
 189              		.weak	VectorB8
 190              		.thumb_set VectorB8,_unhandled_exception
 191              		.weak	VectorB4
 192              		.thumb_set VectorB4,_unhandled_exception
 193              		.weak	VectorB0
 194              		.thumb_set VectorB0,_unhandled_exception
 195              		.weak	VectorAC
 196              		.thumb_set VectorAC,_unhandled_exception
 197              		.weak	VectorA8
 198              		.thumb_set VectorA8,_unhandled_exception
 199              		.weak	VectorA4
 200              		.thumb_set VectorA4,_unhandled_exception
 201              		.weak	VectorA0
 202              		.thumb_set VectorA0,_unhandled_exception
 203              		.weak	Vector9C
 204              		.thumb_set Vector9C,_unhandled_exception
 205              		.weak	Vector98
 206              		.thumb_set Vector98,_unhandled_exception
 207              		.weak	Vector94
 208              		.thumb_set Vector94,_unhandled_exception
 209              		.weak	Vector90
 210              		.thumb_set Vector90,_unhandled_exception
 211              		.weak	Vector8C
 212              		.thumb_set Vector8C,_unhandled_exception
 213              		.weak	Vector88
 214              		.thumb_set Vector88,_unhandled_exception
 215              		.weak	Vector84
 216              		.thumb_set Vector84,_unhandled_exception
 217              		.weak	Vector80
 218              		.thumb_set Vector80,_unhandled_exception
 219              		.weak	Vector7C
 220              		.thumb_set Vector7C,_unhandled_exception
 221              		.weak	Vector78
 222              		.thumb_set Vector78,_unhandled_exception
 223              		.weak	Vector74
 224              		.thumb_set Vector74,_unhandled_exception
 225              		.weak	Vector70
 226              		.thumb_set Vector70,_unhandled_exception
 227              		.weak	Vector6C
 228              		.thumb_set Vector6C,_unhandled_exception
ARM GAS  C:\Users\Moi\AppData\Local\Temp\ccD2ByPF.s 			page 5


 229              		.weak	Vector68
 230              		.thumb_set Vector68,_unhandled_exception
 231              		.weak	Vector64
 232              		.thumb_set Vector64,_unhandled_exception
 233              		.weak	Vector60
 234              		.thumb_set Vector60,_unhandled_exception
 235              		.weak	Vector5C
 236              		.thumb_set Vector5C,_unhandled_exception
 237              		.weak	Vector58
 238              		.thumb_set Vector58,_unhandled_exception
 239              		.weak	Vector54
 240              		.thumb_set Vector54,_unhandled_exception
 241              		.weak	Vector50
 242              		.thumb_set Vector50,_unhandled_exception
 243              		.weak	Vector4C
 244              		.thumb_set Vector4C,_unhandled_exception
 245              		.weak	Vector48
 246              		.thumb_set Vector48,_unhandled_exception
 247              		.weak	Vector44
 248              		.thumb_set Vector44,_unhandled_exception
 249              		.weak	Vector40
 250              		.thumb_set Vector40,_unhandled_exception
 251              		.weak	SysTick_Handler
 252              		.thumb_set SysTick_Handler,_unhandled_exception
 253              		.weak	PendSV_Handler
 254              		.thumb_set PendSV_Handler,_unhandled_exception
 255              		.weak	Vector34
 256              		.thumb_set Vector34,_unhandled_exception
 257              		.weak	DebugMon_Handler
 258              		.thumb_set DebugMon_Handler,_unhandled_exception
 259              		.weak	SVC_Handler
 260              		.thumb_set SVC_Handler,_unhandled_exception
 261              		.weak	Vector28
 262              		.thumb_set Vector28,_unhandled_exception
 263              		.weak	Vector24
 264              		.thumb_set Vector24,_unhandled_exception
 265              		.weak	Vector20
 266              		.thumb_set Vector20,_unhandled_exception
 267              		.weak	Vector1C
 268              		.thumb_set Vector1C,_unhandled_exception
 269              		.weak	UsageFault_Handler
 270              		.thumb_set UsageFault_Handler,_unhandled_exception
 271              		.weak	BusFault_Handler
 272              		.thumb_set BusFault_Handler,_unhandled_exception
 273              		.weak	MemManage_Handler
 274              		.thumb_set MemManage_Handler,_unhandled_exception
 275              		.weak	HardFault_Handler
 276              		.thumb_set HardFault_Handler,_unhandled_exception
 277              		.weak	NMI_Handler
 278              		.thumb_set NMI_Handler,_unhandled_exception
 279              		.weak	Reset_Handler
 280              		.thumb_set Reset_Handler,_unhandled_exception
 281              		.global	_vectors
 282              		.section	.rodata._unhandled_exception.str1.4,"aMS",%progbits,1
 283              		.align	2
 284              	.LC0:
 285 0000 756E6861 		.ascii	"unhandled exception\000"
ARM GAS  C:\Users\Moi\AppData\Local\Temp\ccD2ByPF.s 			page 6


 285      6E646C65 
 285      64206578 
 285      63657074 
 285      696F6E00 
 286              		.section	.vectors,"aw",%progbits
 287              		.align	2
 288              		.type	_vectors, %object
 289              		.size	_vectors, 448
 290              	_vectors:
 291 0000 00000000 		.word	__main_stack_end__
 292 0004 00000000 		.word	Reset_Handler
 293 0008 00000000 		.word	NMI_Handler
 294 000c 00000000 		.word	HardFault_Handler
 295 0010 00000000 		.word	MemManage_Handler
 296 0014 00000000 		.word	BusFault_Handler
 297 0018 00000000 		.word	UsageFault_Handler
 298 001c 00000000 		.word	Vector1C
 299 0020 00000000 		.word	Vector20
 300 0024 00000000 		.word	Vector24
 301 0028 00000000 		.word	Vector28
 302 002c 00000000 		.word	SVC_Handler
 303 0030 00000000 		.word	DebugMon_Handler
 304 0034 00000000 		.word	Vector34
 305 0038 00000000 		.word	PendSV_Handler
 306 003c 00000000 		.word	SysTick_Handler
 307 0040 00000000 		.word	Vector40
 308 0044 00000000 		.word	Vector44
 309 0048 00000000 		.word	Vector48
 310 004c 00000000 		.word	Vector4C
 311 0050 00000000 		.word	Vector50
 312 0054 00000000 		.word	Vector54
 313 0058 00000000 		.word	Vector58
 314 005c 00000000 		.word	Vector5C
 315 0060 00000000 		.word	Vector60
 316 0064 00000000 		.word	Vector64
 317 0068 00000000 		.word	Vector68
 318 006c 00000000 		.word	Vector6C
 319 0070 00000000 		.word	Vector70
 320 0074 00000000 		.word	Vector74
 321 0078 00000000 		.word	Vector78
 322 007c 00000000 		.word	Vector7C
 323 0080 00000000 		.word	Vector80
 324 0084 00000000 		.word	Vector84
 325 0088 00000000 		.word	Vector88
 326 008c 00000000 		.word	Vector8C
 327 0090 00000000 		.word	Vector90
 328 0094 00000000 		.word	Vector94
 329 0098 00000000 		.word	Vector98
 330 009c 00000000 		.word	Vector9C
 331 00a0 00000000 		.word	VectorA0
 332 00a4 00000000 		.word	VectorA4
 333 00a8 00000000 		.word	VectorA8
 334 00ac 00000000 		.word	VectorAC
 335 00b0 00000000 		.word	VectorB0
 336 00b4 00000000 		.word	VectorB4
 337 00b8 00000000 		.word	VectorB8
 338 00bc 00000000 		.word	VectorBC
ARM GAS  C:\Users\Moi\AppData\Local\Temp\ccD2ByPF.s 			page 7


 339 00c0 00000000 		.word	VectorC0
 340 00c4 00000000 		.word	VectorC4
 341 00c8 00000000 		.word	VectorC8
 342 00cc 00000000 		.word	VectorCC
 343 00d0 00000000 		.word	VectorD0
 344 00d4 00000000 		.word	VectorD4
 345 00d8 00000000 		.word	VectorD8
 346 00dc 00000000 		.word	VectorDC
 347 00e0 00000000 		.word	VectorE0
 348 00e4 00000000 		.word	VectorE4
 349 00e8 00000000 		.word	VectorE8
 350 00ec 00000000 		.word	VectorEC
 351 00f0 00000000 		.word	VectorF0
 352 00f4 00000000 		.word	VectorF4
 353 00f8 00000000 		.word	VectorF8
 354 00fc 00000000 		.word	VectorFC
 355 0100 00000000 		.word	Vector100
 356 0104 00000000 		.word	Vector104
 357 0108 00000000 		.word	Vector108
 358 010c 00000000 		.word	Vector10C
 359 0110 00000000 		.word	Vector110
 360 0114 00000000 		.word	Vector114
 361 0118 00000000 		.word	Vector118
 362 011c 00000000 		.word	Vector11C
 363 0120 00000000 		.word	Vector120
 364 0124 00000000 		.word	Vector124
 365 0128 00000000 		.word	Vector128
 366 012c 00000000 		.word	Vector12C
 367 0130 00000000 		.word	Vector130
 368 0134 00000000 		.word	Vector134
 369 0138 00000000 		.word	Vector138
 370 013c 00000000 		.word	Vector13C
 371 0140 00000000 		.word	Vector140
 372 0144 00000000 		.word	Vector144
 373 0148 00000000 		.word	Vector148
 374 014c 00000000 		.word	Vector14C
 375 0150 00000000 		.word	Vector150
 376 0154 00000000 		.word	Vector154
 377 0158 00000000 		.word	Vector158
 378 015c 00000000 		.word	Vector15C
 379 0160 00000000 		.word	Vector160
 380 0164 00000000 		.word	Vector164
 381 0168 00000000 		.word	Vector168
 382 016c 00000000 		.word	Vector16C
 383 0170 00000000 		.word	Vector170
 384 0174 00000000 		.word	Vector174
 385 0178 00000000 		.word	Vector178
 386 017c 00000000 		.word	Vector17C
 387 0180 00000000 		.word	Vector180
 388 0184 00000000 		.word	Vector184
 389 0188 00000000 		.word	Vector188
 390 018c 00000000 		.word	Vector18C
 391 0190 00000000 		.word	Vector190
 392 0194 00000000 		.word	Vector194
 393 0198 00000000 		.word	Vector198
 394 019c 00000000 		.word	Vector19C
 395 01a0 00000000 		.word	Vector1A0
ARM GAS  C:\Users\Moi\AppData\Local\Temp\ccD2ByPF.s 			page 8


 396 01a4 00000000 		.word	Vector1A4
 397 01a8 00000000 		.word	Vector1A8
 398 01ac 00000000 		.word	Vector1AC
 399 01b0 00000000 		.word	Vector1B0
 400 01b4 00000000 		.word	Vector1B4
 401 01b8 00000000 		.word	Vector1B8
 402 01bc 00000000 		.word	Vector1BC
 403              		.text
 404              	.Letext0:
 405              		.file 2 "c:\\users\\moi\\documents\\_microinfo\\epuck-eclipse\\tools\\gcc-arm-none-eabi-7-2017-q4-
 406              		.file 3 "c:\\users\\moi\\documents\\_microinfo\\epuck-eclipse\\tools\\gcc-arm-none-eabi-7-2017-q4-
 407              		.file 4 ".//ChibiOS//os/ext/CMSIS/include/core_cm4.h"
 408              		.file 5 ".//ChibiOS//os/ext/CMSIS/ST/system_stm32f4xx.h"
 409              		.section	.debug_info,"",%progbits
 410              	.Ldebug_info0:
 411 0000 0A020000 		.4byte	0x20a
 412 0004 0400     		.2byte	0x4
 413 0006 00000000 		.4byte	.Ldebug_abbrev0
 414 000a 04       		.byte	0x4
 415 000b 01       		.uleb128 0x1
 416 000c 31010000 		.4byte	.LASF36
 417 0010 0C       		.byte	0xc
 418 0011 40000000 		.4byte	.LASF37
 419 0015 FC020000 		.4byte	.LASF38
 420 0019 00000000 		.4byte	.Ldebug_ranges0+0
 421 001d 00000000 		.4byte	0
 422 0021 00000000 		.4byte	.Ldebug_line0
 423 0025 02       		.uleb128 0x2
 424 0026 01       		.byte	0x1
 425 0027 06       		.byte	0x6
 426 0028 9D030000 		.4byte	.LASF0
 427 002c 02       		.uleb128 0x2
 428 002d 01       		.byte	0x1
 429 002e 08       		.byte	0x8
 430 002f B6000000 		.4byte	.LASF1
 431 0033 02       		.uleb128 0x2
 432 0034 02       		.byte	0x2
 433 0035 05       		.byte	0x5
 434 0036 65030000 		.4byte	.LASF2
 435 003a 02       		.uleb128 0x2
 436 003b 02       		.byte	0x2
 437 003c 07       		.byte	0x7
 438 003d 7B000000 		.4byte	.LASF3
 439 0041 03       		.uleb128 0x3
 440 0042 36000000 		.4byte	.LASF5
 441 0046 02       		.byte	0x2
 442 0047 4D       		.byte	0x4d
 443 0048 4C000000 		.4byte	0x4c
 444 004c 02       		.uleb128 0x2
 445 004d 04       		.byte	0x4
 446 004e 05       		.byte	0x5
 447 004f 78030000 		.4byte	.LASF4
 448 0053 03       		.uleb128 0x3
 449 0054 1A010000 		.4byte	.LASF6
 450 0058 02       		.byte	0x2
 451 0059 4F       		.byte	0x4f
 452 005a 5E000000 		.4byte	0x5e
ARM GAS  C:\Users\Moi\AppData\Local\Temp\ccD2ByPF.s 			page 9


 453 005e 02       		.uleb128 0x2
 454 005f 04       		.byte	0x4
 455 0060 07       		.byte	0x7
 456 0061 D4000000 		.4byte	.LASF7
 457 0065 02       		.uleb128 0x2
 458 0066 08       		.byte	0x8
 459 0067 05       		.byte	0x5
 460 0068 DE020000 		.4byte	.LASF8
 461 006c 02       		.uleb128 0x2
 462 006d 08       		.byte	0x8
 463 006e 07       		.byte	0x7
 464 006f 8B020000 		.4byte	.LASF9
 465 0073 04       		.uleb128 0x4
 466 0074 04       		.byte	0x4
 467 0075 05       		.byte	0x5
 468 0076 696E7400 		.ascii	"int\000"
 469 007a 02       		.uleb128 0x2
 470 007b 04       		.byte	0x4
 471 007c 07       		.byte	0x7
 472 007d 75020000 		.4byte	.LASF10
 473 0081 03       		.uleb128 0x3
 474 0082 99000000 		.4byte	.LASF11
 475 0086 03       		.byte	0x3
 476 0087 2C       		.byte	0x2c
 477 0088 41000000 		.4byte	0x41
 478 008c 05       		.uleb128 0x5
 479 008d 81000000 		.4byte	0x81
 480 0091 03       		.uleb128 0x3
 481 0092 6F030000 		.4byte	.LASF12
 482 0096 03       		.byte	0x3
 483 0097 30       		.byte	0x30
 484 0098 53000000 		.4byte	0x53
 485 009c 06       		.uleb128 0x6
 486 009d F2000000 		.4byte	.LASF13
 487 00a1 04       		.byte	0x4
 488 00a2 A706     		.2byte	0x6a7
 489 00a4 8C000000 		.4byte	0x8c
 490 00a8 07       		.uleb128 0x7
 491 00a9 EC020000 		.4byte	.LASF14
 492 00ad 05       		.byte	0x5
 493 00ae 4C       		.byte	0x4c
 494 00af 91000000 		.4byte	0x91
 495 00b3 03       		.uleb128 0x3
 496 00b4 11000000 		.4byte	.LASF15
 497 00b8 01       		.byte	0x1
 498 00b9 2C       		.byte	0x2c
 499 00ba BE000000 		.4byte	0xbe
 500 00be 08       		.uleb128 0x8
 501 00bf 04       		.byte	0x4
 502 00c0 C4000000 		.4byte	0xc4
 503 00c4 09       		.uleb128 0x9
 504 00c5 0A       		.uleb128 0xa
 505 00c6 C001     		.2byte	0x1c0
 506 00c8 01       		.byte	0x1
 507 00c9 31       		.byte	0x31
 508 00ca 9B010000 		.4byte	0x19b
 509 00ce 0B       		.uleb128 0xb
ARM GAS  C:\Users\Moi\AppData\Local\Temp\ccD2ByPF.s 			page 10


 510 00cf 8E000000 		.4byte	.LASF16
 511 00d3 01       		.byte	0x1
 512 00d4 32       		.byte	0x32
 513 00d5 9B010000 		.4byte	0x19b
 514 00d9 00       		.byte	0
 515 00da 0B       		.uleb128 0xb
 516 00db BD020000 		.4byte	.LASF17
 517 00df 01       		.byte	0x1
 518 00e0 33       		.byte	0x33
 519 00e1 B3000000 		.4byte	0xb3
 520 00e5 04       		.byte	0x4
 521 00e6 0B       		.uleb128 0xb
 522 00e7 25010000 		.4byte	.LASF18
 523 00eb 01       		.byte	0x1
 524 00ec 34       		.byte	0x34
 525 00ed B3000000 		.4byte	0xb3
 526 00f1 08       		.byte	0x8
 527 00f2 0B       		.uleb128 0xb
 528 00f3 08010000 		.4byte	.LASF19
 529 00f7 01       		.byte	0x1
 530 00f8 35       		.byte	0x35
 531 00f9 B3000000 		.4byte	0xb3
 532 00fd 0C       		.byte	0xc
 533 00fe 0B       		.uleb128 0xb
 534 00ff 8B030000 		.4byte	.LASF20
 535 0103 01       		.byte	0x1
 536 0104 36       		.byte	0x36
 537 0105 B3000000 		.4byte	0xb3
 538 0109 10       		.byte	0x10
 539 010a 0B       		.uleb128 0xb
 540 010b 00000000 		.4byte	.LASF21
 541 010f 01       		.byte	0x1
 542 0110 37       		.byte	0x37
 543 0111 B3000000 		.4byte	0xb3
 544 0115 14       		.byte	0x14
 545 0116 0B       		.uleb128 0xb
 546 0117 CB020000 		.4byte	.LASF22
 547 011b 01       		.byte	0x1
 548 011c 38       		.byte	0x38
 549 011d B3000000 		.4byte	0xb3
 550 0121 18       		.byte	0x18
 551 0122 0B       		.uleb128 0xb
 552 0123 FF000000 		.4byte	.LASF23
 553 0127 01       		.byte	0x1
 554 0128 39       		.byte	0x39
 555 0129 B3000000 		.4byte	0xb3
 556 012d 1C       		.byte	0x1c
 557 012e 0B       		.uleb128 0xb
 558 012f 82020000 		.4byte	.LASF24
 559 0133 01       		.byte	0x1
 560 0134 3A       		.byte	0x3a
 561 0135 B3000000 		.4byte	0xb3
 562 0139 20       		.byte	0x20
 563 013a 0B       		.uleb128 0xb
 564 013b A2020000 		.4byte	.LASF25
 565 013f 01       		.byte	0x1
 566 0140 3B       		.byte	0x3b
ARM GAS  C:\Users\Moi\AppData\Local\Temp\ccD2ByPF.s 			page 11


 567 0141 B3000000 		.4byte	0xb3
 568 0145 24       		.byte	0x24
 569 0146 0B       		.uleb128 0xb
 570 0147 AB020000 		.4byte	.LASF26
 571 014b 01       		.byte	0x1
 572 014c 3C       		.byte	0x3c
 573 014d B3000000 		.4byte	0xb3
 574 0151 28       		.byte	0x28
 575 0152 0B       		.uleb128 0xb
 576 0153 E6000000 		.4byte	.LASF27
 577 0157 01       		.byte	0x1
 578 0158 3D       		.byte	0x3d
 579 0159 B3000000 		.4byte	0xb3
 580 015d 2C       		.byte	0x2c
 581 015e 0B       		.uleb128 0xb
 582 015f A1000000 		.4byte	.LASF28
 583 0163 01       		.byte	0x1
 584 0164 3E       		.byte	0x3e
 585 0165 B3000000 		.4byte	0xb3
 586 0169 30       		.byte	0x30
 587 016a 0B       		.uleb128 0xb
 588 016b 1E000000 		.4byte	.LASF29
 589 016f 01       		.byte	0x1
 590 0170 3F       		.byte	0x3f
 591 0171 B3000000 		.4byte	0xb3
 592 0175 34       		.byte	0x34
 593 0176 0B       		.uleb128 0xb
 594 0177 27000000 		.4byte	.LASF30
 595 017b 01       		.byte	0x1
 596 017c 40       		.byte	0x40
 597 017d B3000000 		.4byte	0xb3
 598 0181 38       		.byte	0x38
 599 0182 0B       		.uleb128 0xb
 600 0183 C4000000 		.4byte	.LASF31
 601 0187 01       		.byte	0x1
 602 0188 41       		.byte	0x41
 603 0189 B3000000 		.4byte	0xb3
 604 018d 3C       		.byte	0x3c
 605 018e 0B       		.uleb128 0xb
 606 018f 5D030000 		.4byte	.LASF32
 607 0193 01       		.byte	0x1
 608 0194 42       		.byte	0x42
 609 0195 A1010000 		.4byte	0x1a1
 610 0199 40       		.byte	0x40
 611 019a 00       		.byte	0
 612 019b 08       		.uleb128 0x8
 613 019c 04       		.byte	0x4
 614 019d 91000000 		.4byte	0x91
 615 01a1 0C       		.uleb128 0xc
 616 01a2 B3000000 		.4byte	0xb3
 617 01a6 B1010000 		.4byte	0x1b1
 618 01aa 0D       		.uleb128 0xd
 619 01ab 7A000000 		.4byte	0x7a
 620 01af 5F       		.byte	0x5f
 621 01b0 00       		.byte	0
 622 01b1 03       		.uleb128 0x3
 623 01b2 A9030000 		.4byte	.LASF33
ARM GAS  C:\Users\Moi\AppData\Local\Temp\ccD2ByPF.s 			page 12


 624 01b6 01       		.byte	0x1
 625 01b7 43       		.byte	0x43
 626 01b8 C5000000 		.4byte	0xc5
 627 01bc 07       		.uleb128 0x7
 628 01bd B3030000 		.4byte	.LASF34
 629 01c1 01       		.byte	0x1
 630 01c2 58       		.byte	0x58
 631 01c3 91000000 		.4byte	0x91
 632 01c7 0E       		.uleb128 0xe
 633 01c8 B4020000 		.4byte	.LASF35
 634 01cc 01       		.byte	0x1
 635 01cd D701     		.2byte	0x1d7
 636 01cf B1010000 		.4byte	0x1b1
 637 01d3 05       		.uleb128 0x5
 638 01d4 03       		.byte	0x3
 639 01d5 00000000 		.4byte	_vectors
 640 01d9 0F       		.uleb128 0xf
 641 01da 48030000 		.4byte	.LASF39
 642 01de 01       		.byte	0x1
 643 01df 4F       		.byte	0x4f
 644 01e0 00000000 		.4byte	.LFB112
 645 01e4 1C000000 		.4byte	.LFE112-.LFB112
 646 01e8 01       		.uleb128 0x1
 647 01e9 9C       		.byte	0x9c
 648 01ea 02020000 		.4byte	0x202
 649 01ee 10       		.uleb128 0x10
 650 01ef 10000000 		.4byte	.LVL0
 651 01f3 02020000 		.4byte	0x202
 652 01f7 11       		.uleb128 0x11
 653 01f8 01       		.uleb128 0x1
 654 01f9 50       		.byte	0x50
 655 01fa 05       		.uleb128 0x5
 656 01fb 03       		.byte	0x3
 657 01fc 00000000 		.4byte	.LC0
 658 0200 00       		.byte	0
 659 0201 00       		.byte	0
 660 0202 12       		.uleb128 0x12
 661 0203 81030000 		.4byte	.LASF40
 662 0207 81030000 		.4byte	.LASF40
 663 020b 01       		.byte	0x1
 664 020c 4C       		.byte	0x4c
 665 020d 00       		.byte	0
 666              		.section	.debug_abbrev,"",%progbits
 667              	.Ldebug_abbrev0:
 668 0000 01       		.uleb128 0x1
 669 0001 11       		.uleb128 0x11
 670 0002 01       		.byte	0x1
 671 0003 25       		.uleb128 0x25
 672 0004 0E       		.uleb128 0xe
 673 0005 13       		.uleb128 0x13
 674 0006 0B       		.uleb128 0xb
 675 0007 03       		.uleb128 0x3
 676 0008 0E       		.uleb128 0xe
 677 0009 1B       		.uleb128 0x1b
 678 000a 0E       		.uleb128 0xe
 679 000b 55       		.uleb128 0x55
 680 000c 17       		.uleb128 0x17
ARM GAS  C:\Users\Moi\AppData\Local\Temp\ccD2ByPF.s 			page 13


 681 000d 11       		.uleb128 0x11
 682 000e 01       		.uleb128 0x1
 683 000f 10       		.uleb128 0x10
 684 0010 17       		.uleb128 0x17
 685 0011 00       		.byte	0
 686 0012 00       		.byte	0
 687 0013 02       		.uleb128 0x2
 688 0014 24       		.uleb128 0x24
 689 0015 00       		.byte	0
 690 0016 0B       		.uleb128 0xb
 691 0017 0B       		.uleb128 0xb
 692 0018 3E       		.uleb128 0x3e
 693 0019 0B       		.uleb128 0xb
 694 001a 03       		.uleb128 0x3
 695 001b 0E       		.uleb128 0xe
 696 001c 00       		.byte	0
 697 001d 00       		.byte	0
 698 001e 03       		.uleb128 0x3
 699 001f 16       		.uleb128 0x16
 700 0020 00       		.byte	0
 701 0021 03       		.uleb128 0x3
 702 0022 0E       		.uleb128 0xe
 703 0023 3A       		.uleb128 0x3a
 704 0024 0B       		.uleb128 0xb
 705 0025 3B       		.uleb128 0x3b
 706 0026 0B       		.uleb128 0xb
 707 0027 49       		.uleb128 0x49
 708 0028 13       		.uleb128 0x13
 709 0029 00       		.byte	0
 710 002a 00       		.byte	0
 711 002b 04       		.uleb128 0x4
 712 002c 24       		.uleb128 0x24
 713 002d 00       		.byte	0
 714 002e 0B       		.uleb128 0xb
 715 002f 0B       		.uleb128 0xb
 716 0030 3E       		.uleb128 0x3e
 717 0031 0B       		.uleb128 0xb
 718 0032 03       		.uleb128 0x3
 719 0033 08       		.uleb128 0x8
 720 0034 00       		.byte	0
 721 0035 00       		.byte	0
 722 0036 05       		.uleb128 0x5
 723 0037 35       		.uleb128 0x35
 724 0038 00       		.byte	0
 725 0039 49       		.uleb128 0x49
 726 003a 13       		.uleb128 0x13
 727 003b 00       		.byte	0
 728 003c 00       		.byte	0
 729 003d 06       		.uleb128 0x6
 730 003e 34       		.uleb128 0x34
 731 003f 00       		.byte	0
 732 0040 03       		.uleb128 0x3
 733 0041 0E       		.uleb128 0xe
 734 0042 3A       		.uleb128 0x3a
 735 0043 0B       		.uleb128 0xb
 736 0044 3B       		.uleb128 0x3b
 737 0045 05       		.uleb128 0x5
ARM GAS  C:\Users\Moi\AppData\Local\Temp\ccD2ByPF.s 			page 14


 738 0046 49       		.uleb128 0x49
 739 0047 13       		.uleb128 0x13
 740 0048 3F       		.uleb128 0x3f
 741 0049 19       		.uleb128 0x19
 742 004a 3C       		.uleb128 0x3c
 743 004b 19       		.uleb128 0x19
 744 004c 00       		.byte	0
 745 004d 00       		.byte	0
 746 004e 07       		.uleb128 0x7
 747 004f 34       		.uleb128 0x34
 748 0050 00       		.byte	0
 749 0051 03       		.uleb128 0x3
 750 0052 0E       		.uleb128 0xe
 751 0053 3A       		.uleb128 0x3a
 752 0054 0B       		.uleb128 0xb
 753 0055 3B       		.uleb128 0x3b
 754 0056 0B       		.uleb128 0xb
 755 0057 49       		.uleb128 0x49
 756 0058 13       		.uleb128 0x13
 757 0059 3F       		.uleb128 0x3f
 758 005a 19       		.uleb128 0x19
 759 005b 3C       		.uleb128 0x3c
 760 005c 19       		.uleb128 0x19
 761 005d 00       		.byte	0
 762 005e 00       		.byte	0
 763 005f 08       		.uleb128 0x8
 764 0060 0F       		.uleb128 0xf
 765 0061 00       		.byte	0
 766 0062 0B       		.uleb128 0xb
 767 0063 0B       		.uleb128 0xb
 768 0064 49       		.uleb128 0x49
 769 0065 13       		.uleb128 0x13
 770 0066 00       		.byte	0
 771 0067 00       		.byte	0
 772 0068 09       		.uleb128 0x9
 773 0069 15       		.uleb128 0x15
 774 006a 00       		.byte	0
 775 006b 27       		.uleb128 0x27
 776 006c 19       		.uleb128 0x19
 777 006d 00       		.byte	0
 778 006e 00       		.byte	0
 779 006f 0A       		.uleb128 0xa
 780 0070 13       		.uleb128 0x13
 781 0071 01       		.byte	0x1
 782 0072 0B       		.uleb128 0xb
 783 0073 05       		.uleb128 0x5
 784 0074 3A       		.uleb128 0x3a
 785 0075 0B       		.uleb128 0xb
 786 0076 3B       		.uleb128 0x3b
 787 0077 0B       		.uleb128 0xb
 788 0078 01       		.uleb128 0x1
 789 0079 13       		.uleb128 0x13
 790 007a 00       		.byte	0
 791 007b 00       		.byte	0
 792 007c 0B       		.uleb128 0xb
 793 007d 0D       		.uleb128 0xd
 794 007e 00       		.byte	0
ARM GAS  C:\Users\Moi\AppData\Local\Temp\ccD2ByPF.s 			page 15


 795 007f 03       		.uleb128 0x3
 796 0080 0E       		.uleb128 0xe
 797 0081 3A       		.uleb128 0x3a
 798 0082 0B       		.uleb128 0xb
 799 0083 3B       		.uleb128 0x3b
 800 0084 0B       		.uleb128 0xb
 801 0085 49       		.uleb128 0x49
 802 0086 13       		.uleb128 0x13
 803 0087 38       		.uleb128 0x38
 804 0088 0B       		.uleb128 0xb
 805 0089 00       		.byte	0
 806 008a 00       		.byte	0
 807 008b 0C       		.uleb128 0xc
 808 008c 01       		.uleb128 0x1
 809 008d 01       		.byte	0x1
 810 008e 49       		.uleb128 0x49
 811 008f 13       		.uleb128 0x13
 812 0090 01       		.uleb128 0x1
 813 0091 13       		.uleb128 0x13
 814 0092 00       		.byte	0
 815 0093 00       		.byte	0
 816 0094 0D       		.uleb128 0xd
 817 0095 21       		.uleb128 0x21
 818 0096 00       		.byte	0
 819 0097 49       		.uleb128 0x49
 820 0098 13       		.uleb128 0x13
 821 0099 2F       		.uleb128 0x2f
 822 009a 0B       		.uleb128 0xb
 823 009b 00       		.byte	0
 824 009c 00       		.byte	0
 825 009d 0E       		.uleb128 0xe
 826 009e 34       		.uleb128 0x34
 827 009f 00       		.byte	0
 828 00a0 03       		.uleb128 0x3
 829 00a1 0E       		.uleb128 0xe
 830 00a2 3A       		.uleb128 0x3a
 831 00a3 0B       		.uleb128 0xb
 832 00a4 3B       		.uleb128 0x3b
 833 00a5 05       		.uleb128 0x5
 834 00a6 49       		.uleb128 0x49
 835 00a7 13       		.uleb128 0x13
 836 00a8 3F       		.uleb128 0x3f
 837 00a9 19       		.uleb128 0x19
 838 00aa 02       		.uleb128 0x2
 839 00ab 18       		.uleb128 0x18
 840 00ac 00       		.byte	0
 841 00ad 00       		.byte	0
 842 00ae 0F       		.uleb128 0xf
 843 00af 2E       		.uleb128 0x2e
 844 00b0 01       		.byte	0x1
 845 00b1 3F       		.uleb128 0x3f
 846 00b2 19       		.uleb128 0x19
 847 00b3 03       		.uleb128 0x3
 848 00b4 0E       		.uleb128 0xe
 849 00b5 3A       		.uleb128 0x3a
 850 00b6 0B       		.uleb128 0xb
 851 00b7 3B       		.uleb128 0x3b
ARM GAS  C:\Users\Moi\AppData\Local\Temp\ccD2ByPF.s 			page 16


 852 00b8 0B       		.uleb128 0xb
 853 00b9 27       		.uleb128 0x27
 854 00ba 19       		.uleb128 0x19
 855 00bb 11       		.uleb128 0x11
 856 00bc 01       		.uleb128 0x1
 857 00bd 12       		.uleb128 0x12
 858 00be 06       		.uleb128 0x6
 859 00bf 40       		.uleb128 0x40
 860 00c0 18       		.uleb128 0x18
 861 00c1 9742     		.uleb128 0x2117
 862 00c3 19       		.uleb128 0x19
 863 00c4 01       		.uleb128 0x1
 864 00c5 13       		.uleb128 0x13
 865 00c6 00       		.byte	0
 866 00c7 00       		.byte	0
 867 00c8 10       		.uleb128 0x10
 868 00c9 898201   		.uleb128 0x4109
 869 00cc 01       		.byte	0x1
 870 00cd 11       		.uleb128 0x11
 871 00ce 01       		.uleb128 0x1
 872 00cf 31       		.uleb128 0x31
 873 00d0 13       		.uleb128 0x13
 874 00d1 00       		.byte	0
 875 00d2 00       		.byte	0
 876 00d3 11       		.uleb128 0x11
 877 00d4 8A8201   		.uleb128 0x410a
 878 00d7 00       		.byte	0
 879 00d8 02       		.uleb128 0x2
 880 00d9 18       		.uleb128 0x18
 881 00da 9142     		.uleb128 0x2111
 882 00dc 18       		.uleb128 0x18
 883 00dd 00       		.byte	0
 884 00de 00       		.byte	0
 885 00df 12       		.uleb128 0x12
 886 00e0 2E       		.uleb128 0x2e
 887 00e1 00       		.byte	0
 888 00e2 3F       		.uleb128 0x3f
 889 00e3 19       		.uleb128 0x19
 890 00e4 3C       		.uleb128 0x3c
 891 00e5 19       		.uleb128 0x19
 892 00e6 6E       		.uleb128 0x6e
 893 00e7 0E       		.uleb128 0xe
 894 00e8 03       		.uleb128 0x3
 895 00e9 0E       		.uleb128 0xe
 896 00ea 3A       		.uleb128 0x3a
 897 00eb 0B       		.uleb128 0xb
 898 00ec 3B       		.uleb128 0x3b
 899 00ed 0B       		.uleb128 0xb
 900 00ee 00       		.byte	0
 901 00ef 00       		.byte	0
 902 00f0 00       		.byte	0
 903              		.section	.debug_aranges,"",%progbits
 904 0000 1C000000 		.4byte	0x1c
 905 0004 0200     		.2byte	0x2
 906 0006 00000000 		.4byte	.Ldebug_info0
 907 000a 04       		.byte	0x4
 908 000b 00       		.byte	0
ARM GAS  C:\Users\Moi\AppData\Local\Temp\ccD2ByPF.s 			page 17


 909 000c 0000     		.2byte	0
 910 000e 0000     		.2byte	0
 911 0010 00000000 		.4byte	.LFB112
 912 0014 1C000000 		.4byte	.LFE112-.LFB112
 913 0018 00000000 		.4byte	0
 914 001c 00000000 		.4byte	0
 915              		.section	.debug_ranges,"",%progbits
 916              	.Ldebug_ranges0:
 917 0000 00000000 		.4byte	.LFB112
 918 0004 1C000000 		.4byte	.LFE112
 919 0008 00000000 		.4byte	0
 920 000c 00000000 		.4byte	0
 921              		.section	.debug_line,"",%progbits
 922              	.Ldebug_line0:
 923 0000 E1010000 		.section	.debug_str,"MS",%progbits,1
 923      0200C701 
 923      00000201 
 923      FB0E0D00 
 923      01010101 
 924              	.LASF21:
 925 0000 62757366 		.ascii	"busfault_handler\000"
 925      61756C74 
 925      5F68616E 
 925      646C6572 
 925      00
 926              	.LASF15:
 927 0011 6972715F 		.ascii	"irq_vector_t\000"
 927      76656374 
 927      6F725F74 
 927      00
 928              	.LASF29:
 929 001e 76656374 		.ascii	"vector34\000"
 929      6F723334 
 929      00
 930              	.LASF30:
 931 0027 70656E64 		.ascii	"pendsv_handler\000"
 931      73765F68 
 931      616E646C 
 931      657200
 932              	.LASF5:
 933 0036 5F5F696E 		.ascii	"__int32_t\000"
 933      7433325F 
 933      7400
 934              	.LASF37:
 935 0040 2E2F2F43 		.ascii	".//ChibiOS//os/common/ports/ARMCMx/compilers/GCC/ve"
 935      68696269 
 935      4F532F2F 
 935      6F732F63 
 935      6F6D6D6F 
 936 0073 63746F72 		.ascii	"ctors.c\000"
 936      732E6300 
 937              	.LASF3:
 938 007b 73686F72 		.ascii	"short unsigned int\000"
 938      7420756E 
 938      7369676E 
 938      65642069 
 938      6E7400
ARM GAS  C:\Users\Moi\AppData\Local\Temp\ccD2ByPF.s 			page 18


 939              	.LASF16:
 940 008e 696E6974 		.ascii	"init_stack\000"
 940      5F737461 
 940      636B00
 941              	.LASF11:
 942 0099 696E7433 		.ascii	"int32_t\000"
 942      325F7400 
 943              	.LASF28:
 944 00a1 64656275 		.ascii	"debugmonitor_handler\000"
 944      676D6F6E 
 944      69746F72 
 944      5F68616E 
 944      646C6572 
 945              	.LASF1:
 946 00b6 756E7369 		.ascii	"unsigned char\000"
 946      676E6564 
 946      20636861 
 946      7200
 947              	.LASF31:
 948 00c4 73797374 		.ascii	"systick_handler\000"
 948      69636B5F 
 948      68616E64 
 948      6C657200 
 949              	.LASF7:
 950 00d4 6C6F6E67 		.ascii	"long unsigned int\000"
 950      20756E73 
 950      69676E65 
 950      6420696E 
 950      7400
 951              	.LASF27:
 952 00e6 7376635F 		.ascii	"svc_handler\000"
 952      68616E64 
 952      6C657200 
 953              	.LASF13:
 954 00f2 49544D5F 		.ascii	"ITM_RxBuffer\000"
 954      52784275 
 954      66666572 
 954      00
 955              	.LASF23:
 956 00ff 76656374 		.ascii	"vector1c\000"
 956      6F723163 
 956      00
 957              	.LASF19:
 958 0108 68617264 		.ascii	"hardfault_handler\000"
 958      6661756C 
 958      745F6861 
 958      6E646C65 
 958      7200
 959              	.LASF6:
 960 011a 5F5F7569 		.ascii	"__uint32_t\000"
 960      6E743332 
 960      5F7400
 961              	.LASF18:
 962 0125 6E6D695F 		.ascii	"nmi_handler\000"
 962      68616E64 
 962      6C657200 
 963              	.LASF36:
ARM GAS  C:\Users\Moi\AppData\Local\Temp\ccD2ByPF.s 			page 19


 964 0131 474E5520 		.ascii	"GNU C11 7.2.1 20170904 (release) [ARM/embedded-7-br"
 964      43313120 
 964      372E322E 
 964      31203230 
 964      31373039 
 965 0164 616E6368 		.ascii	"anch revision 255204] -mcpu=cortex-m4 -mfloat-abi=h"
 965      20726576 
 965      6973696F 
 965      6E203235 
 965      35323034 
 966 0197 61726420 		.ascii	"ard -mfpu=fpv4-sp-d16 -mno-thumb-interwork -mthumb "
 966      2D6D6670 
 966      753D6670 
 966      76342D73 
 966      702D6431 
 967 01ca 2D676764 		.ascii	"-ggdb -O2 -fomit-frame-pointer -falign-functions=16"
 967      62202D4F 
 967      32202D66 
 967      6F6D6974 
 967      2D667261 
 968 01fd 202D666E 		.ascii	" -fno-strict-aliasing -fstack-protector-all -ffunct"
 968      6F2D7374 
 968      72696374 
 968      2D616C69 
 968      6173696E 
 969 0230 696F6E2D 		.ascii	"ion-sections -fdata-sections -fno-common -fsingle-p"
 969      73656374 
 969      696F6E73 
 969      202D6664 
 969      6174612D 
 970 0263 72656369 		.ascii	"recision-constant\000"
 970      73696F6E 
 970      2D636F6E 
 970      7374616E 
 970      7400
 971              	.LASF10:
 972 0275 756E7369 		.ascii	"unsigned int\000"
 972      676E6564 
 972      20696E74 
 972      00
 973              	.LASF24:
 974 0282 76656374 		.ascii	"vector20\000"
 974      6F723230 
 974      00
 975              	.LASF9:
 976 028b 6C6F6E67 		.ascii	"long long unsigned int\000"
 976      206C6F6E 
 976      6720756E 
 976      7369676E 
 976      65642069 
 977              	.LASF25:
 978 02a2 76656374 		.ascii	"vector24\000"
 978      6F723234 
 978      00
 979              	.LASF26:
 980 02ab 76656374 		.ascii	"vector28\000"
 980      6F723238 
ARM GAS  C:\Users\Moi\AppData\Local\Temp\ccD2ByPF.s 			page 20


 980      00
 981              	.LASF35:
 982 02b4 5F766563 		.ascii	"_vectors\000"
 982      746F7273 
 982      00
 983              	.LASF17:
 984 02bd 72657365 		.ascii	"reset_handler\000"
 984      745F6861 
 984      6E646C65 
 984      7200
 985              	.LASF22:
 986 02cb 75736167 		.ascii	"usagefault_handler\000"
 986      65666175 
 986      6C745F68 
 986      616E646C 
 986      657200
 987              	.LASF8:
 988 02de 6C6F6E67 		.ascii	"long long int\000"
 988      206C6F6E 
 988      6720696E 
 988      7400
 989              	.LASF14:
 990 02ec 53797374 		.ascii	"SystemCoreClock\000"
 990      656D436F 
 990      7265436C 
 990      6F636B00 
 991              	.LASF38:
 992 02fc 433A5C55 		.ascii	"C:\\Users\\Moi\\Documents\\_microinfo\\_TPs_microin"
 992      73657273 
 992      5C4D6F69 
 992      5C446F63 
 992      756D656E 
 993 032a 666F5C6C 		.ascii	"fo\\lib\\e-puck2_main-processor\000"
 993      69625C65 
 993      2D707563 
 993      6B325F6D 
 993      61696E2D 
 994              	.LASF39:
 995 0348 5F756E68 		.ascii	"_unhandled_exception\000"
 995      616E646C 
 995      65645F65 
 995      78636570 
 995      74696F6E 
 996              	.LASF32:
 997 035d 76656374 		.ascii	"vectors\000"
 997      6F727300 
 998              	.LASF2:
 999 0365 73686F72 		.ascii	"short int\000"
 999      7420696E 
 999      7400
 1000              	.LASF12:
 1001 036f 75696E74 		.ascii	"uint32_t\000"
 1001      33325F74 
 1001      00
 1002              	.LASF4:
 1003 0378 6C6F6E67 		.ascii	"long int\000"
 1003      20696E74 
ARM GAS  C:\Users\Moi\AppData\Local\Temp\ccD2ByPF.s 			page 21


 1003      00
 1004              	.LASF40:
 1005 0381 63685379 		.ascii	"chSysHalt\000"
 1005      7348616C 
 1005      7400
 1006              	.LASF20:
 1007 038b 6D656D6D 		.ascii	"memmanage_handler\000"
 1007      616E6167 
 1007      655F6861 
 1007      6E646C65 
 1007      7200
 1008              	.LASF0:
 1009 039d 7369676E 		.ascii	"signed char\000"
 1009      65642063 
 1009      68617200 
 1010              	.LASF33:
 1011 03a9 76656374 		.ascii	"vectors_t\000"
 1011      6F72735F 
 1011      7400
 1012              	.LASF34:
 1013 03b3 5F5F6D61 		.ascii	"__main_stack_end__\000"
 1013      696E5F73 
 1013      7461636B 
 1013      5F656E64 
 1013      5F5F00
 1014              		.ident	"GCC: (GNU Tools for Arm Embedded Processors 7-2017-q4-major) 7.2.1 20170904 (release) [ARM
ARM GAS  C:\Users\Moi\AppData\Local\Temp\ccD2ByPF.s 			page 22


DEFINED SYMBOLS
                            *ABS*:00000000 vectors.c
C:\Users\Moi\AppData\Local\Temp\ccD2ByPF.s:18     .text._unhandled_exception:00000000 $t
C:\Users\Moi\AppData\Local\Temp\ccD2ByPF.s:26     .text._unhandled_exception:00000000 _unhandled_exception
C:\Users\Moi\AppData\Local\Temp\ccD2ByPF.s:54     .text._unhandled_exception:00000014 $d
C:\Users\Moi\AppData\Local\Temp\ccD2ByPF.s:26     .text._unhandled_exception:00000000 Vector1BC
C:\Users\Moi\AppData\Local\Temp\ccD2ByPF.s:26     .text._unhandled_exception:00000000 Vector1B8
C:\Users\Moi\AppData\Local\Temp\ccD2ByPF.s:26     .text._unhandled_exception:00000000 Vector1B4
C:\Users\Moi\AppData\Local\Temp\ccD2ByPF.s:26     .text._unhandled_exception:00000000 Vector1B0
C:\Users\Moi\AppData\Local\Temp\ccD2ByPF.s:26     .text._unhandled_exception:00000000 Vector1AC
C:\Users\Moi\AppData\Local\Temp\ccD2ByPF.s:26     .text._unhandled_exception:00000000 Vector1A8
C:\Users\Moi\AppData\Local\Temp\ccD2ByPF.s:26     .text._unhandled_exception:00000000 Vector1A4
C:\Users\Moi\AppData\Local\Temp\ccD2ByPF.s:26     .text._unhandled_exception:00000000 Vector1A0
C:\Users\Moi\AppData\Local\Temp\ccD2ByPF.s:26     .text._unhandled_exception:00000000 Vector19C
C:\Users\Moi\AppData\Local\Temp\ccD2ByPF.s:26     .text._unhandled_exception:00000000 Vector198
C:\Users\Moi\AppData\Local\Temp\ccD2ByPF.s:26     .text._unhandled_exception:00000000 Vector194
C:\Users\Moi\AppData\Local\Temp\ccD2ByPF.s:26     .text._unhandled_exception:00000000 Vector190
C:\Users\Moi\AppData\Local\Temp\ccD2ByPF.s:26     .text._unhandled_exception:00000000 Vector18C
C:\Users\Moi\AppData\Local\Temp\ccD2ByPF.s:26     .text._unhandled_exception:00000000 Vector188
C:\Users\Moi\AppData\Local\Temp\ccD2ByPF.s:26     .text._unhandled_exception:00000000 Vector184
C:\Users\Moi\AppData\Local\Temp\ccD2ByPF.s:26     .text._unhandled_exception:00000000 Vector180
C:\Users\Moi\AppData\Local\Temp\ccD2ByPF.s:26     .text._unhandled_exception:00000000 Vector17C
C:\Users\Moi\AppData\Local\Temp\ccD2ByPF.s:26     .text._unhandled_exception:00000000 Vector178
C:\Users\Moi\AppData\Local\Temp\ccD2ByPF.s:26     .text._unhandled_exception:00000000 Vector174
C:\Users\Moi\AppData\Local\Temp\ccD2ByPF.s:26     .text._unhandled_exception:00000000 Vector170
C:\Users\Moi\AppData\Local\Temp\ccD2ByPF.s:26     .text._unhandled_exception:00000000 Vector16C
C:\Users\Moi\AppData\Local\Temp\ccD2ByPF.s:26     .text._unhandled_exception:00000000 Vector168
C:\Users\Moi\AppData\Local\Temp\ccD2ByPF.s:26     .text._unhandled_exception:00000000 Vector164
C:\Users\Moi\AppData\Local\Temp\ccD2ByPF.s:26     .text._unhandled_exception:00000000 Vector160
C:\Users\Moi\AppData\Local\Temp\ccD2ByPF.s:26     .text._unhandled_exception:00000000 Vector15C
C:\Users\Moi\AppData\Local\Temp\ccD2ByPF.s:26     .text._unhandled_exception:00000000 Vector158
C:\Users\Moi\AppData\Local\Temp\ccD2ByPF.s:26     .text._unhandled_exception:00000000 Vector154
C:\Users\Moi\AppData\Local\Temp\ccD2ByPF.s:26     .text._unhandled_exception:00000000 Vector150
C:\Users\Moi\AppData\Local\Temp\ccD2ByPF.s:26     .text._unhandled_exception:00000000 Vector14C
C:\Users\Moi\AppData\Local\Temp\ccD2ByPF.s:26     .text._unhandled_exception:00000000 Vector148
C:\Users\Moi\AppData\Local\Temp\ccD2ByPF.s:26     .text._unhandled_exception:00000000 Vector144
C:\Users\Moi\AppData\Local\Temp\ccD2ByPF.s:26     .text._unhandled_exception:00000000 Vector140
C:\Users\Moi\AppData\Local\Temp\ccD2ByPF.s:26     .text._unhandled_exception:00000000 Vector13C
C:\Users\Moi\AppData\Local\Temp\ccD2ByPF.s:26     .text._unhandled_exception:00000000 Vector138
C:\Users\Moi\AppData\Local\Temp\ccD2ByPF.s:26     .text._unhandled_exception:00000000 Vector134
C:\Users\Moi\AppData\Local\Temp\ccD2ByPF.s:26     .text._unhandled_exception:00000000 Vector130
C:\Users\Moi\AppData\Local\Temp\ccD2ByPF.s:26     .text._unhandled_exception:00000000 Vector12C
C:\Users\Moi\AppData\Local\Temp\ccD2ByPF.s:26     .text._unhandled_exception:00000000 Vector128
C:\Users\Moi\AppData\Local\Temp\ccD2ByPF.s:26     .text._unhandled_exception:00000000 Vector124
C:\Users\Moi\AppData\Local\Temp\ccD2ByPF.s:26     .text._unhandled_exception:00000000 Vector120
C:\Users\Moi\AppData\Local\Temp\ccD2ByPF.s:26     .text._unhandled_exception:00000000 Vector11C
C:\Users\Moi\AppData\Local\Temp\ccD2ByPF.s:26     .text._unhandled_exception:00000000 Vector118
C:\Users\Moi\AppData\Local\Temp\ccD2ByPF.s:26     .text._unhandled_exception:00000000 Vector114
C:\Users\Moi\AppData\Local\Temp\ccD2ByPF.s:26     .text._unhandled_exception:00000000 Vector110
C:\Users\Moi\AppData\Local\Temp\ccD2ByPF.s:26     .text._unhandled_exception:00000000 Vector10C
C:\Users\Moi\AppData\Local\Temp\ccD2ByPF.s:26     .text._unhandled_exception:00000000 Vector108
C:\Users\Moi\AppData\Local\Temp\ccD2ByPF.s:26     .text._unhandled_exception:00000000 Vector104
C:\Users\Moi\AppData\Local\Temp\ccD2ByPF.s:26     .text._unhandled_exception:00000000 Vector100
C:\Users\Moi\AppData\Local\Temp\ccD2ByPF.s:26     .text._unhandled_exception:00000000 VectorFC
C:\Users\Moi\AppData\Local\Temp\ccD2ByPF.s:26     .text._unhandled_exception:00000000 VectorF8
C:\Users\Moi\AppData\Local\Temp\ccD2ByPF.s:26     .text._unhandled_exception:00000000 VectorF4
C:\Users\Moi\AppData\Local\Temp\ccD2ByPF.s:26     .text._unhandled_exception:00000000 VectorF0
ARM GAS  C:\Users\Moi\AppData\Local\Temp\ccD2ByPF.s 			page 23


C:\Users\Moi\AppData\Local\Temp\ccD2ByPF.s:26     .text._unhandled_exception:00000000 VectorEC
C:\Users\Moi\AppData\Local\Temp\ccD2ByPF.s:26     .text._unhandled_exception:00000000 VectorE8
C:\Users\Moi\AppData\Local\Temp\ccD2ByPF.s:26     .text._unhandled_exception:00000000 VectorE4
C:\Users\Moi\AppData\Local\Temp\ccD2ByPF.s:26     .text._unhandled_exception:00000000 VectorE0
C:\Users\Moi\AppData\Local\Temp\ccD2ByPF.s:26     .text._unhandled_exception:00000000 VectorDC
C:\Users\Moi\AppData\Local\Temp\ccD2ByPF.s:26     .text._unhandled_exception:00000000 VectorD8
C:\Users\Moi\AppData\Local\Temp\ccD2ByPF.s:26     .text._unhandled_exception:00000000 VectorD4
C:\Users\Moi\AppData\Local\Temp\ccD2ByPF.s:26     .text._unhandled_exception:00000000 VectorD0
C:\Users\Moi\AppData\Local\Temp\ccD2ByPF.s:26     .text._unhandled_exception:00000000 VectorCC
C:\Users\Moi\AppData\Local\Temp\ccD2ByPF.s:26     .text._unhandled_exception:00000000 VectorC8
C:\Users\Moi\AppData\Local\Temp\ccD2ByPF.s:26     .text._unhandled_exception:00000000 VectorC4
C:\Users\Moi\AppData\Local\Temp\ccD2ByPF.s:26     .text._unhandled_exception:00000000 VectorC0
C:\Users\Moi\AppData\Local\Temp\ccD2ByPF.s:26     .text._unhandled_exception:00000000 VectorBC
C:\Users\Moi\AppData\Local\Temp\ccD2ByPF.s:26     .text._unhandled_exception:00000000 VectorB8
C:\Users\Moi\AppData\Local\Temp\ccD2ByPF.s:26     .text._unhandled_exception:00000000 VectorB4
C:\Users\Moi\AppData\Local\Temp\ccD2ByPF.s:26     .text._unhandled_exception:00000000 VectorB0
C:\Users\Moi\AppData\Local\Temp\ccD2ByPF.s:26     .text._unhandled_exception:00000000 VectorAC
C:\Users\Moi\AppData\Local\Temp\ccD2ByPF.s:26     .text._unhandled_exception:00000000 VectorA8
C:\Users\Moi\AppData\Local\Temp\ccD2ByPF.s:26     .text._unhandled_exception:00000000 VectorA4
C:\Users\Moi\AppData\Local\Temp\ccD2ByPF.s:26     .text._unhandled_exception:00000000 VectorA0
C:\Users\Moi\AppData\Local\Temp\ccD2ByPF.s:26     .text._unhandled_exception:00000000 Vector9C
C:\Users\Moi\AppData\Local\Temp\ccD2ByPF.s:26     .text._unhandled_exception:00000000 Vector98
C:\Users\Moi\AppData\Local\Temp\ccD2ByPF.s:26     .text._unhandled_exception:00000000 Vector94
C:\Users\Moi\AppData\Local\Temp\ccD2ByPF.s:26     .text._unhandled_exception:00000000 Vector90
C:\Users\Moi\AppData\Local\Temp\ccD2ByPF.s:26     .text._unhandled_exception:00000000 Vector8C
C:\Users\Moi\AppData\Local\Temp\ccD2ByPF.s:26     .text._unhandled_exception:00000000 Vector88
C:\Users\Moi\AppData\Local\Temp\ccD2ByPF.s:26     .text._unhandled_exception:00000000 Vector84
C:\Users\Moi\AppData\Local\Temp\ccD2ByPF.s:26     .text._unhandled_exception:00000000 Vector80
C:\Users\Moi\AppData\Local\Temp\ccD2ByPF.s:26     .text._unhandled_exception:00000000 Vector7C
C:\Users\Moi\AppData\Local\Temp\ccD2ByPF.s:26     .text._unhandled_exception:00000000 Vector78
C:\Users\Moi\AppData\Local\Temp\ccD2ByPF.s:26     .text._unhandled_exception:00000000 Vector74
C:\Users\Moi\AppData\Local\Temp\ccD2ByPF.s:26     .text._unhandled_exception:00000000 Vector70
C:\Users\Moi\AppData\Local\Temp\ccD2ByPF.s:26     .text._unhandled_exception:00000000 Vector6C
C:\Users\Moi\AppData\Local\Temp\ccD2ByPF.s:26     .text._unhandled_exception:00000000 Vector68
C:\Users\Moi\AppData\Local\Temp\ccD2ByPF.s:26     .text._unhandled_exception:00000000 Vector64
C:\Users\Moi\AppData\Local\Temp\ccD2ByPF.s:26     .text._unhandled_exception:00000000 Vector60
C:\Users\Moi\AppData\Local\Temp\ccD2ByPF.s:26     .text._unhandled_exception:00000000 Vector5C
C:\Users\Moi\AppData\Local\Temp\ccD2ByPF.s:26     .text._unhandled_exception:00000000 Vector58
C:\Users\Moi\AppData\Local\Temp\ccD2ByPF.s:26     .text._unhandled_exception:00000000 Vector54
C:\Users\Moi\AppData\Local\Temp\ccD2ByPF.s:26     .text._unhandled_exception:00000000 Vector50
C:\Users\Moi\AppData\Local\Temp\ccD2ByPF.s:26     .text._unhandled_exception:00000000 Vector4C
C:\Users\Moi\AppData\Local\Temp\ccD2ByPF.s:26     .text._unhandled_exception:00000000 Vector48
C:\Users\Moi\AppData\Local\Temp\ccD2ByPF.s:26     .text._unhandled_exception:00000000 Vector44
C:\Users\Moi\AppData\Local\Temp\ccD2ByPF.s:26     .text._unhandled_exception:00000000 Vector40
C:\Users\Moi\AppData\Local\Temp\ccD2ByPF.s:26     .text._unhandled_exception:00000000 SysTick_Handler
C:\Users\Moi\AppData\Local\Temp\ccD2ByPF.s:26     .text._unhandled_exception:00000000 PendSV_Handler
C:\Users\Moi\AppData\Local\Temp\ccD2ByPF.s:26     .text._unhandled_exception:00000000 Vector34
C:\Users\Moi\AppData\Local\Temp\ccD2ByPF.s:26     .text._unhandled_exception:00000000 DebugMon_Handler
C:\Users\Moi\AppData\Local\Temp\ccD2ByPF.s:26     .text._unhandled_exception:00000000 SVC_Handler
C:\Users\Moi\AppData\Local\Temp\ccD2ByPF.s:26     .text._unhandled_exception:00000000 Vector28
C:\Users\Moi\AppData\Local\Temp\ccD2ByPF.s:26     .text._unhandled_exception:00000000 Vector24
C:\Users\Moi\AppData\Local\Temp\ccD2ByPF.s:26     .text._unhandled_exception:00000000 Vector20
C:\Users\Moi\AppData\Local\Temp\ccD2ByPF.s:26     .text._unhandled_exception:00000000 Vector1C
C:\Users\Moi\AppData\Local\Temp\ccD2ByPF.s:26     .text._unhandled_exception:00000000 UsageFault_Handler
C:\Users\Moi\AppData\Local\Temp\ccD2ByPF.s:26     .text._unhandled_exception:00000000 BusFault_Handler
C:\Users\Moi\AppData\Local\Temp\ccD2ByPF.s:26     .text._unhandled_exception:00000000 MemManage_Handler
C:\Users\Moi\AppData\Local\Temp\ccD2ByPF.s:26     .text._unhandled_exception:00000000 HardFault_Handler
ARM GAS  C:\Users\Moi\AppData\Local\Temp\ccD2ByPF.s 			page 24


C:\Users\Moi\AppData\Local\Temp\ccD2ByPF.s:26     .text._unhandled_exception:00000000 NMI_Handler
C:\Users\Moi\AppData\Local\Temp\ccD2ByPF.s:26     .text._unhandled_exception:00000000 Reset_Handler
C:\Users\Moi\AppData\Local\Temp\ccD2ByPF.s:290    .vectors:00000000 _vectors
C:\Users\Moi\AppData\Local\Temp\ccD2ByPF.s:283    .rodata._unhandled_exception.str1.4:00000000 $d
C:\Users\Moi\AppData\Local\Temp\ccD2ByPF.s:287    .vectors:00000000 $d

UNDEFINED SYMBOLS
chSysHalt
__stack_chk_guard
__main_stack_end__
