ARM GAS  C:\Users\pierr\AppData\Local\Temp\ccqUrzo0.s 			page 1


   1              		.cpu cortex-m4
   2              		.eabi_attribute 27, 1
   3              		.eabi_attribute 28, 1
   4              		.eabi_attribute 20, 1
   5              		.eabi_attribute 21, 1
   6              		.eabi_attribute 23, 3
   7              		.eabi_attribute 24, 1
   8              		.eabi_attribute 25, 1
   9              		.eabi_attribute 26, 1
  10              		.eabi_attribute 30, 2
  11              		.eabi_attribute 34, 1
  12              		.eabi_attribute 18, 4
  13              		.file	"crc32.c"
  14              		.text
  15              	.Ltext0:
  16              		.cfi_sections	.debug_frame
  17              		.section	.text.crc32,"ax",%progbits
  18              		.align	1
  19              		.p2align 4,,15
  20              		.global	crc32
  21              		.syntax unified
  22              		.thumb
  23              		.thumb_func
  24              		.fpu fpv4-sp-d16
  25              		.type	crc32, %function
  26              	crc32:
  27              	.LFB0:
  28              		.file 1 "../../lib/e-puck2_main-processor/src/crc/crc32.c"
  29              		.loc 1 8 0
  30              		.cfi_startproc
  31              		@ args = 0, pretend = 0, frame = 8
  32              		@ frame_needed = 0, uses_anonymous_args = 0
  33              	.LVL0:
  34 0000 F0B5     		push	{r4, r5, r6, r7, lr}
  35              		.cfi_def_cfa_offset 20
  36              		.cfi_offset 4, -20
  37              		.cfi_offset 5, -16
  38              		.cfi_offset 6, -12
  39              		.cfi_offset 7, -8
  40              		.cfi_offset 14, -4
  41 0002 134F     		ldr	r7, .L18
  42 0004 83B0     		sub	sp, sp, #12
  43              		.cfi_def_cfa_offset 32
  44              		.loc 1 8 0
  45 0006 3B68     		ldr	r3, [r7]
  46 0008 0193     		str	r3, [sp, #4]
  47              	.LVL1:
  48              		.loc 1 10 0
  49 000a C043     		mvns	r0, r0
  50              	.LVL2:
  51              		.loc 1 12 0
  52 000c AAB1     		cbz	r2, .L2
  53 000e 013A     		subs	r2, r2, #1
  54              	.LVL3:
  55              	.LBB2:
  56              		.loc 1 16 0
  57 0010 104C     		ldr	r4, .L18+4
ARM GAS  C:\Users\pierr\AppData\Local\Temp\ccqUrzo0.s 			page 2


  58 0012 8E18     		adds	r6, r1, r2
  59 0014 4D1E     		subs	r5, r1, #1
  60              	.LVL4:
  61              	.L5:
  62              		.loc 1 15 0
  63 0016 15F8011F 		ldrb	r1, [r5, #1]!	@ zero_extendqisi2
  64              	.LVL5:
  65              		.loc 1 14 0
  66 001a 0023     		movs	r3, #0
  67              	.L4:
  68              	.LVL6:
  69              		.loc 1 15 0
  70 001c 41FA03F2 		asr	r2, r1, r3
  71 0020 4240     		eors	r2, r2, r0
  72 0022 12F0010F 		tst	r2, #1
  73 0026 4FEA5000 		lsr	r0, r0, #1
  74              	.LVL7:
  75              		.loc 1 14 0
  76 002a 03F10103 		add	r3, r3, #1
  77              	.LVL8:
  78              		.loc 1 16 0
  79 002e 18BF     		it	ne
  80 0030 6040     		eorne	r0, r0, r4
  81              	.LVL9:
  82              		.loc 1 14 0
  83 0032 082B     		cmp	r3, #8
  84 0034 F2D1     		bne	.L4
  85              	.LVL10:
  86              	.LBE2:
  87              		.loc 1 12 0 discriminator 2
  88 0036 AE42     		cmp	r6, r5
  89 0038 EDD1     		bne	.L5
  90              	.LVL11:
  91              	.L2:
  92              		.loc 1 23 0
  93 003a 019A     		ldr	r2, [sp, #4]
  94 003c 3B68     		ldr	r3, [r7]
  95 003e 9A42     		cmp	r2, r3
  96 0040 6FEA0000 		mvn	r0, r0
  97              	.LVL12:
  98 0044 01D1     		bne	.L17
  99 0046 03B0     		add	sp, sp, #12
 100              		.cfi_remember_state
 101              		.cfi_def_cfa_offset 20
 102              		@ sp needed
 103 0048 F0BD     		pop	{r4, r5, r6, r7, pc}
 104              	.L17:
 105              		.cfi_restore_state
 106 004a FFF7FEFF 		bl	__stack_chk_fail
 107              	.LVL13:
 108              	.L19:
 109 004e 00BF     		.align	2
 110              	.L18:
 111 0050 00000000 		.word	__stack_chk_guard
 112 0054 2083B8ED 		.word	-306674912
 113              		.cfi_endproc
 114              	.LFE0:
ARM GAS  C:\Users\pierr\AppData\Local\Temp\ccqUrzo0.s 			page 3


 115              		.size	crc32, .-crc32
 116              		.text
 117              	.Letext0:
 118              		.file 2 "d:\\eclipse_e-puck2_win32_29_jan_2020\\eclipse_e-puck2\\tools\\gcc-arm-none-eabi-7-2017-q
 119              		.file 3 "d:\\eclipse_e-puck2_win32_29_jan_2020\\eclipse_e-puck2\\tools\\gcc-arm-none-eabi-7-2017-q
 120              		.file 4 "d:\\eclipse_e-puck2_win32_29_jan_2020\\eclipse_e-puck2\\tools\\gcc-arm-none-eabi-7-2017-q
 121              		.file 5 "d:\\eclipse_e-puck2_win32_29_jan_2020\\eclipse_e-puck2\\tools\\gcc-arm-none-eabi-7-2017-q
 122              		.file 6 "d:\\eclipse_e-puck2_win32_29_jan_2020\\eclipse_e-puck2\\tools\\gcc-arm-none-eabi-7-2017-q
 123              		.file 7 "d:\\eclipse_e-puck2_win32_29_jan_2020\\eclipse_e-puck2\\tools\\gcc-arm-none-eabi-7-2017-q
 124              		.file 8 "d:\\eclipse_e-puck2_win32_29_jan_2020\\eclipse_e-puck2\\tools\\gcc-arm-none-eabi-7-2017-q
 125              		.section	.debug_info,"",%progbits
 126              	.Ldebug_info0:
 127 0000 7F090000 		.4byte	0x97f
 128 0004 0400     		.2byte	0x4
 129 0006 00000000 		.4byte	.Ldebug_abbrev0
 130 000a 04       		.byte	0x4
 131 000b 01       		.uleb128 0x1
 132 000c F1010000 		.4byte	.LASF130
 133 0010 0C       		.byte	0xc
 134 0011 29010000 		.4byte	.LASF131
 135 0015 23060000 		.4byte	.LASF132
 136 0019 00000000 		.4byte	.Ldebug_ranges0+0
 137 001d 00000000 		.4byte	0
 138 0021 00000000 		.4byte	.Ldebug_line0
 139 0025 02       		.uleb128 0x2
 140 0026 01       		.byte	0x1
 141 0027 06       		.byte	0x6
 142 0028 C5000000 		.4byte	.LASF0
 143 002c 03       		.uleb128 0x3
 144 002d 32000000 		.4byte	.LASF5
 145 0031 02       		.byte	0x2
 146 0032 2B       		.byte	0x2b
 147 0033 37000000 		.4byte	0x37
 148 0037 02       		.uleb128 0x2
 149 0038 01       		.byte	0x1
 150 0039 08       		.byte	0x8
 151 003a 42040000 		.4byte	.LASF1
 152 003e 02       		.uleb128 0x2
 153 003f 02       		.byte	0x2
 154 0040 05       		.byte	0x5
 155 0041 5E040000 		.4byte	.LASF2
 156 0045 02       		.uleb128 0x2
 157 0046 02       		.byte	0x2
 158 0047 07       		.byte	0x7
 159 0048 70030000 		.4byte	.LASF3
 160 004c 02       		.uleb128 0x2
 161 004d 04       		.byte	0x4
 162 004e 05       		.byte	0x5
 163 004f 0A010000 		.4byte	.LASF4
 164 0053 03       		.uleb128 0x3
 165 0054 96010000 		.4byte	.LASF6
 166 0058 02       		.byte	0x2
 167 0059 4F       		.byte	0x4f
 168 005a 5E000000 		.4byte	0x5e
 169 005e 02       		.uleb128 0x2
 170 005f 04       		.byte	0x4
 171 0060 07       		.byte	0x7
ARM GAS  C:\Users\pierr\AppData\Local\Temp\ccqUrzo0.s 			page 4


 172 0061 4C030000 		.4byte	.LASF7
 173 0065 02       		.uleb128 0x2
 174 0066 08       		.byte	0x8
 175 0067 05       		.byte	0x5
 176 0068 B7000000 		.4byte	.LASF8
 177 006c 02       		.uleb128 0x2
 178 006d 08       		.byte	0x8
 179 006e 07       		.byte	0x7
 180 006f 74000000 		.4byte	.LASF9
 181 0073 04       		.uleb128 0x4
 182 0074 04       		.byte	0x4
 183 0075 05       		.byte	0x5
 184 0076 696E7400 		.ascii	"int\000"
 185 007a 02       		.uleb128 0x2
 186 007b 04       		.byte	0x4
 187 007c 07       		.byte	0x7
 188 007d E4010000 		.4byte	.LASF10
 189 0081 03       		.uleb128 0x3
 190 0082 D8050000 		.4byte	.LASF11
 191 0086 03       		.byte	0x3
 192 0087 18       		.byte	0x18
 193 0088 2C000000 		.4byte	0x2c
 194 008c 03       		.uleb128 0x3
 195 008d 24050000 		.4byte	.LASF12
 196 0091 03       		.byte	0x3
 197 0092 30       		.byte	0x30
 198 0093 53000000 		.4byte	0x53
 199 0097 03       		.uleb128 0x3
 200 0098 12000000 		.4byte	.LASF13
 201 009c 04       		.byte	0x4
 202 009d D8       		.byte	0xd8
 203 009e 7A000000 		.4byte	0x7a
 204 00a2 02       		.uleb128 0x2
 205 00a3 08       		.byte	0x8
 206 00a4 04       		.byte	0x4
 207 00a5 EA030000 		.4byte	.LASF14
 208 00a9 03       		.uleb128 0x3
 209 00aa B3030000 		.4byte	.LASF15
 210 00ae 05       		.byte	0x5
 211 00af 22       		.byte	0x22
 212 00b0 B4000000 		.4byte	0xb4
 213 00b4 05       		.uleb128 0x5
 214 00b5 04       		.byte	0x4
 215 00b6 BA000000 		.4byte	0xba
 216 00ba 06       		.uleb128 0x6
 217 00bb 1D050000 		.4byte	.LASF122
 218 00bf 03       		.uleb128 0x3
 219 00c0 23040000 		.4byte	.LASF16
 220 00c4 06       		.byte	0x6
 221 00c5 2C       		.byte	0x2c
 222 00c6 4C000000 		.4byte	0x4c
 223 00ca 03       		.uleb128 0x3
 224 00cb 3F050000 		.4byte	.LASF17
 225 00cf 06       		.byte	0x6
 226 00d0 72       		.byte	0x72
 227 00d1 4C000000 		.4byte	0x4c
 228 00d5 07       		.uleb128 0x7
ARM GAS  C:\Users\pierr\AppData\Local\Temp\ccqUrzo0.s 			page 5


 229 00d6 BB030000 		.4byte	.LASF18
 230 00da 04       		.byte	0x4
 231 00db 6501     		.2byte	0x165
 232 00dd 7A000000 		.4byte	0x7a
 233 00e1 08       		.uleb128 0x8
 234 00e2 04       		.byte	0x4
 235 00e3 06       		.byte	0x6
 236 00e4 A6       		.byte	0xa6
 237 00e5 00010000 		.4byte	0x100
 238 00e9 09       		.uleb128 0x9
 239 00ea AD030000 		.4byte	.LASF19
 240 00ee 06       		.byte	0x6
 241 00ef A8       		.byte	0xa8
 242 00f0 D5000000 		.4byte	0xd5
 243 00f4 09       		.uleb128 0x9
 244 00f5 35030000 		.4byte	.LASF20
 245 00f9 06       		.byte	0x6
 246 00fa A9       		.byte	0xa9
 247 00fb 00010000 		.4byte	0x100
 248 00ff 00       		.byte	0
 249 0100 0A       		.uleb128 0xa
 250 0101 37000000 		.4byte	0x37
 251 0105 10010000 		.4byte	0x110
 252 0109 0B       		.uleb128 0xb
 253 010a 7A000000 		.4byte	0x7a
 254 010e 03       		.byte	0x3
 255 010f 00       		.byte	0
 256 0110 0C       		.uleb128 0xc
 257 0111 08       		.byte	0x8
 258 0112 06       		.byte	0x6
 259 0113 A3       		.byte	0xa3
 260 0114 31010000 		.4byte	0x131
 261 0118 0D       		.uleb128 0xd
 262 0119 15050000 		.4byte	.LASF21
 263 011d 06       		.byte	0x6
 264 011e A5       		.byte	0xa5
 265 011f 73000000 		.4byte	0x73
 266 0123 00       		.byte	0
 267 0124 0D       		.uleb128 0xd
 268 0125 85050000 		.4byte	.LASF22
 269 0129 06       		.byte	0x6
 270 012a AA       		.byte	0xaa
 271 012b E1000000 		.4byte	0xe1
 272 012f 04       		.byte	0x4
 273 0130 00       		.byte	0
 274 0131 03       		.uleb128 0x3
 275 0132 86040000 		.4byte	.LASF23
 276 0136 06       		.byte	0x6
 277 0137 AB       		.byte	0xab
 278 0138 10010000 		.4byte	0x110
 279 013c 03       		.uleb128 0x3
 280 013d A7010000 		.4byte	.LASF24
 281 0141 06       		.byte	0x6
 282 0142 AF       		.byte	0xaf
 283 0143 A9000000 		.4byte	0xa9
 284 0147 0E       		.uleb128 0xe
 285 0148 04       		.byte	0x4
ARM GAS  C:\Users\pierr\AppData\Local\Temp\ccqUrzo0.s 			page 6


 286 0149 05       		.uleb128 0x5
 287 014a 04       		.byte	0x4
 288 014b 4F010000 		.4byte	0x14f
 289 014f 02       		.uleb128 0x2
 290 0150 01       		.byte	0x1
 291 0151 08       		.byte	0x8
 292 0152 55050000 		.4byte	.LASF25
 293 0156 0F       		.uleb128 0xf
 294 0157 4F010000 		.4byte	0x14f
 295 015b 03       		.uleb128 0x3
 296 015c 9B050000 		.4byte	.LASF26
 297 0160 07       		.byte	0x7
 298 0161 16       		.byte	0x16
 299 0162 5E000000 		.4byte	0x5e
 300 0166 10       		.uleb128 0x10
 301 0167 B8010000 		.4byte	.LASF31
 302 016b 18       		.byte	0x18
 303 016c 07       		.byte	0x7
 304 016d 2F       		.byte	0x2f
 305 016e B9010000 		.4byte	0x1b9
 306 0172 0D       		.uleb128 0xd
 307 0173 72050000 		.4byte	.LASF27
 308 0177 07       		.byte	0x7
 309 0178 31       		.byte	0x31
 310 0179 B9010000 		.4byte	0x1b9
 311 017d 00       		.byte	0
 312 017e 11       		.uleb128 0x11
 313 017f 5F6B00   		.ascii	"_k\000"
 314 0182 07       		.byte	0x7
 315 0183 32       		.byte	0x32
 316 0184 73000000 		.4byte	0x73
 317 0188 04       		.byte	0x4
 318 0189 0D       		.uleb128 0xd
 319 018a 00050000 		.4byte	.LASF28
 320 018e 07       		.byte	0x7
 321 018f 32       		.byte	0x32
 322 0190 73000000 		.4byte	0x73
 323 0194 08       		.byte	0x8
 324 0195 0D       		.uleb128 0xd
 325 0196 A1010000 		.4byte	.LASF29
 326 019a 07       		.byte	0x7
 327 019b 32       		.byte	0x32
 328 019c 73000000 		.4byte	0x73
 329 01a0 0C       		.byte	0xc
 330 01a1 0D       		.uleb128 0xd
 331 01a2 C3050000 		.4byte	.LASF30
 332 01a6 07       		.byte	0x7
 333 01a7 32       		.byte	0x32
 334 01a8 73000000 		.4byte	0x73
 335 01ac 10       		.byte	0x10
 336 01ad 11       		.uleb128 0x11
 337 01ae 5F7800   		.ascii	"_x\000"
 338 01b1 07       		.byte	0x7
 339 01b2 33       		.byte	0x33
 340 01b3 BF010000 		.4byte	0x1bf
 341 01b7 14       		.byte	0x14
 342 01b8 00       		.byte	0
ARM GAS  C:\Users\pierr\AppData\Local\Temp\ccqUrzo0.s 			page 7


 343 01b9 05       		.uleb128 0x5
 344 01ba 04       		.byte	0x4
 345 01bb 66010000 		.4byte	0x166
 346 01bf 0A       		.uleb128 0xa
 347 01c0 5B010000 		.4byte	0x15b
 348 01c4 CF010000 		.4byte	0x1cf
 349 01c8 0B       		.uleb128 0xb
 350 01c9 7A000000 		.4byte	0x7a
 351 01cd 00       		.byte	0
 352 01ce 00       		.byte	0
 353 01cf 10       		.uleb128 0x10
 354 01d0 DF010000 		.4byte	.LASF32
 355 01d4 24       		.byte	0x24
 356 01d5 07       		.byte	0x7
 357 01d6 37       		.byte	0x37
 358 01d7 48020000 		.4byte	0x248
 359 01db 0D       		.uleb128 0xd
 360 01dc AE000000 		.4byte	.LASF33
 361 01e0 07       		.byte	0x7
 362 01e1 39       		.byte	0x39
 363 01e2 73000000 		.4byte	0x73
 364 01e6 00       		.byte	0
 365 01e7 0D       		.uleb128 0xd
 366 01e8 63050000 		.4byte	.LASF34
 367 01ec 07       		.byte	0x7
 368 01ed 3A       		.byte	0x3a
 369 01ee 73000000 		.4byte	0x73
 370 01f2 04       		.byte	0x4
 371 01f3 0D       		.uleb128 0xd
 372 01f4 DD000000 		.4byte	.LASF35
 373 01f8 07       		.byte	0x7
 374 01f9 3B       		.byte	0x3b
 375 01fa 73000000 		.4byte	0x73
 376 01fe 08       		.byte	0x8
 377 01ff 0D       		.uleb128 0xd
 378 0200 7B060000 		.4byte	.LASF36
 379 0204 07       		.byte	0x7
 380 0205 3C       		.byte	0x3c
 381 0206 73000000 		.4byte	0x73
 382 020a 0C       		.byte	0xc
 383 020b 0D       		.uleb128 0xd
 384 020c FD030000 		.4byte	.LASF37
 385 0210 07       		.byte	0x7
 386 0211 3D       		.byte	0x3d
 387 0212 73000000 		.4byte	0x73
 388 0216 10       		.byte	0x10
 389 0217 0D       		.uleb128 0xd
 390 0218 D7030000 		.4byte	.LASF38
 391 021c 07       		.byte	0x7
 392 021d 3E       		.byte	0x3e
 393 021e 73000000 		.4byte	0x73
 394 0222 14       		.byte	0x14
 395 0223 0D       		.uleb128 0xd
 396 0224 C8050000 		.4byte	.LASF39
 397 0228 07       		.byte	0x7
 398 0229 3F       		.byte	0x3f
 399 022a 73000000 		.4byte	0x73
ARM GAS  C:\Users\pierr\AppData\Local\Temp\ccqUrzo0.s 			page 8


 400 022e 18       		.byte	0x18
 401 022f 0D       		.uleb128 0xd
 402 0230 68040000 		.4byte	.LASF40
 403 0234 07       		.byte	0x7
 404 0235 40       		.byte	0x40
 405 0236 73000000 		.4byte	0x73
 406 023a 1C       		.byte	0x1c
 407 023b 0D       		.uleb128 0xd
 408 023c 02060000 		.4byte	.LASF41
 409 0240 07       		.byte	0x7
 410 0241 41       		.byte	0x41
 411 0242 73000000 		.4byte	0x73
 412 0246 20       		.byte	0x20
 413 0247 00       		.byte	0
 414 0248 12       		.uleb128 0x12
 415 0249 EC000000 		.4byte	.LASF42
 416 024d 0801     		.2byte	0x108
 417 024f 07       		.byte	0x7
 418 0250 4A       		.byte	0x4a
 419 0251 88020000 		.4byte	0x288
 420 0255 0D       		.uleb128 0xd
 421 0256 89010000 		.4byte	.LASF43
 422 025a 07       		.byte	0x7
 423 025b 4B       		.byte	0x4b
 424 025c 88020000 		.4byte	0x288
 425 0260 00       		.byte	0
 426 0261 0D       		.uleb128 0xd
 427 0262 00000000 		.4byte	.LASF44
 428 0266 07       		.byte	0x7
 429 0267 4C       		.byte	0x4c
 430 0268 88020000 		.4byte	0x288
 431 026c 80       		.byte	0x80
 432 026d 13       		.uleb128 0x13
 433 026e 8D050000 		.4byte	.LASF45
 434 0272 07       		.byte	0x7
 435 0273 4E       		.byte	0x4e
 436 0274 5B010000 		.4byte	0x15b
 437 0278 0001     		.2byte	0x100
 438 027a 13       		.uleb128 0x13
 439 027b 1A010000 		.4byte	.LASF46
 440 027f 07       		.byte	0x7
 441 0280 51       		.byte	0x51
 442 0281 5B010000 		.4byte	0x15b
 443 0285 0401     		.2byte	0x104
 444 0287 00       		.byte	0
 445 0288 0A       		.uleb128 0xa
 446 0289 47010000 		.4byte	0x147
 447 028d 98020000 		.4byte	0x298
 448 0291 0B       		.uleb128 0xb
 449 0292 7A000000 		.4byte	0x7a
 450 0296 1F       		.byte	0x1f
 451 0297 00       		.byte	0
 452 0298 12       		.uleb128 0x12
 453 0299 06040000 		.4byte	.LASF47
 454 029d 9001     		.2byte	0x190
 455 029f 07       		.byte	0x7
 456 02a0 5D       		.byte	0x5d
ARM GAS  C:\Users\pierr\AppData\Local\Temp\ccqUrzo0.s 			page 9


 457 02a1 D6020000 		.4byte	0x2d6
 458 02a5 0D       		.uleb128 0xd
 459 02a6 72050000 		.4byte	.LASF27
 460 02aa 07       		.byte	0x7
 461 02ab 5E       		.byte	0x5e
 462 02ac D6020000 		.4byte	0x2d6
 463 02b0 00       		.byte	0
 464 02b1 0D       		.uleb128 0xd
 465 02b2 BF040000 		.4byte	.LASF48
 466 02b6 07       		.byte	0x7
 467 02b7 5F       		.byte	0x5f
 468 02b8 73000000 		.4byte	0x73
 469 02bc 04       		.byte	0x4
 470 02bd 0D       		.uleb128 0xd
 471 02be 91010000 		.4byte	.LASF49
 472 02c2 07       		.byte	0x7
 473 02c3 61       		.byte	0x61
 474 02c4 DC020000 		.4byte	0x2dc
 475 02c8 08       		.byte	0x8
 476 02c9 0D       		.uleb128 0xd
 477 02ca EC000000 		.4byte	.LASF42
 478 02ce 07       		.byte	0x7
 479 02cf 62       		.byte	0x62
 480 02d0 48020000 		.4byte	0x248
 481 02d4 88       		.byte	0x88
 482 02d5 00       		.byte	0
 483 02d6 05       		.uleb128 0x5
 484 02d7 04       		.byte	0x4
 485 02d8 98020000 		.4byte	0x298
 486 02dc 0A       		.uleb128 0xa
 487 02dd EC020000 		.4byte	0x2ec
 488 02e1 EC020000 		.4byte	0x2ec
 489 02e5 0B       		.uleb128 0xb
 490 02e6 7A000000 		.4byte	0x7a
 491 02ea 1F       		.byte	0x1f
 492 02eb 00       		.byte	0
 493 02ec 05       		.uleb128 0x5
 494 02ed 04       		.byte	0x4
 495 02ee F2020000 		.4byte	0x2f2
 496 02f2 14       		.uleb128 0x14
 497 02f3 10       		.uleb128 0x10
 498 02f4 72040000 		.4byte	.LASF50
 499 02f8 08       		.byte	0x8
 500 02f9 07       		.byte	0x7
 501 02fa 75       		.byte	0x75
 502 02fb 18030000 		.4byte	0x318
 503 02ff 0D       		.uleb128 0xd
 504 0300 D7000000 		.4byte	.LASF51
 505 0304 07       		.byte	0x7
 506 0305 76       		.byte	0x76
 507 0306 18030000 		.4byte	0x318
 508 030a 00       		.byte	0
 509 030b 0D       		.uleb128 0xd
 510 030c 0C000000 		.4byte	.LASF52
 511 0310 07       		.byte	0x7
 512 0311 77       		.byte	0x77
 513 0312 73000000 		.4byte	0x73
ARM GAS  C:\Users\pierr\AppData\Local\Temp\ccqUrzo0.s 			page 10


 514 0316 04       		.byte	0x4
 515 0317 00       		.byte	0
 516 0318 05       		.uleb128 0x5
 517 0319 04       		.byte	0x4
 518 031a 37000000 		.4byte	0x37
 519 031e 10       		.uleb128 0x10
 520 031f 91040000 		.4byte	.LASF53
 521 0323 68       		.byte	0x68
 522 0324 07       		.byte	0x7
 523 0325 B5       		.byte	0xb5
 524 0326 48040000 		.4byte	0x448
 525 032a 11       		.uleb128 0x11
 526 032b 5F7000   		.ascii	"_p\000"
 527 032e 07       		.byte	0x7
 528 032f B6       		.byte	0xb6
 529 0330 18030000 		.4byte	0x318
 530 0334 00       		.byte	0
 531 0335 11       		.uleb128 0x11
 532 0336 5F7200   		.ascii	"_r\000"
 533 0339 07       		.byte	0x7
 534 033a B7       		.byte	0xb7
 535 033b 73000000 		.4byte	0x73
 536 033f 04       		.byte	0x4
 537 0340 11       		.uleb128 0x11
 538 0341 5F7700   		.ascii	"_w\000"
 539 0344 07       		.byte	0x7
 540 0345 B8       		.byte	0xb8
 541 0346 73000000 		.4byte	0x73
 542 034a 08       		.byte	0x8
 543 034b 0D       		.uleb128 0xd
 544 034c 13010000 		.4byte	.LASF54
 545 0350 07       		.byte	0x7
 546 0351 B9       		.byte	0xb9
 547 0352 3E000000 		.4byte	0x3e
 548 0356 0C       		.byte	0xc
 549 0357 0D       		.uleb128 0xd
 550 0358 5E030000 		.4byte	.LASF55
 551 035c 07       		.byte	0x7
 552 035d BA       		.byte	0xba
 553 035e 3E000000 		.4byte	0x3e
 554 0362 0E       		.byte	0xe
 555 0363 11       		.uleb128 0x11
 556 0364 5F626600 		.ascii	"_bf\000"
 557 0368 07       		.byte	0x7
 558 0369 BB       		.byte	0xbb
 559 036a F3020000 		.4byte	0x2f3
 560 036e 10       		.byte	0x10
 561 036f 0D       		.uleb128 0xd
 562 0370 8B000000 		.4byte	.LASF56
 563 0374 07       		.byte	0x7
 564 0375 BC       		.byte	0xbc
 565 0376 73000000 		.4byte	0x73
 566 037a 18       		.byte	0x18
 567 037b 0D       		.uleb128 0xd
 568 037c FA000000 		.4byte	.LASF57
 569 0380 07       		.byte	0x7
 570 0381 C3       		.byte	0xc3
ARM GAS  C:\Users\pierr\AppData\Local\Temp\ccqUrzo0.s 			page 11


 571 0382 47010000 		.4byte	0x147
 572 0386 1C       		.byte	0x1c
 573 0387 0D       		.uleb128 0xd
 574 0388 CF010000 		.4byte	.LASF58
 575 038c 07       		.byte	0x7
 576 038d C5       		.byte	0xc5
 577 038e A3050000 		.4byte	0x5a3
 578 0392 20       		.byte	0x20
 579 0393 0D       		.uleb128 0xd
 580 0394 D0030000 		.4byte	.LASF59
 581 0398 07       		.byte	0x7
 582 0399 C7       		.byte	0xc7
 583 039a CD050000 		.4byte	0x5cd
 584 039e 24       		.byte	0x24
 585 039f 0D       		.uleb128 0xd
 586 03a0 2D050000 		.4byte	.LASF60
 587 03a4 07       		.byte	0x7
 588 03a5 CA       		.byte	0xca
 589 03a6 F1050000 		.4byte	0x5f1
 590 03aa 28       		.byte	0x28
 591 03ab 0D       		.uleb128 0xd
 592 03ac 1C060000 		.4byte	.LASF61
 593 03b0 07       		.byte	0x7
 594 03b1 CB       		.byte	0xcb
 595 03b2 0B060000 		.4byte	0x60b
 596 03b6 2C       		.byte	0x2c
 597 03b7 11       		.uleb128 0x11
 598 03b8 5F756200 		.ascii	"_ub\000"
 599 03bc 07       		.byte	0x7
 600 03bd CE       		.byte	0xce
 601 03be F3020000 		.4byte	0x2f3
 602 03c2 30       		.byte	0x30
 603 03c3 11       		.uleb128 0x11
 604 03c4 5F757000 		.ascii	"_up\000"
 605 03c8 07       		.byte	0x7
 606 03c9 CF       		.byte	0xcf
 607 03ca 18030000 		.4byte	0x318
 608 03ce 38       		.byte	0x38
 609 03cf 11       		.uleb128 0x11
 610 03d0 5F757200 		.ascii	"_ur\000"
 611 03d4 07       		.byte	0x7
 612 03d5 D0       		.byte	0xd0
 613 03d6 73000000 		.4byte	0x73
 614 03da 3C       		.byte	0x3c
 615 03db 0D       		.uleb128 0xd
 616 03dc D1000000 		.4byte	.LASF62
 617 03e0 07       		.byte	0x7
 618 03e1 D3       		.byte	0xd3
 619 03e2 11060000 		.4byte	0x611
 620 03e6 40       		.byte	0x40
 621 03e7 0D       		.uleb128 0xd
 622 03e8 F4050000 		.4byte	.LASF63
 623 03ec 07       		.byte	0x7
 624 03ed D4       		.byte	0xd4
 625 03ee 21060000 		.4byte	0x621
 626 03f2 43       		.byte	0x43
 627 03f3 11       		.uleb128 0x11
ARM GAS  C:\Users\pierr\AppData\Local\Temp\ccqUrzo0.s 			page 12


 628 03f4 5F6C6200 		.ascii	"_lb\000"
 629 03f8 07       		.byte	0x7
 630 03f9 D7       		.byte	0xd7
 631 03fa F3020000 		.4byte	0x2f3
 632 03fe 44       		.byte	0x44
 633 03ff 0D       		.uleb128 0xd
 634 0400 5A050000 		.4byte	.LASF64
 635 0404 07       		.byte	0x7
 636 0405 DA       		.byte	0xda
 637 0406 73000000 		.4byte	0x73
 638 040a 4C       		.byte	0x4c
 639 040b 0D       		.uleb128 0xd
 640 040c 62010000 		.4byte	.LASF65
 641 0410 07       		.byte	0x7
 642 0411 DB       		.byte	0xdb
 643 0412 BF000000 		.4byte	0xbf
 644 0416 50       		.byte	0x50
 645 0417 0D       		.uleb128 0xd
 646 0418 49000000 		.4byte	.LASF66
 647 041c 07       		.byte	0x7
 648 041d DE       		.byte	0xde
 649 041e 66040000 		.4byte	0x466
 650 0422 54       		.byte	0x54
 651 0423 0D       		.uleb128 0xd
 652 0424 C2030000 		.4byte	.LASF67
 653 0428 07       		.byte	0x7
 654 0429 E2       		.byte	0xe2
 655 042a 3C010000 		.4byte	0x13c
 656 042e 58       		.byte	0x58
 657 042f 0D       		.uleb128 0xd
 658 0430 99040000 		.4byte	.LASF68
 659 0434 07       		.byte	0x7
 660 0435 E4       		.byte	0xe4
 661 0436 31010000 		.4byte	0x131
 662 043a 5C       		.byte	0x5c
 663 043b 0D       		.uleb128 0xd
 664 043c C8030000 		.4byte	.LASF69
 665 0440 07       		.byte	0x7
 666 0441 E5       		.byte	0xe5
 667 0442 73000000 		.4byte	0x73
 668 0446 64       		.byte	0x64
 669 0447 00       		.byte	0
 670 0448 15       		.uleb128 0x15
 671 0449 73000000 		.4byte	0x73
 672 044d 66040000 		.4byte	0x466
 673 0451 16       		.uleb128 0x16
 674 0452 66040000 		.4byte	0x466
 675 0456 16       		.uleb128 0x16
 676 0457 47010000 		.4byte	0x147
 677 045b 16       		.uleb128 0x16
 678 045c 49010000 		.4byte	0x149
 679 0460 16       		.uleb128 0x16
 680 0461 73000000 		.4byte	0x73
 681 0465 00       		.byte	0
 682 0466 05       		.uleb128 0x5
 683 0467 04       		.byte	0x4
 684 0468 71040000 		.4byte	0x471
ARM GAS  C:\Users\pierr\AppData\Local\Temp\ccqUrzo0.s 			page 13


 685 046c 0F       		.uleb128 0xf
 686 046d 66040000 		.4byte	0x466
 687 0471 17       		.uleb128 0x17
 688 0472 08050000 		.4byte	.LASF70
 689 0476 2804     		.2byte	0x428
 690 0478 07       		.byte	0x7
 691 0479 3902     		.2byte	0x239
 692 047b A3050000 		.4byte	0x5a3
 693 047f 18       		.uleb128 0x18
 694 0480 4E050000 		.4byte	.LASF71
 695 0484 07       		.byte	0x7
 696 0485 3B02     		.2byte	0x23b
 697 0487 73000000 		.4byte	0x73
 698 048b 00       		.byte	0
 699 048c 18       		.uleb128 0x18
 700 048d 22010000 		.4byte	.LASF72
 701 0491 07       		.byte	0x7
 702 0492 4002     		.2byte	0x240
 703 0494 78060000 		.4byte	0x678
 704 0498 04       		.byte	0x4
 705 0499 18       		.uleb128 0x18
 706 049a 3C030000 		.4byte	.LASF73
 707 049e 07       		.byte	0x7
 708 049f 4002     		.2byte	0x240
 709 04a1 78060000 		.4byte	0x678
 710 04a5 08       		.byte	0x8
 711 04a6 18       		.uleb128 0x18
 712 04a7 B0010000 		.4byte	.LASF74
 713 04ab 07       		.byte	0x7
 714 04ac 4002     		.2byte	0x240
 715 04ae 78060000 		.4byte	0x678
 716 04b2 0C       		.byte	0xc
 717 04b3 18       		.uleb128 0x18
 718 04b4 BA040000 		.4byte	.LASF75
 719 04b8 07       		.byte	0x7
 720 04b9 4202     		.2byte	0x242
 721 04bb 73000000 		.4byte	0x73
 722 04bf 10       		.byte	0x10
 723 04c0 18       		.uleb128 0x18
 724 04c1 27000000 		.4byte	.LASF76
 725 04c5 07       		.byte	0x7
 726 04c6 4302     		.2byte	0x243
 727 04c8 5A080000 		.4byte	0x85a
 728 04cc 14       		.byte	0x14
 729 04cd 18       		.uleb128 0x18
 730 04ce D6040000 		.4byte	.LASF77
 731 04d2 07       		.byte	0x7
 732 04d3 4602     		.2byte	0x246
 733 04d5 73000000 		.4byte	0x73
 734 04d9 30       		.byte	0x30
 735 04da 18       		.uleb128 0x18
 736 04db C4040000 		.4byte	.LASF78
 737 04df 07       		.byte	0x7
 738 04e0 4702     		.2byte	0x247
 739 04e2 6F080000 		.4byte	0x86f
 740 04e6 34       		.byte	0x34
 741 04e7 18       		.uleb128 0x18
ARM GAS  C:\Users\pierr\AppData\Local\Temp\ccqUrzo0.s 			page 14


 742 04e8 18040000 		.4byte	.LASF79
 743 04ec 07       		.byte	0x7
 744 04ed 4902     		.2byte	0x249
 745 04ef 73000000 		.4byte	0x73
 746 04f3 38       		.byte	0x38
 747 04f4 18       		.uleb128 0x18
 748 04f5 CC040000 		.4byte	.LASF80
 749 04f9 07       		.byte	0x7
 750 04fa 4B02     		.2byte	0x24b
 751 04fc 80080000 		.4byte	0x880
 752 0500 3C       		.byte	0x3c
 753 0501 18       		.uleb128 0x18
 754 0502 A5030000 		.4byte	.LASF81
 755 0506 07       		.byte	0x7
 756 0507 4E02     		.2byte	0x24e
 757 0509 B9010000 		.4byte	0x1b9
 758 050d 40       		.byte	0x40
 759 050e 18       		.uleb128 0x18
 760 050f D5010000 		.4byte	.LASF82
 761 0513 07       		.byte	0x7
 762 0514 4F02     		.2byte	0x24f
 763 0516 73000000 		.4byte	0x73
 764 051a 44       		.byte	0x44
 765 051b 18       		.uleb128 0x18
 766 051c 76060000 		.4byte	.LASF83
 767 0520 07       		.byte	0x7
 768 0521 5002     		.2byte	0x250
 769 0523 B9010000 		.4byte	0x1b9
 770 0527 48       		.byte	0x48
 771 0528 18       		.uleb128 0x18
 772 0529 2A040000 		.4byte	.LASF84
 773 052d 07       		.byte	0x7
 774 052e 5102     		.2byte	0x251
 775 0530 86080000 		.4byte	0x886
 776 0534 4C       		.byte	0x4c
 777 0535 18       		.uleb128 0x18
 778 0536 44030000 		.4byte	.LASF85
 779 053a 07       		.byte	0x7
 780 053b 5402     		.2byte	0x254
 781 053d 73000000 		.4byte	0x73
 782 0541 50       		.byte	0x50
 783 0542 18       		.uleb128 0x18
 784 0543 5A010000 		.4byte	.LASF86
 785 0547 07       		.byte	0x7
 786 0548 5502     		.2byte	0x255
 787 054a 49010000 		.4byte	0x149
 788 054e 54       		.byte	0x54
 789 054f 18       		.uleb128 0x18
 790 0550 50040000 		.4byte	.LASF87
 791 0554 07       		.byte	0x7
 792 0555 7802     		.2byte	0x278
 793 0557 38080000 		.4byte	0x838
 794 055b 58       		.byte	0x58
 795 055c 19       		.uleb128 0x19
 796 055d 06040000 		.4byte	.LASF47
 797 0561 07       		.byte	0x7
 798 0562 7C02     		.2byte	0x27c
ARM GAS  C:\Users\pierr\AppData\Local\Temp\ccqUrzo0.s 			page 15


 799 0564 D6020000 		.4byte	0x2d6
 800 0568 4801     		.2byte	0x148
 801 056a 19       		.uleb128 0x19
 802 056b 83030000 		.4byte	.LASF88
 803 056f 07       		.byte	0x7
 804 0570 7D02     		.2byte	0x27d
 805 0572 98020000 		.4byte	0x298
 806 0576 4C01     		.2byte	0x14c
 807 0578 19       		.uleb128 0x19
 808 0579 EA050000 		.4byte	.LASF89
 809 057d 07       		.byte	0x7
 810 057e 8102     		.2byte	0x281
 811 0580 97080000 		.4byte	0x897
 812 0584 DC02     		.2byte	0x2dc
 813 0586 19       		.uleb128 0x19
 814 0587 02010000 		.4byte	.LASF90
 815 058b 07       		.byte	0x7
 816 058c 8602     		.2byte	0x286
 817 058e 3D060000 		.4byte	0x63d
 818 0592 E002     		.2byte	0x2e0
 819 0594 19       		.uleb128 0x19
 820 0595 E7000000 		.4byte	.LASF91
 821 0599 07       		.byte	0x7
 822 059a 8802     		.2byte	0x288
 823 059c A3080000 		.4byte	0x8a3
 824 05a0 EC02     		.2byte	0x2ec
 825 05a2 00       		.byte	0
 826 05a3 05       		.uleb128 0x5
 827 05a4 04       		.byte	0x4
 828 05a5 48040000 		.4byte	0x448
 829 05a9 15       		.uleb128 0x15
 830 05aa 73000000 		.4byte	0x73
 831 05ae C7050000 		.4byte	0x5c7
 832 05b2 16       		.uleb128 0x16
 833 05b3 66040000 		.4byte	0x466
 834 05b7 16       		.uleb128 0x16
 835 05b8 47010000 		.4byte	0x147
 836 05bc 16       		.uleb128 0x16
 837 05bd C7050000 		.4byte	0x5c7
 838 05c1 16       		.uleb128 0x16
 839 05c2 73000000 		.4byte	0x73
 840 05c6 00       		.byte	0
 841 05c7 05       		.uleb128 0x5
 842 05c8 04       		.byte	0x4
 843 05c9 56010000 		.4byte	0x156
 844 05cd 05       		.uleb128 0x5
 845 05ce 04       		.byte	0x4
 846 05cf A9050000 		.4byte	0x5a9
 847 05d3 15       		.uleb128 0x15
 848 05d4 CA000000 		.4byte	0xca
 849 05d8 F1050000 		.4byte	0x5f1
 850 05dc 16       		.uleb128 0x16
 851 05dd 66040000 		.4byte	0x466
 852 05e1 16       		.uleb128 0x16
 853 05e2 47010000 		.4byte	0x147
 854 05e6 16       		.uleb128 0x16
 855 05e7 CA000000 		.4byte	0xca
ARM GAS  C:\Users\pierr\AppData\Local\Temp\ccqUrzo0.s 			page 16


 856 05eb 16       		.uleb128 0x16
 857 05ec 73000000 		.4byte	0x73
 858 05f0 00       		.byte	0
 859 05f1 05       		.uleb128 0x5
 860 05f2 04       		.byte	0x4
 861 05f3 D3050000 		.4byte	0x5d3
 862 05f7 15       		.uleb128 0x15
 863 05f8 73000000 		.4byte	0x73
 864 05fc 0B060000 		.4byte	0x60b
 865 0600 16       		.uleb128 0x16
 866 0601 66040000 		.4byte	0x466
 867 0605 16       		.uleb128 0x16
 868 0606 47010000 		.4byte	0x147
 869 060a 00       		.byte	0
 870 060b 05       		.uleb128 0x5
 871 060c 04       		.byte	0x4
 872 060d F7050000 		.4byte	0x5f7
 873 0611 0A       		.uleb128 0xa
 874 0612 37000000 		.4byte	0x37
 875 0616 21060000 		.4byte	0x621
 876 061a 0B       		.uleb128 0xb
 877 061b 7A000000 		.4byte	0x7a
 878 061f 02       		.byte	0x2
 879 0620 00       		.byte	0
 880 0621 0A       		.uleb128 0xa
 881 0622 37000000 		.4byte	0x37
 882 0626 31060000 		.4byte	0x631
 883 062a 0B       		.uleb128 0xb
 884 062b 7A000000 		.4byte	0x7a
 885 062f 00       		.byte	0
 886 0630 00       		.byte	0
 887 0631 07       		.uleb128 0x7
 888 0632 7F040000 		.4byte	.LASF92
 889 0636 07       		.byte	0x7
 890 0637 1F01     		.2byte	0x11f
 891 0639 1E030000 		.4byte	0x31e
 892 063d 1A       		.uleb128 0x1a
 893 063e D2050000 		.4byte	.LASF93
 894 0642 0C       		.byte	0xc
 895 0643 07       		.byte	0x7
 896 0644 2301     		.2byte	0x123
 897 0646 72060000 		.4byte	0x672
 898 064a 18       		.uleb128 0x18
 899 064b 72050000 		.4byte	.LASF27
 900 064f 07       		.byte	0x7
 901 0650 2501     		.2byte	0x125
 902 0652 72060000 		.4byte	0x672
 903 0656 00       		.byte	0
 904 0657 18       		.uleb128 0x18
 905 0658 64030000 		.4byte	.LASF94
 906 065c 07       		.byte	0x7
 907 065d 2601     		.2byte	0x126
 908 065f 73000000 		.4byte	0x73
 909 0663 04       		.byte	0x4
 910 0664 18       		.uleb128 0x18
 911 0665 79040000 		.4byte	.LASF95
 912 0669 07       		.byte	0x7
ARM GAS  C:\Users\pierr\AppData\Local\Temp\ccqUrzo0.s 			page 17


 913 066a 2701     		.2byte	0x127
 914 066c 78060000 		.4byte	0x678
 915 0670 08       		.byte	0x8
 916 0671 00       		.byte	0
 917 0672 05       		.uleb128 0x5
 918 0673 04       		.byte	0x4
 919 0674 3D060000 		.4byte	0x63d
 920 0678 05       		.uleb128 0x5
 921 0679 04       		.byte	0x4
 922 067a 31060000 		.4byte	0x631
 923 067e 1A       		.uleb128 0x1a
 924 067f 1F000000 		.4byte	.LASF96
 925 0683 0E       		.byte	0xe
 926 0684 07       		.byte	0x7
 927 0685 3F01     		.2byte	0x13f
 928 0687 B3060000 		.4byte	0x6b3
 929 068b 18       		.uleb128 0x18
 930 068c 0F050000 		.4byte	.LASF97
 931 0690 07       		.byte	0x7
 932 0691 4001     		.2byte	0x140
 933 0693 B3060000 		.4byte	0x6b3
 934 0697 00       		.byte	0
 935 0698 18       		.uleb128 0x18
 936 0699 6C050000 		.4byte	.LASF98
 937 069d 07       		.byte	0x7
 938 069e 4101     		.2byte	0x141
 939 06a0 B3060000 		.4byte	0x6b3
 940 06a4 06       		.byte	0x6
 941 06a5 18       		.uleb128 0x18
 942 06a6 96050000 		.4byte	.LASF99
 943 06aa 07       		.byte	0x7
 944 06ab 4201     		.2byte	0x142
 945 06ad 45000000 		.4byte	0x45
 946 06b1 0C       		.byte	0xc
 947 06b2 00       		.byte	0
 948 06b3 0A       		.uleb128 0xa
 949 06b4 45000000 		.4byte	0x45
 950 06b8 C3060000 		.4byte	0x6c3
 951 06bc 0B       		.uleb128 0xb
 952 06bd 7A000000 		.4byte	0x7a
 953 06c1 02       		.byte	0x2
 954 06c2 00       		.byte	0
 955 06c3 1B       		.uleb128 0x1b
 956 06c4 D0       		.byte	0xd0
 957 06c5 07       		.byte	0x7
 958 06c6 5902     		.2byte	0x259
 959 06c8 C4070000 		.4byte	0x7c4
 960 06cc 18       		.uleb128 0x18
 961 06cd B6050000 		.4byte	.LASF100
 962 06d1 07       		.byte	0x7
 963 06d2 5B02     		.2byte	0x25b
 964 06d4 7A000000 		.4byte	0x7a
 965 06d8 00       		.byte	0
 966 06d9 18       		.uleb128 0x18
 967 06da 78050000 		.4byte	.LASF101
 968 06de 07       		.byte	0x7
 969 06df 5C02     		.2byte	0x25c
ARM GAS  C:\Users\pierr\AppData\Local\Temp\ccqUrzo0.s 			page 18


 970 06e1 49010000 		.4byte	0x149
 971 06e5 04       		.byte	0x4
 972 06e6 18       		.uleb128 0x18
 973 06e7 98030000 		.4byte	.LASF102
 974 06eb 07       		.byte	0x7
 975 06ec 5D02     		.2byte	0x25d
 976 06ee C4070000 		.4byte	0x7c4
 977 06f2 08       		.byte	0x8
 978 06f3 18       		.uleb128 0x18
 979 06f4 0D060000 		.4byte	.LASF103
 980 06f8 07       		.byte	0x7
 981 06f9 5E02     		.2byte	0x25e
 982 06fb CF010000 		.4byte	0x1cf
 983 06ff 24       		.byte	0x24
 984 0700 18       		.uleb128 0x18
 985 0701 C0010000 		.4byte	.LASF104
 986 0705 07       		.byte	0x7
 987 0706 5F02     		.2byte	0x25f
 988 0708 73000000 		.4byte	0x73
 989 070c 48       		.byte	0x48
 990 070d 18       		.uleb128 0x18
 991 070e A2040000 		.4byte	.LASF105
 992 0712 07       		.byte	0x7
 993 0713 6002     		.2byte	0x260
 994 0715 6C000000 		.4byte	0x6c
 995 0719 50       		.byte	0x50
 996 071a 18       		.uleb128 0x18
 997 071b 63060000 		.4byte	.LASF106
 998 071f 07       		.byte	0x7
 999 0720 6102     		.2byte	0x261
 1000 0722 7E060000 		.4byte	0x67e
 1001 0726 58       		.byte	0x58
 1002 0727 18       		.uleb128 0x18
 1003 0728 AD040000 		.4byte	.LASF107
 1004 072c 07       		.byte	0x7
 1005 072d 6202     		.2byte	0x262
 1006 072f 31010000 		.4byte	0x131
 1007 0733 68       		.byte	0x68
 1008 0734 18       		.uleb128 0x18
 1009 0735 68060000 		.4byte	.LASF108
 1010 0739 07       		.byte	0x7
 1011 073a 6302     		.2byte	0x263
 1012 073c 31010000 		.4byte	0x131
 1013 0740 70       		.byte	0x70
 1014 0741 18       		.uleb128 0x18
 1015 0742 34040000 		.4byte	.LASF109
 1016 0746 07       		.byte	0x7
 1017 0747 6402     		.2byte	0x264
 1018 0749 31010000 		.4byte	0x131
 1019 074d 78       		.byte	0x78
 1020 074e 18       		.uleb128 0x18
 1021 074f E0050000 		.4byte	.LASF110
 1022 0753 07       		.byte	0x7
 1023 0754 6502     		.2byte	0x265
 1024 0756 D4070000 		.4byte	0x7d4
 1025 075a 80       		.byte	0x80
 1026 075b 18       		.uleb128 0x18
ARM GAS  C:\Users\pierr\AppData\Local\Temp\ccqUrzo0.s 			page 19


 1027 075c 8C030000 		.4byte	.LASF111
 1028 0760 07       		.byte	0x7
 1029 0761 6602     		.2byte	0x266
 1030 0763 E4070000 		.4byte	0x7e4
 1031 0767 88       		.byte	0x88
 1032 0768 18       		.uleb128 0x18
 1033 0769 3C000000 		.4byte	.LASF112
 1034 076d 07       		.byte	0x7
 1035 076e 6702     		.2byte	0x267
 1036 0770 73000000 		.4byte	0x73
 1037 0774 A0       		.byte	0xa0
 1038 0775 18       		.uleb128 0x18
 1039 0776 7B010000 		.4byte	.LASF113
 1040 077a 07       		.byte	0x7
 1041 077b 6802     		.2byte	0x268
 1042 077d 31010000 		.4byte	0x131
 1043 0781 A4       		.byte	0xa4
 1044 0782 18       		.uleb128 0x18
 1045 0783 9F000000 		.4byte	.LASF114
 1046 0787 07       		.byte	0x7
 1047 0788 6902     		.2byte	0x269
 1048 078a 31010000 		.4byte	0x131
 1049 078e AC       		.byte	0xac
 1050 078f 18       		.uleb128 0x18
 1051 0790 6A010000 		.4byte	.LASF115
 1052 0794 07       		.byte	0x7
 1053 0795 6A02     		.2byte	0x26a
 1054 0797 31010000 		.4byte	0x131
 1055 079b B4       		.byte	0xb4
 1056 079c 18       		.uleb128 0x18
 1057 079d 54000000 		.4byte	.LASF116
 1058 07a1 07       		.byte	0x7
 1059 07a2 6B02     		.2byte	0x26b
 1060 07a4 31010000 		.4byte	0x131
 1061 07a8 BC       		.byte	0xbc
 1062 07a9 18       		.uleb128 0x18
 1063 07aa 63000000 		.4byte	.LASF117
 1064 07ae 07       		.byte	0x7
 1065 07af 6C02     		.2byte	0x26c
 1066 07b1 31010000 		.4byte	0x131
 1067 07b5 C4       		.byte	0xc4
 1068 07b6 18       		.uleb128 0x18
 1069 07b7 55040000 		.4byte	.LASF118
 1070 07bb 07       		.byte	0x7
 1071 07bc 6D02     		.2byte	0x26d
 1072 07be 73000000 		.4byte	0x73
 1073 07c2 CC       		.byte	0xcc
 1074 07c3 00       		.byte	0
 1075 07c4 0A       		.uleb128 0xa
 1076 07c5 4F010000 		.4byte	0x14f
 1077 07c9 D4070000 		.4byte	0x7d4
 1078 07cd 0B       		.uleb128 0xb
 1079 07ce 7A000000 		.4byte	0x7a
 1080 07d2 19       		.byte	0x19
 1081 07d3 00       		.byte	0
 1082 07d4 0A       		.uleb128 0xa
 1083 07d5 4F010000 		.4byte	0x14f
ARM GAS  C:\Users\pierr\AppData\Local\Temp\ccqUrzo0.s 			page 20


 1084 07d9 E4070000 		.4byte	0x7e4
 1085 07dd 0B       		.uleb128 0xb
 1086 07de 7A000000 		.4byte	0x7a
 1087 07e2 07       		.byte	0x7
 1088 07e3 00       		.byte	0
 1089 07e4 0A       		.uleb128 0xa
 1090 07e5 4F010000 		.4byte	0x14f
 1091 07e9 F4070000 		.4byte	0x7f4
 1092 07ed 0B       		.uleb128 0xb
 1093 07ee 7A000000 		.4byte	0x7a
 1094 07f2 17       		.byte	0x17
 1095 07f3 00       		.byte	0
 1096 07f4 1B       		.uleb128 0x1b
 1097 07f5 F0       		.byte	0xf0
 1098 07f6 07       		.byte	0x7
 1099 07f7 7202     		.2byte	0x272
 1100 07f9 18080000 		.4byte	0x818
 1101 07fd 18       		.uleb128 0x18
 1102 07fe F6030000 		.4byte	.LASF119
 1103 0802 07       		.byte	0x7
 1104 0803 7502     		.2byte	0x275
 1105 0805 18080000 		.4byte	0x818
 1106 0809 00       		.byte	0
 1107 080a 18       		.uleb128 0x18
 1108 080b E1030000 		.4byte	.LASF120
 1109 080f 07       		.byte	0x7
 1110 0810 7602     		.2byte	0x276
 1111 0812 28080000 		.4byte	0x828
 1112 0816 78       		.byte	0x78
 1113 0817 00       		.byte	0
 1114 0818 0A       		.uleb128 0xa
 1115 0819 18030000 		.4byte	0x318
 1116 081d 28080000 		.4byte	0x828
 1117 0821 0B       		.uleb128 0xb
 1118 0822 7A000000 		.4byte	0x7a
 1119 0826 1D       		.byte	0x1d
 1120 0827 00       		.byte	0
 1121 0828 0A       		.uleb128 0xa
 1122 0829 7A000000 		.4byte	0x7a
 1123 082d 38080000 		.4byte	0x838
 1124 0831 0B       		.uleb128 0xb
 1125 0832 7A000000 		.4byte	0x7a
 1126 0836 1D       		.byte	0x1d
 1127 0837 00       		.byte	0
 1128 0838 1C       		.uleb128 0x1c
 1129 0839 F0       		.byte	0xf0
 1130 083a 07       		.byte	0x7
 1131 083b 5702     		.2byte	0x257
 1132 083d 5A080000 		.4byte	0x85a
 1133 0841 1D       		.uleb128 0x1d
 1134 0842 08050000 		.4byte	.LASF70
 1135 0846 07       		.byte	0x7
 1136 0847 6E02     		.2byte	0x26e
 1137 0849 C3060000 		.4byte	0x6c3
 1138 084d 1D       		.uleb128 0x1d
 1139 084e FA050000 		.4byte	.LASF121
 1140 0852 07       		.byte	0x7
ARM GAS  C:\Users\pierr\AppData\Local\Temp\ccqUrzo0.s 			page 21


 1141 0853 7702     		.2byte	0x277
 1142 0855 F4070000 		.4byte	0x7f4
 1143 0859 00       		.byte	0
 1144 085a 0A       		.uleb128 0xa
 1145 085b 4F010000 		.4byte	0x14f
 1146 085f 6A080000 		.4byte	0x86a
 1147 0863 0B       		.uleb128 0xb
 1148 0864 7A000000 		.4byte	0x7a
 1149 0868 18       		.byte	0x18
 1150 0869 00       		.byte	0
 1151 086a 06       		.uleb128 0x6
 1152 086b 94000000 		.4byte	.LASF123
 1153 086f 05       		.uleb128 0x5
 1154 0870 04       		.byte	0x4
 1155 0871 6A080000 		.4byte	0x86a
 1156 0875 1E       		.uleb128 0x1e
 1157 0876 80080000 		.4byte	0x880
 1158 087a 16       		.uleb128 0x16
 1159 087b 66040000 		.4byte	0x466
 1160 087f 00       		.byte	0
 1161 0880 05       		.uleb128 0x5
 1162 0881 04       		.byte	0x4
 1163 0882 75080000 		.4byte	0x875
 1164 0886 05       		.uleb128 0x5
 1165 0887 04       		.byte	0x4
 1166 0888 B9010000 		.4byte	0x1b9
 1167 088c 1E       		.uleb128 0x1e
 1168 088d 97080000 		.4byte	0x897
 1169 0891 16       		.uleb128 0x16
 1170 0892 73000000 		.4byte	0x73
 1171 0896 00       		.byte	0
 1172 0897 05       		.uleb128 0x5
 1173 0898 04       		.byte	0x4
 1174 0899 9D080000 		.4byte	0x89d
 1175 089d 05       		.uleb128 0x5
 1176 089e 04       		.byte	0x4
 1177 089f 8C080000 		.4byte	0x88c
 1178 08a3 0A       		.uleb128 0xa
 1179 08a4 31060000 		.4byte	0x631
 1180 08a8 B3080000 		.4byte	0x8b3
 1181 08ac 0B       		.uleb128 0xb
 1182 08ad 7A000000 		.4byte	0x7a
 1183 08b1 02       		.byte	0x2
 1184 08b2 00       		.byte	0
 1185 08b3 1F       		.uleb128 0x1f
 1186 08b4 33050000 		.4byte	.LASF124
 1187 08b8 07       		.byte	0x7
 1188 08b9 0703     		.2byte	0x307
 1189 08bb 66040000 		.4byte	0x466
 1190 08bf 1F       		.uleb128 0x1f
 1191 08c0 A3050000 		.4byte	.LASF125
 1192 08c4 07       		.byte	0x7
 1193 08c5 0803     		.2byte	0x308
 1194 08c7 6C040000 		.4byte	0x46c
 1195 08cb 05       		.uleb128 0x5
 1196 08cc 04       		.byte	0x4
 1197 08cd D1080000 		.4byte	0x8d1
ARM GAS  C:\Users\pierr\AppData\Local\Temp\ccqUrzo0.s 			page 22


 1198 08d1 20       		.uleb128 0x20
 1199 08d2 21       		.uleb128 0x21
 1200 08d3 0E040000 		.4byte	.LASF126
 1201 08d7 08       		.byte	0x8
 1202 08d8 63       		.byte	0x63
 1203 08d9 49010000 		.4byte	0x149
 1204 08dd 22       		.uleb128 0x22
 1205 08de 19000000 		.4byte	.LASF133
 1206 08e2 01       		.byte	0x1
 1207 08e3 07       		.byte	0x7
 1208 08e4 8C000000 		.4byte	0x8c
 1209 08e8 00000000 		.4byte	.LFB0
 1210 08ec 58000000 		.4byte	.LFE0-.LFB0
 1211 08f0 01       		.uleb128 0x1
 1212 08f1 9C       		.byte	0x9c
 1213 08f2 73090000 		.4byte	0x973
 1214 08f6 23       		.uleb128 0x23
 1215 08f7 4F000000 		.4byte	.LASF127
 1216 08fb 01       		.byte	0x1
 1217 08fc 07       		.byte	0x7
 1218 08fd 8C000000 		.4byte	0x8c
 1219 0901 00000000 		.4byte	.LLST0
 1220 0905 23       		.uleb128 0x23
 1221 0906 6B030000 		.4byte	.LASF128
 1222 090a 01       		.byte	0x1
 1223 090b 07       		.byte	0x7
 1224 090c CB080000 		.4byte	0x8cb
 1225 0910 2F000000 		.4byte	.LLST1
 1226 0914 23       		.uleb128 0x23
 1227 0915 47050000 		.4byte	.LASF129
 1228 0919 01       		.byte	0x1
 1229 091a 07       		.byte	0x7
 1230 091b 97000000 		.4byte	0x97
 1231 091f 50000000 		.4byte	.LLST2
 1232 0923 24       		.uleb128 0x24
 1233 0924 7000     		.ascii	"p\000"
 1234 0926 01       		.byte	0x1
 1235 0927 09       		.byte	0x9
 1236 0928 73090000 		.4byte	0x973
 1237 092c 7E000000 		.4byte	.LLST3
 1238 0930 24       		.uleb128 0x24
 1239 0931 63726300 		.ascii	"crc\000"
 1240 0935 01       		.byte	0x1
 1241 0936 0A       		.byte	0xa
 1242 0937 8C000000 		.4byte	0x8c
 1243 093b 9F000000 		.4byte	.LLST4
 1244 093f 24       		.uleb128 0x24
 1245 0940 6900     		.ascii	"i\000"
 1246 0942 01       		.byte	0x1
 1247 0943 0B       		.byte	0xb
 1248 0944 97000000 		.4byte	0x97
 1249 0948 CB000000 		.4byte	.LLST5
 1250 094c 25       		.uleb128 0x25
 1251 094d 10000000 		.4byte	.LBB2
 1252 0951 26000000 		.4byte	.LBE2-.LBB2
 1253 0955 69090000 		.4byte	0x969
 1254 0959 24       		.uleb128 0x24
ARM GAS  C:\Users\pierr\AppData\Local\Temp\ccqUrzo0.s 			page 23


 1255 095a 62697400 		.ascii	"bit\000"
 1256 095e 01       		.byte	0x1
 1257 095f 0D       		.byte	0xd
 1258 0960 73000000 		.4byte	0x73
 1259 0964 16010000 		.4byte	.LLST6
 1260 0968 00       		.byte	0
 1261 0969 26       		.uleb128 0x26
 1262 096a 4E000000 		.4byte	.LVL13
 1263 096e 79090000 		.4byte	0x979
 1264 0972 00       		.byte	0
 1265 0973 05       		.uleb128 0x5
 1266 0974 04       		.byte	0x4
 1267 0975 81000000 		.4byte	0x81
 1268 0979 27       		.uleb128 0x27
 1269 097a EF040000 		.4byte	.LASF134
 1270 097e EF040000 		.4byte	.LASF134
 1271 0982 00       		.byte	0
 1272              		.section	.debug_abbrev,"",%progbits
 1273              	.Ldebug_abbrev0:
 1274 0000 01       		.uleb128 0x1
 1275 0001 11       		.uleb128 0x11
 1276 0002 01       		.byte	0x1
 1277 0003 25       		.uleb128 0x25
 1278 0004 0E       		.uleb128 0xe
 1279 0005 13       		.uleb128 0x13
 1280 0006 0B       		.uleb128 0xb
 1281 0007 03       		.uleb128 0x3
 1282 0008 0E       		.uleb128 0xe
 1283 0009 1B       		.uleb128 0x1b
 1284 000a 0E       		.uleb128 0xe
 1285 000b 55       		.uleb128 0x55
 1286 000c 17       		.uleb128 0x17
 1287 000d 11       		.uleb128 0x11
 1288 000e 01       		.uleb128 0x1
 1289 000f 10       		.uleb128 0x10
 1290 0010 17       		.uleb128 0x17
 1291 0011 00       		.byte	0
 1292 0012 00       		.byte	0
 1293 0013 02       		.uleb128 0x2
 1294 0014 24       		.uleb128 0x24
 1295 0015 00       		.byte	0
 1296 0016 0B       		.uleb128 0xb
 1297 0017 0B       		.uleb128 0xb
 1298 0018 3E       		.uleb128 0x3e
 1299 0019 0B       		.uleb128 0xb
 1300 001a 03       		.uleb128 0x3
 1301 001b 0E       		.uleb128 0xe
 1302 001c 00       		.byte	0
 1303 001d 00       		.byte	0
 1304 001e 03       		.uleb128 0x3
 1305 001f 16       		.uleb128 0x16
 1306 0020 00       		.byte	0
 1307 0021 03       		.uleb128 0x3
 1308 0022 0E       		.uleb128 0xe
 1309 0023 3A       		.uleb128 0x3a
 1310 0024 0B       		.uleb128 0xb
 1311 0025 3B       		.uleb128 0x3b
ARM GAS  C:\Users\pierr\AppData\Local\Temp\ccqUrzo0.s 			page 24


 1312 0026 0B       		.uleb128 0xb
 1313 0027 49       		.uleb128 0x49
 1314 0028 13       		.uleb128 0x13
 1315 0029 00       		.byte	0
 1316 002a 00       		.byte	0
 1317 002b 04       		.uleb128 0x4
 1318 002c 24       		.uleb128 0x24
 1319 002d 00       		.byte	0
 1320 002e 0B       		.uleb128 0xb
 1321 002f 0B       		.uleb128 0xb
 1322 0030 3E       		.uleb128 0x3e
 1323 0031 0B       		.uleb128 0xb
 1324 0032 03       		.uleb128 0x3
 1325 0033 08       		.uleb128 0x8
 1326 0034 00       		.byte	0
 1327 0035 00       		.byte	0
 1328 0036 05       		.uleb128 0x5
 1329 0037 0F       		.uleb128 0xf
 1330 0038 00       		.byte	0
 1331 0039 0B       		.uleb128 0xb
 1332 003a 0B       		.uleb128 0xb
 1333 003b 49       		.uleb128 0x49
 1334 003c 13       		.uleb128 0x13
 1335 003d 00       		.byte	0
 1336 003e 00       		.byte	0
 1337 003f 06       		.uleb128 0x6
 1338 0040 13       		.uleb128 0x13
 1339 0041 00       		.byte	0
 1340 0042 03       		.uleb128 0x3
 1341 0043 0E       		.uleb128 0xe
 1342 0044 3C       		.uleb128 0x3c
 1343 0045 19       		.uleb128 0x19
 1344 0046 00       		.byte	0
 1345 0047 00       		.byte	0
 1346 0048 07       		.uleb128 0x7
 1347 0049 16       		.uleb128 0x16
 1348 004a 00       		.byte	0
 1349 004b 03       		.uleb128 0x3
 1350 004c 0E       		.uleb128 0xe
 1351 004d 3A       		.uleb128 0x3a
 1352 004e 0B       		.uleb128 0xb
 1353 004f 3B       		.uleb128 0x3b
 1354 0050 05       		.uleb128 0x5
 1355 0051 49       		.uleb128 0x49
 1356 0052 13       		.uleb128 0x13
 1357 0053 00       		.byte	0
 1358 0054 00       		.byte	0
 1359 0055 08       		.uleb128 0x8
 1360 0056 17       		.uleb128 0x17
 1361 0057 01       		.byte	0x1
 1362 0058 0B       		.uleb128 0xb
 1363 0059 0B       		.uleb128 0xb
 1364 005a 3A       		.uleb128 0x3a
 1365 005b 0B       		.uleb128 0xb
 1366 005c 3B       		.uleb128 0x3b
 1367 005d 0B       		.uleb128 0xb
 1368 005e 01       		.uleb128 0x1
ARM GAS  C:\Users\pierr\AppData\Local\Temp\ccqUrzo0.s 			page 25


 1369 005f 13       		.uleb128 0x13
 1370 0060 00       		.byte	0
 1371 0061 00       		.byte	0
 1372 0062 09       		.uleb128 0x9
 1373 0063 0D       		.uleb128 0xd
 1374 0064 00       		.byte	0
 1375 0065 03       		.uleb128 0x3
 1376 0066 0E       		.uleb128 0xe
 1377 0067 3A       		.uleb128 0x3a
 1378 0068 0B       		.uleb128 0xb
 1379 0069 3B       		.uleb128 0x3b
 1380 006a 0B       		.uleb128 0xb
 1381 006b 49       		.uleb128 0x49
 1382 006c 13       		.uleb128 0x13
 1383 006d 00       		.byte	0
 1384 006e 00       		.byte	0
 1385 006f 0A       		.uleb128 0xa
 1386 0070 01       		.uleb128 0x1
 1387 0071 01       		.byte	0x1
 1388 0072 49       		.uleb128 0x49
 1389 0073 13       		.uleb128 0x13
 1390 0074 01       		.uleb128 0x1
 1391 0075 13       		.uleb128 0x13
 1392 0076 00       		.byte	0
 1393 0077 00       		.byte	0
 1394 0078 0B       		.uleb128 0xb
 1395 0079 21       		.uleb128 0x21
 1396 007a 00       		.byte	0
 1397 007b 49       		.uleb128 0x49
 1398 007c 13       		.uleb128 0x13
 1399 007d 2F       		.uleb128 0x2f
 1400 007e 0B       		.uleb128 0xb
 1401 007f 00       		.byte	0
 1402 0080 00       		.byte	0
 1403 0081 0C       		.uleb128 0xc
 1404 0082 13       		.uleb128 0x13
 1405 0083 01       		.byte	0x1
 1406 0084 0B       		.uleb128 0xb
 1407 0085 0B       		.uleb128 0xb
 1408 0086 3A       		.uleb128 0x3a
 1409 0087 0B       		.uleb128 0xb
 1410 0088 3B       		.uleb128 0x3b
 1411 0089 0B       		.uleb128 0xb
 1412 008a 01       		.uleb128 0x1
 1413 008b 13       		.uleb128 0x13
 1414 008c 00       		.byte	0
 1415 008d 00       		.byte	0
 1416 008e 0D       		.uleb128 0xd
 1417 008f 0D       		.uleb128 0xd
 1418 0090 00       		.byte	0
 1419 0091 03       		.uleb128 0x3
 1420 0092 0E       		.uleb128 0xe
 1421 0093 3A       		.uleb128 0x3a
 1422 0094 0B       		.uleb128 0xb
 1423 0095 3B       		.uleb128 0x3b
 1424 0096 0B       		.uleb128 0xb
 1425 0097 49       		.uleb128 0x49
ARM GAS  C:\Users\pierr\AppData\Local\Temp\ccqUrzo0.s 			page 26


 1426 0098 13       		.uleb128 0x13
 1427 0099 38       		.uleb128 0x38
 1428 009a 0B       		.uleb128 0xb
 1429 009b 00       		.byte	0
 1430 009c 00       		.byte	0
 1431 009d 0E       		.uleb128 0xe
 1432 009e 0F       		.uleb128 0xf
 1433 009f 00       		.byte	0
 1434 00a0 0B       		.uleb128 0xb
 1435 00a1 0B       		.uleb128 0xb
 1436 00a2 00       		.byte	0
 1437 00a3 00       		.byte	0
 1438 00a4 0F       		.uleb128 0xf
 1439 00a5 26       		.uleb128 0x26
 1440 00a6 00       		.byte	0
 1441 00a7 49       		.uleb128 0x49
 1442 00a8 13       		.uleb128 0x13
 1443 00a9 00       		.byte	0
 1444 00aa 00       		.byte	0
 1445 00ab 10       		.uleb128 0x10
 1446 00ac 13       		.uleb128 0x13
 1447 00ad 01       		.byte	0x1
 1448 00ae 03       		.uleb128 0x3
 1449 00af 0E       		.uleb128 0xe
 1450 00b0 0B       		.uleb128 0xb
 1451 00b1 0B       		.uleb128 0xb
 1452 00b2 3A       		.uleb128 0x3a
 1453 00b3 0B       		.uleb128 0xb
 1454 00b4 3B       		.uleb128 0x3b
 1455 00b5 0B       		.uleb128 0xb
 1456 00b6 01       		.uleb128 0x1
 1457 00b7 13       		.uleb128 0x13
 1458 00b8 00       		.byte	0
 1459 00b9 00       		.byte	0
 1460 00ba 11       		.uleb128 0x11
 1461 00bb 0D       		.uleb128 0xd
 1462 00bc 00       		.byte	0
 1463 00bd 03       		.uleb128 0x3
 1464 00be 08       		.uleb128 0x8
 1465 00bf 3A       		.uleb128 0x3a
 1466 00c0 0B       		.uleb128 0xb
 1467 00c1 3B       		.uleb128 0x3b
 1468 00c2 0B       		.uleb128 0xb
 1469 00c3 49       		.uleb128 0x49
 1470 00c4 13       		.uleb128 0x13
 1471 00c5 38       		.uleb128 0x38
 1472 00c6 0B       		.uleb128 0xb
 1473 00c7 00       		.byte	0
 1474 00c8 00       		.byte	0
 1475 00c9 12       		.uleb128 0x12
 1476 00ca 13       		.uleb128 0x13
 1477 00cb 01       		.byte	0x1
 1478 00cc 03       		.uleb128 0x3
 1479 00cd 0E       		.uleb128 0xe
 1480 00ce 0B       		.uleb128 0xb
 1481 00cf 05       		.uleb128 0x5
 1482 00d0 3A       		.uleb128 0x3a
ARM GAS  C:\Users\pierr\AppData\Local\Temp\ccqUrzo0.s 			page 27


 1483 00d1 0B       		.uleb128 0xb
 1484 00d2 3B       		.uleb128 0x3b
 1485 00d3 0B       		.uleb128 0xb
 1486 00d4 01       		.uleb128 0x1
 1487 00d5 13       		.uleb128 0x13
 1488 00d6 00       		.byte	0
 1489 00d7 00       		.byte	0
 1490 00d8 13       		.uleb128 0x13
 1491 00d9 0D       		.uleb128 0xd
 1492 00da 00       		.byte	0
 1493 00db 03       		.uleb128 0x3
 1494 00dc 0E       		.uleb128 0xe
 1495 00dd 3A       		.uleb128 0x3a
 1496 00de 0B       		.uleb128 0xb
 1497 00df 3B       		.uleb128 0x3b
 1498 00e0 0B       		.uleb128 0xb
 1499 00e1 49       		.uleb128 0x49
 1500 00e2 13       		.uleb128 0x13
 1501 00e3 38       		.uleb128 0x38
 1502 00e4 05       		.uleb128 0x5
 1503 00e5 00       		.byte	0
 1504 00e6 00       		.byte	0
 1505 00e7 14       		.uleb128 0x14
 1506 00e8 15       		.uleb128 0x15
 1507 00e9 00       		.byte	0
 1508 00ea 27       		.uleb128 0x27
 1509 00eb 19       		.uleb128 0x19
 1510 00ec 00       		.byte	0
 1511 00ed 00       		.byte	0
 1512 00ee 15       		.uleb128 0x15
 1513 00ef 15       		.uleb128 0x15
 1514 00f0 01       		.byte	0x1
 1515 00f1 27       		.uleb128 0x27
 1516 00f2 19       		.uleb128 0x19
 1517 00f3 49       		.uleb128 0x49
 1518 00f4 13       		.uleb128 0x13
 1519 00f5 01       		.uleb128 0x1
 1520 00f6 13       		.uleb128 0x13
 1521 00f7 00       		.byte	0
 1522 00f8 00       		.byte	0
 1523 00f9 16       		.uleb128 0x16
 1524 00fa 05       		.uleb128 0x5
 1525 00fb 00       		.byte	0
 1526 00fc 49       		.uleb128 0x49
 1527 00fd 13       		.uleb128 0x13
 1528 00fe 00       		.byte	0
 1529 00ff 00       		.byte	0
 1530 0100 17       		.uleb128 0x17
 1531 0101 13       		.uleb128 0x13
 1532 0102 01       		.byte	0x1
 1533 0103 03       		.uleb128 0x3
 1534 0104 0E       		.uleb128 0xe
 1535 0105 0B       		.uleb128 0xb
 1536 0106 05       		.uleb128 0x5
 1537 0107 3A       		.uleb128 0x3a
 1538 0108 0B       		.uleb128 0xb
 1539 0109 3B       		.uleb128 0x3b
ARM GAS  C:\Users\pierr\AppData\Local\Temp\ccqUrzo0.s 			page 28


 1540 010a 05       		.uleb128 0x5
 1541 010b 01       		.uleb128 0x1
 1542 010c 13       		.uleb128 0x13
 1543 010d 00       		.byte	0
 1544 010e 00       		.byte	0
 1545 010f 18       		.uleb128 0x18
 1546 0110 0D       		.uleb128 0xd
 1547 0111 00       		.byte	0
 1548 0112 03       		.uleb128 0x3
 1549 0113 0E       		.uleb128 0xe
 1550 0114 3A       		.uleb128 0x3a
 1551 0115 0B       		.uleb128 0xb
 1552 0116 3B       		.uleb128 0x3b
 1553 0117 05       		.uleb128 0x5
 1554 0118 49       		.uleb128 0x49
 1555 0119 13       		.uleb128 0x13
 1556 011a 38       		.uleb128 0x38
 1557 011b 0B       		.uleb128 0xb
 1558 011c 00       		.byte	0
 1559 011d 00       		.byte	0
 1560 011e 19       		.uleb128 0x19
 1561 011f 0D       		.uleb128 0xd
 1562 0120 00       		.byte	0
 1563 0121 03       		.uleb128 0x3
 1564 0122 0E       		.uleb128 0xe
 1565 0123 3A       		.uleb128 0x3a
 1566 0124 0B       		.uleb128 0xb
 1567 0125 3B       		.uleb128 0x3b
 1568 0126 05       		.uleb128 0x5
 1569 0127 49       		.uleb128 0x49
 1570 0128 13       		.uleb128 0x13
 1571 0129 38       		.uleb128 0x38
 1572 012a 05       		.uleb128 0x5
 1573 012b 00       		.byte	0
 1574 012c 00       		.byte	0
 1575 012d 1A       		.uleb128 0x1a
 1576 012e 13       		.uleb128 0x13
 1577 012f 01       		.byte	0x1
 1578 0130 03       		.uleb128 0x3
 1579 0131 0E       		.uleb128 0xe
 1580 0132 0B       		.uleb128 0xb
 1581 0133 0B       		.uleb128 0xb
 1582 0134 3A       		.uleb128 0x3a
 1583 0135 0B       		.uleb128 0xb
 1584 0136 3B       		.uleb128 0x3b
 1585 0137 05       		.uleb128 0x5
 1586 0138 01       		.uleb128 0x1
 1587 0139 13       		.uleb128 0x13
 1588 013a 00       		.byte	0
 1589 013b 00       		.byte	0
 1590 013c 1B       		.uleb128 0x1b
 1591 013d 13       		.uleb128 0x13
 1592 013e 01       		.byte	0x1
 1593 013f 0B       		.uleb128 0xb
 1594 0140 0B       		.uleb128 0xb
 1595 0141 3A       		.uleb128 0x3a
 1596 0142 0B       		.uleb128 0xb
ARM GAS  C:\Users\pierr\AppData\Local\Temp\ccqUrzo0.s 			page 29


 1597 0143 3B       		.uleb128 0x3b
 1598 0144 05       		.uleb128 0x5
 1599 0145 01       		.uleb128 0x1
 1600 0146 13       		.uleb128 0x13
 1601 0147 00       		.byte	0
 1602 0148 00       		.byte	0
 1603 0149 1C       		.uleb128 0x1c
 1604 014a 17       		.uleb128 0x17
 1605 014b 01       		.byte	0x1
 1606 014c 0B       		.uleb128 0xb
 1607 014d 0B       		.uleb128 0xb
 1608 014e 3A       		.uleb128 0x3a
 1609 014f 0B       		.uleb128 0xb
 1610 0150 3B       		.uleb128 0x3b
 1611 0151 05       		.uleb128 0x5
 1612 0152 01       		.uleb128 0x1
 1613 0153 13       		.uleb128 0x13
 1614 0154 00       		.byte	0
 1615 0155 00       		.byte	0
 1616 0156 1D       		.uleb128 0x1d
 1617 0157 0D       		.uleb128 0xd
 1618 0158 00       		.byte	0
 1619 0159 03       		.uleb128 0x3
 1620 015a 0E       		.uleb128 0xe
 1621 015b 3A       		.uleb128 0x3a
 1622 015c 0B       		.uleb128 0xb
 1623 015d 3B       		.uleb128 0x3b
 1624 015e 05       		.uleb128 0x5
 1625 015f 49       		.uleb128 0x49
 1626 0160 13       		.uleb128 0x13
 1627 0161 00       		.byte	0
 1628 0162 00       		.byte	0
 1629 0163 1E       		.uleb128 0x1e
 1630 0164 15       		.uleb128 0x15
 1631 0165 01       		.byte	0x1
 1632 0166 27       		.uleb128 0x27
 1633 0167 19       		.uleb128 0x19
 1634 0168 01       		.uleb128 0x1
 1635 0169 13       		.uleb128 0x13
 1636 016a 00       		.byte	0
 1637 016b 00       		.byte	0
 1638 016c 1F       		.uleb128 0x1f
 1639 016d 34       		.uleb128 0x34
 1640 016e 00       		.byte	0
 1641 016f 03       		.uleb128 0x3
 1642 0170 0E       		.uleb128 0xe
 1643 0171 3A       		.uleb128 0x3a
 1644 0172 0B       		.uleb128 0xb
 1645 0173 3B       		.uleb128 0x3b
 1646 0174 05       		.uleb128 0x5
 1647 0175 49       		.uleb128 0x49
 1648 0176 13       		.uleb128 0x13
 1649 0177 3F       		.uleb128 0x3f
 1650 0178 19       		.uleb128 0x19
 1651 0179 3C       		.uleb128 0x3c
 1652 017a 19       		.uleb128 0x19
 1653 017b 00       		.byte	0
ARM GAS  C:\Users\pierr\AppData\Local\Temp\ccqUrzo0.s 			page 30


 1654 017c 00       		.byte	0
 1655 017d 20       		.uleb128 0x20
 1656 017e 26       		.uleb128 0x26
 1657 017f 00       		.byte	0
 1658 0180 00       		.byte	0
 1659 0181 00       		.byte	0
 1660 0182 21       		.uleb128 0x21
 1661 0183 34       		.uleb128 0x34
 1662 0184 00       		.byte	0
 1663 0185 03       		.uleb128 0x3
 1664 0186 0E       		.uleb128 0xe
 1665 0187 3A       		.uleb128 0x3a
 1666 0188 0B       		.uleb128 0xb
 1667 0189 3B       		.uleb128 0x3b
 1668 018a 0B       		.uleb128 0xb
 1669 018b 49       		.uleb128 0x49
 1670 018c 13       		.uleb128 0x13
 1671 018d 3F       		.uleb128 0x3f
 1672 018e 19       		.uleb128 0x19
 1673 018f 3C       		.uleb128 0x3c
 1674 0190 19       		.uleb128 0x19
 1675 0191 00       		.byte	0
 1676 0192 00       		.byte	0
 1677 0193 22       		.uleb128 0x22
 1678 0194 2E       		.uleb128 0x2e
 1679 0195 01       		.byte	0x1
 1680 0196 3F       		.uleb128 0x3f
 1681 0197 19       		.uleb128 0x19
 1682 0198 03       		.uleb128 0x3
 1683 0199 0E       		.uleb128 0xe
 1684 019a 3A       		.uleb128 0x3a
 1685 019b 0B       		.uleb128 0xb
 1686 019c 3B       		.uleb128 0x3b
 1687 019d 0B       		.uleb128 0xb
 1688 019e 27       		.uleb128 0x27
 1689 019f 19       		.uleb128 0x19
 1690 01a0 49       		.uleb128 0x49
 1691 01a1 13       		.uleb128 0x13
 1692 01a2 11       		.uleb128 0x11
 1693 01a3 01       		.uleb128 0x1
 1694 01a4 12       		.uleb128 0x12
 1695 01a5 06       		.uleb128 0x6
 1696 01a6 40       		.uleb128 0x40
 1697 01a7 18       		.uleb128 0x18
 1698 01a8 9742     		.uleb128 0x2117
 1699 01aa 19       		.uleb128 0x19
 1700 01ab 01       		.uleb128 0x1
 1701 01ac 13       		.uleb128 0x13
 1702 01ad 00       		.byte	0
 1703 01ae 00       		.byte	0
 1704 01af 23       		.uleb128 0x23
 1705 01b0 05       		.uleb128 0x5
 1706 01b1 00       		.byte	0
 1707 01b2 03       		.uleb128 0x3
 1708 01b3 0E       		.uleb128 0xe
 1709 01b4 3A       		.uleb128 0x3a
 1710 01b5 0B       		.uleb128 0xb
ARM GAS  C:\Users\pierr\AppData\Local\Temp\ccqUrzo0.s 			page 31


 1711 01b6 3B       		.uleb128 0x3b
 1712 01b7 0B       		.uleb128 0xb
 1713 01b8 49       		.uleb128 0x49
 1714 01b9 13       		.uleb128 0x13
 1715 01ba 02       		.uleb128 0x2
 1716 01bb 17       		.uleb128 0x17
 1717 01bc 00       		.byte	0
 1718 01bd 00       		.byte	0
 1719 01be 24       		.uleb128 0x24
 1720 01bf 34       		.uleb128 0x34
 1721 01c0 00       		.byte	0
 1722 01c1 03       		.uleb128 0x3
 1723 01c2 08       		.uleb128 0x8
 1724 01c3 3A       		.uleb128 0x3a
 1725 01c4 0B       		.uleb128 0xb
 1726 01c5 3B       		.uleb128 0x3b
 1727 01c6 0B       		.uleb128 0xb
 1728 01c7 49       		.uleb128 0x49
 1729 01c8 13       		.uleb128 0x13
 1730 01c9 02       		.uleb128 0x2
 1731 01ca 17       		.uleb128 0x17
 1732 01cb 00       		.byte	0
 1733 01cc 00       		.byte	0
 1734 01cd 25       		.uleb128 0x25
 1735 01ce 0B       		.uleb128 0xb
 1736 01cf 01       		.byte	0x1
 1737 01d0 11       		.uleb128 0x11
 1738 01d1 01       		.uleb128 0x1
 1739 01d2 12       		.uleb128 0x12
 1740 01d3 06       		.uleb128 0x6
 1741 01d4 01       		.uleb128 0x1
 1742 01d5 13       		.uleb128 0x13
 1743 01d6 00       		.byte	0
 1744 01d7 00       		.byte	0
 1745 01d8 26       		.uleb128 0x26
 1746 01d9 898201   		.uleb128 0x4109
 1747 01dc 00       		.byte	0
 1748 01dd 11       		.uleb128 0x11
 1749 01de 01       		.uleb128 0x1
 1750 01df 31       		.uleb128 0x31
 1751 01e0 13       		.uleb128 0x13
 1752 01e1 00       		.byte	0
 1753 01e2 00       		.byte	0
 1754 01e3 27       		.uleb128 0x27
 1755 01e4 2E       		.uleb128 0x2e
 1756 01e5 00       		.byte	0
 1757 01e6 3F       		.uleb128 0x3f
 1758 01e7 19       		.uleb128 0x19
 1759 01e8 3C       		.uleb128 0x3c
 1760 01e9 19       		.uleb128 0x19
 1761 01ea 6E       		.uleb128 0x6e
 1762 01eb 0E       		.uleb128 0xe
 1763 01ec 03       		.uleb128 0x3
 1764 01ed 0E       		.uleb128 0xe
 1765 01ee 00       		.byte	0
 1766 01ef 00       		.byte	0
 1767 01f0 00       		.byte	0
ARM GAS  C:\Users\pierr\AppData\Local\Temp\ccqUrzo0.s 			page 32


 1768              		.section	.debug_loc,"",%progbits
 1769              	.Ldebug_loc0:
 1770              	.LLST0:
 1771 0000 00000000 		.4byte	.LVL0
 1772 0004 0C000000 		.4byte	.LVL2
 1773 0008 0100     		.2byte	0x1
 1774 000a 50       		.byte	0x50
 1775 000b 0C000000 		.4byte	.LVL2
 1776 000f 16000000 		.4byte	.LVL4
 1777 0013 0400     		.2byte	0x4
 1778 0015 70       		.byte	0x70
 1779 0016 00       		.sleb128 0
 1780 0017 20       		.byte	0x20
 1781 0018 9F       		.byte	0x9f
 1782 0019 16000000 		.4byte	.LVL4
 1783 001d 58000000 		.4byte	.LFE0
 1784 0021 0400     		.2byte	0x4
 1785 0023 F3       		.byte	0xf3
 1786 0024 01       		.uleb128 0x1
 1787 0025 50       		.byte	0x50
 1788 0026 9F       		.byte	0x9f
 1789 0027 00000000 		.4byte	0
 1790 002b 00000000 		.4byte	0
 1791              	.LLST1:
 1792 002f 00000000 		.4byte	.LVL0
 1793 0033 16000000 		.4byte	.LVL4
 1794 0037 0100     		.2byte	0x1
 1795 0039 51       		.byte	0x51
 1796 003a 16000000 		.4byte	.LVL4
 1797 003e 58000000 		.4byte	.LFE0
 1798 0042 0400     		.2byte	0x4
 1799 0044 F3       		.byte	0xf3
 1800 0045 01       		.uleb128 0x1
 1801 0046 51       		.byte	0x51
 1802 0047 9F       		.byte	0x9f
 1803 0048 00000000 		.4byte	0
 1804 004c 00000000 		.4byte	0
 1805              	.LLST2:
 1806 0050 00000000 		.4byte	.LVL0
 1807 0054 10000000 		.4byte	.LVL3
 1808 0058 0100     		.2byte	0x1
 1809 005a 52       		.byte	0x52
 1810 005b 10000000 		.4byte	.LVL3
 1811 005f 16000000 		.4byte	.LVL4
 1812 0063 0300     		.2byte	0x3
 1813 0065 72       		.byte	0x72
 1814 0066 01       		.sleb128 1
 1815 0067 9F       		.byte	0x9f
 1816 0068 16000000 		.4byte	.LVL4
 1817 006c 58000000 		.4byte	.LFE0
 1818 0070 0400     		.2byte	0x4
 1819 0072 F3       		.byte	0xf3
 1820 0073 01       		.uleb128 0x1
 1821 0074 52       		.byte	0x52
 1822 0075 9F       		.byte	0x9f
 1823 0076 00000000 		.4byte	0
 1824 007a 00000000 		.4byte	0
ARM GAS  C:\Users\pierr\AppData\Local\Temp\ccqUrzo0.s 			page 33


 1825              	.LLST3:
 1826 007e 0A000000 		.4byte	.LVL1
 1827 0082 16000000 		.4byte	.LVL4
 1828 0086 0100     		.2byte	0x1
 1829 0088 51       		.byte	0x51
 1830 0089 16000000 		.4byte	.LVL4
 1831 008d 58000000 		.4byte	.LFE0
 1832 0091 0400     		.2byte	0x4
 1833 0093 F3       		.byte	0xf3
 1834 0094 01       		.uleb128 0x1
 1835 0095 51       		.byte	0x51
 1836 0096 9F       		.byte	0x9f
 1837 0097 00000000 		.4byte	0
 1838 009b 00000000 		.4byte	0
 1839              	.LLST4:
 1840 009f 0C000000 		.4byte	.LVL2
 1841 00a3 2A000000 		.4byte	.LVL7
 1842 00a7 0100     		.2byte	0x1
 1843 00a9 50       		.byte	0x50
 1844 00aa 32000000 		.4byte	.LVL9
 1845 00ae 44000000 		.4byte	.LVL12
 1846 00b2 0100     		.2byte	0x1
 1847 00b4 50       		.byte	0x50
 1848 00b5 44000000 		.4byte	.LVL12
 1849 00b9 4D000000 		.4byte	.LVL13-1
 1850 00bd 0400     		.2byte	0x4
 1851 00bf 70       		.byte	0x70
 1852 00c0 00       		.sleb128 0
 1853 00c1 20       		.byte	0x20
 1854 00c2 9F       		.byte	0x9f
 1855 00c3 00000000 		.4byte	0
 1856 00c7 00000000 		.4byte	0
 1857              	.LLST5:
 1858 00cb 0C000000 		.4byte	.LVL2
 1859 00cf 16000000 		.4byte	.LVL4
 1860 00d3 0200     		.2byte	0x2
 1861 00d5 30       		.byte	0x30
 1862 00d6 9F       		.byte	0x9f
 1863 00d7 16000000 		.4byte	.LVL4
 1864 00db 1A000000 		.4byte	.LVL5
 1865 00df 0900     		.2byte	0x9
 1866 00e1 75       		.byte	0x75
 1867 00e2 00       		.sleb128 0
 1868 00e3 F3       		.byte	0xf3
 1869 00e4 01       		.uleb128 0x1
 1870 00e5 51       		.byte	0x51
 1871 00e6 1C       		.byte	0x1c
 1872 00e7 23       		.byte	0x23
 1873 00e8 01       		.uleb128 0x1
 1874 00e9 9F       		.byte	0x9f
 1875 00ea 1A000000 		.4byte	.LVL5
 1876 00ee 36000000 		.4byte	.LVL10
 1877 00f2 0700     		.2byte	0x7
 1878 00f4 75       		.byte	0x75
 1879 00f5 00       		.sleb128 0
 1880 00f6 F3       		.byte	0xf3
 1881 00f7 01       		.uleb128 0x1
ARM GAS  C:\Users\pierr\AppData\Local\Temp\ccqUrzo0.s 			page 34


 1882 00f8 51       		.byte	0x51
 1883 00f9 1C       		.byte	0x1c
 1884 00fa 9F       		.byte	0x9f
 1885 00fb 36000000 		.4byte	.LVL10
 1886 00ff 3A000000 		.4byte	.LVL11
 1887 0103 0900     		.2byte	0x9
 1888 0105 75       		.byte	0x75
 1889 0106 00       		.sleb128 0
 1890 0107 F3       		.byte	0xf3
 1891 0108 01       		.uleb128 0x1
 1892 0109 51       		.byte	0x51
 1893 010a 1C       		.byte	0x1c
 1894 010b 23       		.byte	0x23
 1895 010c 01       		.uleb128 0x1
 1896 010d 9F       		.byte	0x9f
 1897 010e 00000000 		.4byte	0
 1898 0112 00000000 		.4byte	0
 1899              	.LLST6:
 1900 0116 1C000000 		.4byte	.LVL6
 1901 011a 2E000000 		.4byte	.LVL8
 1902 011e 0100     		.2byte	0x1
 1903 0120 53       		.byte	0x53
 1904 0121 2E000000 		.4byte	.LVL8
 1905 0125 32000000 		.4byte	.LVL9
 1906 0129 0300     		.2byte	0x3
 1907 012b 73       		.byte	0x73
 1908 012c 7F       		.sleb128 -1
 1909 012d 9F       		.byte	0x9f
 1910 012e 32000000 		.4byte	.LVL9
 1911 0132 3A000000 		.4byte	.LVL11
 1912 0136 0100     		.2byte	0x1
 1913 0138 53       		.byte	0x53
 1914 0139 00000000 		.4byte	0
 1915 013d 00000000 		.4byte	0
 1916              		.section	.debug_aranges,"",%progbits
 1917 0000 1C000000 		.4byte	0x1c
 1918 0004 0200     		.2byte	0x2
 1919 0006 00000000 		.4byte	.Ldebug_info0
 1920 000a 04       		.byte	0x4
 1921 000b 00       		.byte	0
 1922 000c 0000     		.2byte	0
 1923 000e 0000     		.2byte	0
 1924 0010 00000000 		.4byte	.LFB0
 1925 0014 58000000 		.4byte	.LFE0-.LFB0
 1926 0018 00000000 		.4byte	0
 1927 001c 00000000 		.4byte	0
 1928              		.section	.debug_ranges,"",%progbits
 1929              	.Ldebug_ranges0:
 1930 0000 00000000 		.4byte	.LFB0
 1931 0004 58000000 		.4byte	.LFE0
 1932 0008 00000000 		.4byte	0
 1933 000c 00000000 		.4byte	0
 1934              		.section	.debug_line,"",%progbits
 1935              	.Ldebug_line0:
 1936 0000 C4020000 		.section	.debug_str,"MS",%progbits,1
 1936      02009F02 
 1936      00000201 
ARM GAS  C:\Users\pierr\AppData\Local\Temp\ccqUrzo0.s 			page 35


 1936      FB0E0D00 
 1936      01010101 
 1937              	.LASF44:
 1938 0000 5F64736F 		.ascii	"_dso_handle\000"
 1938      5F68616E 
 1938      646C6500 
 1939              	.LASF52:
 1940 000c 5F73697A 		.ascii	"_size\000"
 1940      6500
 1941              	.LASF13:
 1942 0012 73697A65 		.ascii	"size_t\000"
 1942      5F7400
 1943              	.LASF133:
 1944 0019 63726333 		.ascii	"crc32\000"
 1944      3200
 1945              	.LASF96:
 1946 001f 5F72616E 		.ascii	"_rand48\000"
 1946      64343800 
 1947              	.LASF76:
 1948 0027 5F656D65 		.ascii	"_emergency\000"
 1948      7267656E 
 1948      637900
 1949              	.LASF5:
 1950 0032 5F5F7569 		.ascii	"__uint8_t\000"
 1950      6E74385F 
 1950      7400
 1951              	.LASF112:
 1952 003c 5F676574 		.ascii	"_getdate_err\000"
 1952      64617465 
 1952      5F657272 
 1952      00
 1953              	.LASF66:
 1954 0049 5F646174 		.ascii	"_data\000"
 1954      6100
 1955              	.LASF127:
 1956 004f 696E6974 		.ascii	"init\000"
 1956      00
 1957              	.LASF116:
 1958 0054 5F776372 		.ascii	"_wcrtomb_state\000"
 1958      746F6D62 
 1958      5F737461 
 1958      746500
 1959              	.LASF117:
 1960 0063 5F776373 		.ascii	"_wcsrtombs_state\000"
 1960      72746F6D 
 1960      62735F73 
 1960      74617465 
 1960      00
 1961              	.LASF9:
 1962 0074 6C6F6E67 		.ascii	"long long unsigned int\000"
 1962      206C6F6E 
 1962      6720756E 
 1962      7369676E 
 1962      65642069 
 1963              	.LASF56:
 1964 008b 5F6C6266 		.ascii	"_lbfsize\000"
 1964      73697A65 
ARM GAS  C:\Users\pierr\AppData\Local\Temp\ccqUrzo0.s 			page 36


 1964      00
 1965              	.LASF123:
 1966 0094 5F5F6C6F 		.ascii	"__locale_t\000"
 1966      63616C65 
 1966      5F7400
 1967              	.LASF114:
 1968 009f 5F6D6272 		.ascii	"_mbrtowc_state\000"
 1968      746F7763 
 1968      5F737461 
 1968      746500
 1969              	.LASF33:
 1970 00ae 5F5F746D 		.ascii	"__tm_sec\000"
 1970      5F736563 
 1970      00
 1971              	.LASF8:
 1972 00b7 6C6F6E67 		.ascii	"long long int\000"
 1972      206C6F6E 
 1972      6720696E 
 1972      7400
 1973              	.LASF0:
 1974 00c5 7369676E 		.ascii	"signed char\000"
 1974      65642063 
 1974      68617200 
 1975              	.LASF62:
 1976 00d1 5F756275 		.ascii	"_ubuf\000"
 1976      6600
 1977              	.LASF51:
 1978 00d7 5F626173 		.ascii	"_base\000"
 1978      6500
 1979              	.LASF35:
 1980 00dd 5F5F746D 		.ascii	"__tm_hour\000"
 1980      5F686F75 
 1980      7200
 1981              	.LASF91:
 1982 00e7 5F5F7366 		.ascii	"__sf\000"
 1982      00
 1983              	.LASF42:
 1984 00ec 5F6F6E5F 		.ascii	"_on_exit_args\000"
 1984      65786974 
 1984      5F617267 
 1984      7300
 1985              	.LASF57:
 1986 00fa 5F636F6F 		.ascii	"_cookie\000"
 1986      6B696500 
 1987              	.LASF90:
 1988 0102 5F5F7367 		.ascii	"__sglue\000"
 1988      6C756500 
 1989              	.LASF4:
 1990 010a 6C6F6E67 		.ascii	"long int\000"
 1990      20696E74 
 1990      00
 1991              	.LASF54:
 1992 0113 5F666C61 		.ascii	"_flags\000"
 1992      677300
 1993              	.LASF46:
 1994 011a 5F69735F 		.ascii	"_is_cxa\000"
 1994      63786100 
ARM GAS  C:\Users\pierr\AppData\Local\Temp\ccqUrzo0.s 			page 37


 1995              	.LASF72:
 1996 0122 5F737464 		.ascii	"_stdin\000"
 1996      696E00
 1997              	.LASF131:
 1998 0129 2E2E2F2E 		.ascii	"../../lib/e-puck2_main-processor/src/crc/crc32.c\000"
 1998      2E2F6C69 
 1998      622F652D 
 1998      7075636B 
 1998      325F6D61 
 1999              	.LASF86:
 2000 015a 5F637674 		.ascii	"_cvtbuf\000"
 2000      62756600 
 2001              	.LASF65:
 2002 0162 5F6F6666 		.ascii	"_offset\000"
 2002      73657400 
 2003              	.LASF115:
 2004 016a 5F6D6273 		.ascii	"_mbsrtowcs_state\000"
 2004      72746F77 
 2004      63735F73 
 2004      74617465 
 2004      00
 2005              	.LASF113:
 2006 017b 5F6D6272 		.ascii	"_mbrlen_state\000"
 2006      6C656E5F 
 2006      73746174 
 2006      6500
 2007              	.LASF43:
 2008 0189 5F666E61 		.ascii	"_fnargs\000"
 2008      72677300 
 2009              	.LASF49:
 2010 0191 5F666E73 		.ascii	"_fns\000"
 2010      00
 2011              	.LASF6:
 2012 0196 5F5F7569 		.ascii	"__uint32_t\000"
 2012      6E743332 
 2012      5F7400
 2013              	.LASF29:
 2014 01a1 5F736967 		.ascii	"_sign\000"
 2014      6E00
 2015              	.LASF24:
 2016 01a7 5F666C6F 		.ascii	"_flock_t\000"
 2016      636B5F74 
 2016      00
 2017              	.LASF74:
 2018 01b0 5F737464 		.ascii	"_stderr\000"
 2018      65727200 
 2019              	.LASF31:
 2020 01b8 5F426967 		.ascii	"_Bigint\000"
 2020      696E7400 
 2021              	.LASF104:
 2022 01c0 5F67616D 		.ascii	"_gamma_signgam\000"
 2022      6D615F73 
 2022      69676E67 
 2022      616D00
 2023              	.LASF58:
 2024 01cf 5F726561 		.ascii	"_read\000"
 2024      6400
ARM GAS  C:\Users\pierr\AppData\Local\Temp\ccqUrzo0.s 			page 38


 2025              	.LASF82:
 2026 01d5 5F726573 		.ascii	"_result_k\000"
 2026      756C745F 
 2026      6B00
 2027              	.LASF32:
 2028 01df 5F5F746D 		.ascii	"__tm\000"
 2028      00
 2029              	.LASF10:
 2030 01e4 756E7369 		.ascii	"unsigned int\000"
 2030      676E6564 
 2030      20696E74 
 2030      00
 2031              	.LASF130:
 2032 01f1 474E5520 		.ascii	"GNU C11 7.2.1 20170904 (release) [ARM/embedded-7-br"
 2032      43313120 
 2032      372E322E 
 2032      31203230 
 2032      31373039 
 2033 0224 616E6368 		.ascii	"anch revision 255204] -mcpu=cortex-m4 -mfloat-abi=h"
 2033      20726576 
 2033      6973696F 
 2033      6E203235 
 2033      35323034 
 2034 0257 61726420 		.ascii	"ard -mfpu=fpv4-sp-d16 -mno-thumb-interwork -mthumb "
 2034      2D6D6670 
 2034      753D6670 
 2034      76342D73 
 2034      702D6431 
 2035 028a 2D676764 		.ascii	"-ggdb -O2 -fomit-frame-pointer -falign-functions=16"
 2035      62202D4F 
 2035      32202D66 
 2035      6F6D6974 
 2035      2D667261 
 2036 02bd 202D666E 		.ascii	" -fno-strict-aliasing -fstack-protector-all -ffunct"
 2036      6F2D7374 
 2036      72696374 
 2036      2D616C69 
 2036      6173696E 
 2037 02f0 696F6E2D 		.ascii	"ion-sections -fdata-sections -fno-common -fsingle-p"
 2037      73656374 
 2037      696F6E73 
 2037      202D6664 
 2037      6174612D 
 2038 0323 72656369 		.ascii	"recision-constant\000"
 2038      73696F6E 
 2038      2D636F6E 
 2038      7374616E 
 2038      7400
 2039              	.LASF20:
 2040 0335 5F5F7763 		.ascii	"__wchb\000"
 2040      686200
 2041              	.LASF73:
 2042 033c 5F737464 		.ascii	"_stdout\000"
 2042      6F757400 
 2043              	.LASF85:
 2044 0344 5F637674 		.ascii	"_cvtlen\000"
 2044      6C656E00 
ARM GAS  C:\Users\pierr\AppData\Local\Temp\ccqUrzo0.s 			page 39


 2045              	.LASF7:
 2046 034c 6C6F6E67 		.ascii	"long unsigned int\000"
 2046      20756E73 
 2046      69676E65 
 2046      6420696E 
 2046      7400
 2047              	.LASF55:
 2048 035e 5F66696C 		.ascii	"_file\000"
 2048      6500
 2049              	.LASF94:
 2050 0364 5F6E696F 		.ascii	"_niobs\000"
 2050      627300
 2051              	.LASF128:
 2052 036b 64617461 		.ascii	"data\000"
 2052      00
 2053              	.LASF3:
 2054 0370 73686F72 		.ascii	"short unsigned int\000"
 2054      7420756E 
 2054      7369676E 
 2054      65642069 
 2054      6E7400
 2055              	.LASF88:
 2056 0383 5F617465 		.ascii	"_atexit0\000"
 2056      78697430 
 2056      00
 2057              	.LASF111:
 2058 038c 5F736967 		.ascii	"_signal_buf\000"
 2058      6E616C5F 
 2058      62756600 
 2059              	.LASF102:
 2060 0398 5F617363 		.ascii	"_asctime_buf\000"
 2060      74696D65 
 2060      5F627566 
 2060      00
 2061              	.LASF81:
 2062 03a5 5F726573 		.ascii	"_result\000"
 2062      756C7400 
 2063              	.LASF19:
 2064 03ad 5F5F7763 		.ascii	"__wch\000"
 2064      6800
 2065              	.LASF15:
 2066 03b3 5F4C4F43 		.ascii	"_LOCK_T\000"
 2066      4B5F5400 
 2067              	.LASF18:
 2068 03bb 77696E74 		.ascii	"wint_t\000"
 2068      5F7400
 2069              	.LASF67:
 2070 03c2 5F6C6F63 		.ascii	"_lock\000"
 2070      6B00
 2071              	.LASF69:
 2072 03c8 5F666C61 		.ascii	"_flags2\000"
 2072      67733200 
 2073              	.LASF59:
 2074 03d0 5F777269 		.ascii	"_write\000"
 2074      746500
 2075              	.LASF38:
 2076 03d7 5F5F746D 		.ascii	"__tm_year\000"
ARM GAS  C:\Users\pierr\AppData\Local\Temp\ccqUrzo0.s 			page 40


 2076      5F796561 
 2076      7200
 2077              	.LASF120:
 2078 03e1 5F6E6D61 		.ascii	"_nmalloc\000"
 2078      6C6C6F63 
 2078      00
 2079              	.LASF14:
 2080 03ea 6C6F6E67 		.ascii	"long double\000"
 2080      20646F75 
 2080      626C6500 
 2081              	.LASF119:
 2082 03f6 5F6E6578 		.ascii	"_nextf\000"
 2082      746600
 2083              	.LASF37:
 2084 03fd 5F5F746D 		.ascii	"__tm_mon\000"
 2084      5F6D6F6E 
 2084      00
 2085              	.LASF47:
 2086 0406 5F617465 		.ascii	"_atexit\000"
 2086      78697400 
 2087              	.LASF126:
 2088 040e 7375626F 		.ascii	"suboptarg\000"
 2088      70746172 
 2088      6700
 2089              	.LASF79:
 2090 0418 5F5F7364 		.ascii	"__sdidinit\000"
 2090      6964696E 
 2090      697400
 2091              	.LASF16:
 2092 0423 5F6F6666 		.ascii	"_off_t\000"
 2092      5F7400
 2093              	.LASF84:
 2094 042a 5F667265 		.ascii	"_freelist\000"
 2094      656C6973 
 2094      7400
 2095              	.LASF109:
 2096 0434 5F776374 		.ascii	"_wctomb_state\000"
 2096      6F6D625F 
 2096      73746174 
 2096      6500
 2097              	.LASF1:
 2098 0442 756E7369 		.ascii	"unsigned char\000"
 2098      676E6564 
 2098      20636861 
 2098      7200
 2099              	.LASF87:
 2100 0450 5F6E6577 		.ascii	"_new\000"
 2100      00
 2101              	.LASF118:
 2102 0455 5F685F65 		.ascii	"_h_errno\000"
 2102      72726E6F 
 2102      00
 2103              	.LASF2:
 2104 045e 73686F72 		.ascii	"short int\000"
 2104      7420696E 
 2104      7400
 2105              	.LASF40:
ARM GAS  C:\Users\pierr\AppData\Local\Temp\ccqUrzo0.s 			page 41


 2106 0468 5F5F746D 		.ascii	"__tm_yday\000"
 2106      5F796461 
 2106      7900
 2107              	.LASF50:
 2108 0472 5F5F7362 		.ascii	"__sbuf\000"
 2108      756600
 2109              	.LASF95:
 2110 0479 5F696F62 		.ascii	"_iobs\000"
 2110      7300
 2111              	.LASF92:
 2112 047f 5F5F4649 		.ascii	"__FILE\000"
 2112      4C4500
 2113              	.LASF23:
 2114 0486 5F6D6273 		.ascii	"_mbstate_t\000"
 2114      74617465 
 2114      5F7400
 2115              	.LASF53:
 2116 0491 5F5F7346 		.ascii	"__sFILE\000"
 2116      494C4500 
 2117              	.LASF68:
 2118 0499 5F6D6273 		.ascii	"_mbstate\000"
 2118      74617465 
 2118      00
 2119              	.LASF105:
 2120 04a2 5F72616E 		.ascii	"_rand_next\000"
 2120      645F6E65 
 2120      787400
 2121              	.LASF107:
 2122 04ad 5F6D626C 		.ascii	"_mblen_state\000"
 2122      656E5F73 
 2122      74617465 
 2122      00
 2123              	.LASF75:
 2124 04ba 5F696E63 		.ascii	"_inc\000"
 2124      00
 2125              	.LASF48:
 2126 04bf 5F696E64 		.ascii	"_ind\000"
 2126      00
 2127              	.LASF78:
 2128 04c4 5F6C6F63 		.ascii	"_locale\000"
 2128      616C6500 
 2129              	.LASF80:
 2130 04cc 5F5F636C 		.ascii	"__cleanup\000"
 2130      65616E75 
 2130      7000
 2131              	.LASF77:
 2132 04d6 5F756E73 		.ascii	"_unspecified_locale_info\000"
 2132      70656369 
 2132      66696564 
 2132      5F6C6F63 
 2132      616C655F 
 2133              	.LASF134:
 2134 04ef 5F5F7374 		.ascii	"__stack_chk_fail\000"
 2134      61636B5F 
 2134      63686B5F 
 2134      6661696C 
 2134      00
ARM GAS  C:\Users\pierr\AppData\Local\Temp\ccqUrzo0.s 			page 42


 2135              	.LASF28:
 2136 0500 5F6D6178 		.ascii	"_maxwds\000"
 2136      77647300 
 2137              	.LASF70:
 2138 0508 5F726565 		.ascii	"_reent\000"
 2138      6E7400
 2139              	.LASF97:
 2140 050f 5F736565 		.ascii	"_seed\000"
 2140      6400
 2141              	.LASF21:
 2142 0515 5F5F636F 		.ascii	"__count\000"
 2142      756E7400 
 2143              	.LASF122:
 2144 051d 5F5F6C6F 		.ascii	"__lock\000"
 2144      636B00
 2145              	.LASF12:
 2146 0524 75696E74 		.ascii	"uint32_t\000"
 2146      33325F74 
 2146      00
 2147              	.LASF60:
 2148 052d 5F736565 		.ascii	"_seek\000"
 2148      6B00
 2149              	.LASF124:
 2150 0533 5F696D70 		.ascii	"_impure_ptr\000"
 2150      7572655F 
 2150      70747200 
 2151              	.LASF17:
 2152 053f 5F66706F 		.ascii	"_fpos_t\000"
 2152      735F7400 
 2153              	.LASF129:
 2154 0547 6C656E67 		.ascii	"length\000"
 2154      746800
 2155              	.LASF71:
 2156 054e 5F657272 		.ascii	"_errno\000"
 2156      6E6F00
 2157              	.LASF25:
 2158 0555 63686172 		.ascii	"char\000"
 2158      00
 2159              	.LASF64:
 2160 055a 5F626C6B 		.ascii	"_blksize\000"
 2160      73697A65 
 2160      00
 2161              	.LASF34:
 2162 0563 5F5F746D 		.ascii	"__tm_min\000"
 2162      5F6D696E 
 2162      00
 2163              	.LASF98:
 2164 056c 5F6D756C 		.ascii	"_mult\000"
 2164      7400
 2165              	.LASF27:
 2166 0572 5F6E6578 		.ascii	"_next\000"
 2166      7400
 2167              	.LASF101:
 2168 0578 5F737472 		.ascii	"_strtok_last\000"
 2168      746F6B5F 
 2168      6C617374 
 2168      00
ARM GAS  C:\Users\pierr\AppData\Local\Temp\ccqUrzo0.s 			page 43


 2169              	.LASF22:
 2170 0585 5F5F7661 		.ascii	"__value\000"
 2170      6C756500 
 2171              	.LASF45:
 2172 058d 5F666E74 		.ascii	"_fntypes\000"
 2172      79706573 
 2172      00
 2173              	.LASF99:
 2174 0596 5F616464 		.ascii	"_add\000"
 2174      00
 2175              	.LASF26:
 2176 059b 5F5F554C 		.ascii	"__ULong\000"
 2176      6F6E6700 
 2177              	.LASF125:
 2178 05a3 5F676C6F 		.ascii	"_global_impure_ptr\000"
 2178      62616C5F 
 2178      696D7075 
 2178      72655F70 
 2178      747200
 2179              	.LASF100:
 2180 05b6 5F756E75 		.ascii	"_unused_rand\000"
 2180      7365645F 
 2180      72616E64 
 2180      00
 2181              	.LASF30:
 2182 05c3 5F776473 		.ascii	"_wds\000"
 2182      00
 2183              	.LASF39:
 2184 05c8 5F5F746D 		.ascii	"__tm_wday\000"
 2184      5F776461 
 2184      7900
 2185              	.LASF93:
 2186 05d2 5F676C75 		.ascii	"_glue\000"
 2186      6500
 2187              	.LASF11:
 2188 05d8 75696E74 		.ascii	"uint8_t\000"
 2188      385F7400 
 2189              	.LASF110:
 2190 05e0 5F6C3634 		.ascii	"_l64a_buf\000"
 2190      615F6275 
 2190      6600
 2191              	.LASF89:
 2192 05ea 5F736967 		.ascii	"_sig_func\000"
 2192      5F66756E 
 2192      6300
 2193              	.LASF63:
 2194 05f4 5F6E6275 		.ascii	"_nbuf\000"
 2194      6600
 2195              	.LASF121:
 2196 05fa 5F756E75 		.ascii	"_unused\000"
 2196      73656400 
 2197              	.LASF41:
 2198 0602 5F5F746D 		.ascii	"__tm_isdst\000"
 2198      5F697364 
 2198      737400
 2199              	.LASF103:
 2200 060d 5F6C6F63 		.ascii	"_localtime_buf\000"
ARM GAS  C:\Users\pierr\AppData\Local\Temp\ccqUrzo0.s 			page 44


 2200      616C7469 
 2200      6D655F62 
 2200      756600
 2201              	.LASF61:
 2202 061c 5F636C6F 		.ascii	"_close\000"
 2202      736500
 2203              	.LASF132:
 2204 0623 433A5C55 		.ascii	"C:\\Users\\pierr\\Desktop\\TPs_microinfo\\TP5_Noisy"
 2204      73657273 
 2204      5C706965 
 2204      72725C44 
 2204      65736B74 
 2205 0651 5C4E6F69 		.ascii	"\\Noisy_correction\000"
 2205      73795F63 
 2205      6F727265 
 2205      6374696F 
 2205      6E00
 2206              	.LASF106:
 2207 0663 5F723438 		.ascii	"_r48\000"
 2207      00
 2208              	.LASF108:
 2209 0668 5F6D6274 		.ascii	"_mbtowc_state\000"
 2209      6F77635F 
 2209      73746174 
 2209      6500
 2210              	.LASF83:
 2211 0676 5F703573 		.ascii	"_p5s\000"
 2211      00
 2212              	.LASF36:
 2213 067b 5F5F746D 		.ascii	"__tm_mday\000"
 2213      5F6D6461 
 2213      7900
 2214              		.ident	"GCC: (GNU Tools for Arm Embedded Processors 7-2017-q4-major) 7.2.1 20170904 (release) [ARM
ARM GAS  C:\Users\pierr\AppData\Local\Temp\ccqUrzo0.s 			page 45


DEFINED SYMBOLS
                            *ABS*:00000000 crc32.c
C:\Users\pierr\AppData\Local\Temp\ccqUrzo0.s:18     .text.crc32:00000000 $t
C:\Users\pierr\AppData\Local\Temp\ccqUrzo0.s:26     .text.crc32:00000000 crc32
C:\Users\pierr\AppData\Local\Temp\ccqUrzo0.s:111    .text.crc32:00000050 $d

UNDEFINED SYMBOLS
__stack_chk_fail
__stack_chk_guard
