ARM GAS  C:\Users\Moi\AppData\Local\Temp\ccflr8mH.s 			page 1


   1              		.cpu cortex-m4
   2              		.eabi_attribute 27, 1
   3              		.eabi_attribute 28, 1
   4              		.eabi_attribute 20, 1
   5              		.eabi_attribute 21, 1
   6              		.eabi_attribute 23, 3
   7              		.eabi_attribute 24, 1
   8              		.eabi_attribute 25, 1
   9              		.eabi_attribute 26, 1
  10              		.eabi_attribute 30, 2
  11              		.eabi_attribute 34, 1
  12              		.eabi_attribute 18, 4
  13              		.file	"e_init_port.c"
  14              		.text
  15              	.Ltext0:
  16              		.cfi_sections	.debug_frame
  17              		.section	.text.e_init_port,"ax",%progbits
  18              		.align	1
  19              		.p2align 4,,15
  20              		.global	e_init_port
  21              		.syntax unified
  22              		.thumb
  23              		.thumb_func
  24              		.fpu fpv4-sp-d16
  25              		.type	e_init_port, %function
  26              	e_init_port:
  27              	.LFB0:
  28              		.file 1 "../../lib/e-puck2_main-processor/src/epuck1x/motor_led/e_init_port.c"
  29              		.loc 1 39 0
  30              		.cfi_startproc
  31              		@ args = 0, pretend = 0, frame = 8
  32              		@ frame_needed = 0, uses_anonymous_args = 0
  33 0000 00B5     		push	{lr}
  34              		.cfi_def_cfa_offset 4
  35              		.cfi_offset 14, -4
  36 0002 064B     		ldr	r3, .L6
  37 0004 83B0     		sub	sp, sp, #12
  38              		.cfi_def_cfa_offset 16
  39              		.loc 1 39 0
  40 0006 1A68     		ldr	r2, [r3]
  41 0008 0192     		str	r2, [sp, #4]
  42              		.loc 1 41 0
  43 000a 019A     		ldr	r2, [sp, #4]
  44 000c 1B68     		ldr	r3, [r3]
  45 000e 9A42     		cmp	r2, r3
  46 0010 02D1     		bne	.L5
  47 0012 03B0     		add	sp, sp, #12
  48              		.cfi_remember_state
  49              		.cfi_def_cfa_offset 4
  50              		@ sp needed
  51 0014 5DF804FB 		ldr	pc, [sp], #4
  52              	.L5:
  53              		.cfi_restore_state
  54 0018 FFF7FEFF 		bl	__stack_chk_fail
  55              	.LVL0:
  56              	.L7:
  57              		.align	2
ARM GAS  C:\Users\Moi\AppData\Local\Temp\ccflr8mH.s 			page 2


  58              	.L6:
  59 001c 00000000 		.word	__stack_chk_guard
  60              		.cfi_endproc
  61              	.LFE0:
  62              		.size	e_init_port, .-e_init_port
  63              		.section	.text.isEpuckVersion1_3,"ax",%progbits
  64              		.align	1
  65              		.p2align 4,,15
  66              		.global	isEpuckVersion1_3
  67              		.syntax unified
  68              		.thumb
  69              		.thumb_func
  70              		.fpu fpv4-sp-d16
  71              		.type	isEpuckVersion1_3, %function
  72              	isEpuckVersion1_3:
  73              	.LFB1:
  74              		.loc 1 43 0
  75              		.cfi_startproc
  76              		@ args = 0, pretend = 0, frame = 8
  77              		@ frame_needed = 0, uses_anonymous_args = 0
  78 0000 00B5     		push	{lr}
  79              		.cfi_def_cfa_offset 4
  80              		.cfi_offset 14, -4
  81 0002 074B     		ldr	r3, .L12
  82 0004 83B0     		sub	sp, sp, #12
  83              		.cfi_def_cfa_offset 16
  84              		.loc 1 43 0
  85 0006 1A68     		ldr	r2, [r3]
  86 0008 0192     		str	r2, [sp, #4]
  87              		.loc 1 45 0
  88 000a 019A     		ldr	r2, [sp, #4]
  89 000c 1B68     		ldr	r3, [r3]
  90 000e 9A42     		cmp	r2, r3
  91 0010 03D1     		bne	.L11
  92 0012 0120     		movs	r0, #1
  93 0014 03B0     		add	sp, sp, #12
  94              		.cfi_remember_state
  95              		.cfi_def_cfa_offset 4
  96              		@ sp needed
  97 0016 5DF804FB 		ldr	pc, [sp], #4
  98              	.L11:
  99              		.cfi_restore_state
 100 001a FFF7FEFF 		bl	__stack_chk_fail
 101              	.LVL1:
 102              	.L13:
 103 001e 00BF     		.align	2
 104              	.L12:
 105 0020 00000000 		.word	__stack_chk_guard
 106              		.cfi_endproc
 107              	.LFE1:
 108              		.size	isEpuckVersion1_3, .-isEpuckVersion1_3
 109              		.text
 110              	.Letext0:
 111              		.section	.debug_info,"",%progbits
 112              	.Ldebug_info0:
 113 0000 74000000 		.4byte	0x74
 114 0004 0400     		.2byte	0x4
ARM GAS  C:\Users\Moi\AppData\Local\Temp\ccflr8mH.s 			page 3


 115 0006 00000000 		.4byte	.Ldebug_abbrev0
 116 000a 04       		.byte	0x4
 117 000b 01       		.uleb128 0x1
 118 000c 82000000 		.4byte	.LASF0
 119 0010 0C       		.byte	0xc
 120 0011 3D000000 		.4byte	.LASF1
 121 0015 C6010000 		.4byte	.LASF2
 122 0019 00000000 		.4byte	.Ldebug_ranges0+0
 123 001d 00000000 		.4byte	0
 124 0021 00000000 		.4byte	.Ldebug_line0
 125 0025 02       		.uleb128 0x2
 126 0026 00000000 		.4byte	.LASF3
 127 002a 01       		.byte	0x1
 128 002b 2B       		.byte	0x2b
 129 002c 48000000 		.4byte	0x48
 130 0030 00000000 		.4byte	.LFB1
 131 0034 24000000 		.4byte	.LFE1-.LFB1
 132 0038 01       		.uleb128 0x1
 133 0039 9C       		.byte	0x9c
 134 003a 48000000 		.4byte	0x48
 135 003e 03       		.uleb128 0x3
 136 003f 1E000000 		.4byte	.LVL1
 137 0043 6E000000 		.4byte	0x6e
 138 0047 00       		.byte	0
 139 0048 04       		.uleb128 0x4
 140 0049 01       		.byte	0x1
 141 004a 08       		.byte	0x8
 142 004b 2F000000 		.4byte	.LASF4
 143 004f 05       		.uleb128 0x5
 144 0050 12000000 		.4byte	.LASF5
 145 0054 01       		.byte	0x1
 146 0055 27       		.byte	0x27
 147 0056 00000000 		.4byte	.LFB0
 148 005a 20000000 		.4byte	.LFE0-.LFB0
 149 005e 01       		.uleb128 0x1
 150 005f 9C       		.byte	0x9c
 151 0060 6E000000 		.4byte	0x6e
 152 0064 03       		.uleb128 0x3
 153 0065 1C000000 		.4byte	.LVL0
 154 0069 6E000000 		.4byte	0x6e
 155 006d 00       		.byte	0
 156 006e 06       		.uleb128 0x6
 157 006f 1E000000 		.4byte	.LASF6
 158 0073 1E000000 		.4byte	.LASF6
 159 0077 00       		.byte	0
 160              		.section	.debug_abbrev,"",%progbits
 161              	.Ldebug_abbrev0:
 162 0000 01       		.uleb128 0x1
 163 0001 11       		.uleb128 0x11
 164 0002 01       		.byte	0x1
 165 0003 25       		.uleb128 0x25
 166 0004 0E       		.uleb128 0xe
 167 0005 13       		.uleb128 0x13
 168 0006 0B       		.uleb128 0xb
 169 0007 03       		.uleb128 0x3
 170 0008 0E       		.uleb128 0xe
 171 0009 1B       		.uleb128 0x1b
ARM GAS  C:\Users\Moi\AppData\Local\Temp\ccflr8mH.s 			page 4


 172 000a 0E       		.uleb128 0xe
 173 000b 55       		.uleb128 0x55
 174 000c 17       		.uleb128 0x17
 175 000d 11       		.uleb128 0x11
 176 000e 01       		.uleb128 0x1
 177 000f 10       		.uleb128 0x10
 178 0010 17       		.uleb128 0x17
 179 0011 00       		.byte	0
 180 0012 00       		.byte	0
 181 0013 02       		.uleb128 0x2
 182 0014 2E       		.uleb128 0x2e
 183 0015 01       		.byte	0x1
 184 0016 3F       		.uleb128 0x3f
 185 0017 19       		.uleb128 0x19
 186 0018 03       		.uleb128 0x3
 187 0019 0E       		.uleb128 0xe
 188 001a 3A       		.uleb128 0x3a
 189 001b 0B       		.uleb128 0xb
 190 001c 3B       		.uleb128 0x3b
 191 001d 0B       		.uleb128 0xb
 192 001e 27       		.uleb128 0x27
 193 001f 19       		.uleb128 0x19
 194 0020 49       		.uleb128 0x49
 195 0021 13       		.uleb128 0x13
 196 0022 11       		.uleb128 0x11
 197 0023 01       		.uleb128 0x1
 198 0024 12       		.uleb128 0x12
 199 0025 06       		.uleb128 0x6
 200 0026 40       		.uleb128 0x40
 201 0027 18       		.uleb128 0x18
 202 0028 9742     		.uleb128 0x2117
 203 002a 19       		.uleb128 0x19
 204 002b 01       		.uleb128 0x1
 205 002c 13       		.uleb128 0x13
 206 002d 00       		.byte	0
 207 002e 00       		.byte	0
 208 002f 03       		.uleb128 0x3
 209 0030 898201   		.uleb128 0x4109
 210 0033 00       		.byte	0
 211 0034 11       		.uleb128 0x11
 212 0035 01       		.uleb128 0x1
 213 0036 31       		.uleb128 0x31
 214 0037 13       		.uleb128 0x13
 215 0038 00       		.byte	0
 216 0039 00       		.byte	0
 217 003a 04       		.uleb128 0x4
 218 003b 24       		.uleb128 0x24
 219 003c 00       		.byte	0
 220 003d 0B       		.uleb128 0xb
 221 003e 0B       		.uleb128 0xb
 222 003f 3E       		.uleb128 0x3e
 223 0040 0B       		.uleb128 0xb
 224 0041 03       		.uleb128 0x3
 225 0042 0E       		.uleb128 0xe
 226 0043 00       		.byte	0
 227 0044 00       		.byte	0
 228 0045 05       		.uleb128 0x5
ARM GAS  C:\Users\Moi\AppData\Local\Temp\ccflr8mH.s 			page 5


 229 0046 2E       		.uleb128 0x2e
 230 0047 01       		.byte	0x1
 231 0048 3F       		.uleb128 0x3f
 232 0049 19       		.uleb128 0x19
 233 004a 03       		.uleb128 0x3
 234 004b 0E       		.uleb128 0xe
 235 004c 3A       		.uleb128 0x3a
 236 004d 0B       		.uleb128 0xb
 237 004e 3B       		.uleb128 0x3b
 238 004f 0B       		.uleb128 0xb
 239 0050 27       		.uleb128 0x27
 240 0051 19       		.uleb128 0x19
 241 0052 11       		.uleb128 0x11
 242 0053 01       		.uleb128 0x1
 243 0054 12       		.uleb128 0x12
 244 0055 06       		.uleb128 0x6
 245 0056 40       		.uleb128 0x40
 246 0057 18       		.uleb128 0x18
 247 0058 9742     		.uleb128 0x2117
 248 005a 19       		.uleb128 0x19
 249 005b 01       		.uleb128 0x1
 250 005c 13       		.uleb128 0x13
 251 005d 00       		.byte	0
 252 005e 00       		.byte	0
 253 005f 06       		.uleb128 0x6
 254 0060 2E       		.uleb128 0x2e
 255 0061 00       		.byte	0
 256 0062 3F       		.uleb128 0x3f
 257 0063 19       		.uleb128 0x19
 258 0064 3C       		.uleb128 0x3c
 259 0065 19       		.uleb128 0x19
 260 0066 6E       		.uleb128 0x6e
 261 0067 0E       		.uleb128 0xe
 262 0068 03       		.uleb128 0x3
 263 0069 0E       		.uleb128 0xe
 264 006a 00       		.byte	0
 265 006b 00       		.byte	0
 266 006c 00       		.byte	0
 267              		.section	.debug_aranges,"",%progbits
 268 0000 24000000 		.4byte	0x24
 269 0004 0200     		.2byte	0x2
 270 0006 00000000 		.4byte	.Ldebug_info0
 271 000a 04       		.byte	0x4
 272 000b 00       		.byte	0
 273 000c 0000     		.2byte	0
 274 000e 0000     		.2byte	0
 275 0010 00000000 		.4byte	.LFB0
 276 0014 20000000 		.4byte	.LFE0-.LFB0
 277 0018 00000000 		.4byte	.LFB1
 278 001c 24000000 		.4byte	.LFE1-.LFB1
 279 0020 00000000 		.4byte	0
 280 0024 00000000 		.4byte	0
 281              		.section	.debug_ranges,"",%progbits
 282              	.Ldebug_ranges0:
 283 0000 00000000 		.4byte	.LFB0
 284 0004 20000000 		.4byte	.LFE0
 285 0008 00000000 		.4byte	.LFB1
ARM GAS  C:\Users\Moi\AppData\Local\Temp\ccflr8mH.s 			page 6


 286 000c 24000000 		.4byte	.LFE1
 287 0010 00000000 		.4byte	0
 288 0014 00000000 		.4byte	0
 289              		.section	.debug_line,"",%progbits
 290              	.Ldebug_line0:
 291 0000 83000000 		.section	.debug_str,"MS",%progbits,1
 291      02005B00 
 291      00000201 
 291      FB0E0D00 
 291      01010101 
 292              	.LASF3:
 293 0000 69734570 		.ascii	"isEpuckVersion1_3\000"
 293      75636B56 
 293      65727369 
 293      6F6E315F 
 293      3300
 294              	.LASF5:
 295 0012 655F696E 		.ascii	"e_init_port\000"
 295      69745F70 
 295      6F727400 
 296              	.LASF6:
 297 001e 5F5F7374 		.ascii	"__stack_chk_fail\000"
 297      61636B5F 
 297      63686B5F 
 297      6661696C 
 297      00
 298              	.LASF4:
 299 002f 756E7369 		.ascii	"unsigned char\000"
 299      676E6564 
 299      20636861 
 299      7200
 300              	.LASF1:
 301 003d 2E2E2F2E 		.ascii	"../../lib/e-puck2_main-processor/src/epuck1x/motor_"
 301      2E2F6C69 
 301      622F652D 
 301      7075636B 
 301      325F6D61 
 302 0070 6C65642F 		.ascii	"led/e_init_port.c\000"
 302      655F696E 
 302      69745F70 
 302      6F72742E 
 302      6300
 303              	.LASF0:
 304 0082 474E5520 		.ascii	"GNU C11 7.2.1 20170904 (release) [ARM/embedded-7-br"
 304      43313120 
 304      372E322E 
 304      31203230 
 304      31373039 
 305 00b5 616E6368 		.ascii	"anch revision 255204] -mcpu=cortex-m4 -mfloat-abi=h"
 305      20726576 
 305      6973696F 
 305      6E203235 
 305      35323034 
 306 00e8 61726420 		.ascii	"ard -mfpu=fpv4-sp-d16 -mno-thumb-interwork -mthumb "
 306      2D6D6670 
 306      753D6670 
 306      76342D73 
ARM GAS  C:\Users\Moi\AppData\Local\Temp\ccflr8mH.s 			page 7


 306      702D6431 
 307 011b 2D676764 		.ascii	"-ggdb -O2 -fomit-frame-pointer -falign-functions=16"
 307      62202D4F 
 307      32202D66 
 307      6F6D6974 
 307      2D667261 
 308 014e 202D666E 		.ascii	" -fno-strict-aliasing -fstack-protector-all -ffunct"
 308      6F2D7374 
 308      72696374 
 308      2D616C69 
 308      6173696E 
 309 0181 696F6E2D 		.ascii	"ion-sections -fdata-sections -fno-common -fsingle-p"
 309      73656374 
 309      696F6E73 
 309      202D6664 
 309      6174612D 
 310 01b4 72656369 		.ascii	"recision-constant\000"
 310      73696F6E 
 310      2D636F6E 
 310      7374616E 
 310      7400
 311              	.LASF2:
 312 01c6 433A5C55 		.ascii	"C:\\Users\\Moi\\Documents\\_microinfo\\_TPs_microin"
 312      73657273 
 312      5C4D6F69 
 312      5C446F63 
 312      756D656E 
 313 01f4 666F5C54 		.ascii	"fo\\TP5_Noisy\\Noisy_correction\000"
 313      50355F4E 
 313      6F697379 
 313      5C4E6F69 
 313      73795F63 
 314              		.ident	"GCC: (GNU Tools for Arm Embedded Processors 7-2017-q4-major) 7.2.1 20170904 (release) [ARM
ARM GAS  C:\Users\Moi\AppData\Local\Temp\ccflr8mH.s 			page 8


DEFINED SYMBOLS
                            *ABS*:00000000 e_init_port.c
C:\Users\Moi\AppData\Local\Temp\ccflr8mH.s:18     .text.e_init_port:00000000 $t
C:\Users\Moi\AppData\Local\Temp\ccflr8mH.s:26     .text.e_init_port:00000000 e_init_port
C:\Users\Moi\AppData\Local\Temp\ccflr8mH.s:59     .text.e_init_port:0000001c $d
C:\Users\Moi\AppData\Local\Temp\ccflr8mH.s:64     .text.isEpuckVersion1_3:00000000 $t
C:\Users\Moi\AppData\Local\Temp\ccflr8mH.s:72     .text.isEpuckVersion1_3:00000000 isEpuckVersion1_3
C:\Users\Moi\AppData\Local\Temp\ccflr8mH.s:105    .text.isEpuckVersion1_3:00000020 $d

UNDEFINED SYMBOLS
__stack_chk_fail
__stack_chk_guard
